<?xml version="1.0" encoding="utf-8"?>
<!DOCTYPE eagle SYSTEM "eagle.dtd">
<eagle version="9.0.1">
<drawing>
<settings>
<setting alwaysvectorfont="no"/>
<setting keepoldvectorfont="yes"/>
<setting verticaltext="up"/>
</settings>
<grid distance="10" unitdist="mil" unit="mil" style="lines" multiple="1" display="yes" altdistance="5" altunitdist="mil" altunit="mil"/>
<layers>
<layer number="1" name="Top" color="4" fill="1" visible="yes" active="yes"/>
<layer number="2" name="Route2" color="1" fill="3" visible="no" active="no"/>
<layer number="3" name="Route3" color="4" fill="3" visible="no" active="no"/>
<layer number="4" name="Route4" color="1" fill="4" visible="no" active="no"/>
<layer number="5" name="Route5" color="4" fill="4" visible="no" active="no"/>
<layer number="6" name="Route6" color="1" fill="8" visible="no" active="no"/>
<layer number="7" name="Route7" color="4" fill="8" visible="no" active="no"/>
<layer number="8" name="Route8" color="1" fill="2" visible="no" active="no"/>
<layer number="9" name="Route9" color="4" fill="2" visible="no" active="no"/>
<layer number="10" name="Route10" color="1" fill="7" visible="no" active="no"/>
<layer number="11" name="Route11" color="4" fill="7" visible="no" active="no"/>
<layer number="12" name="Route12" color="1" fill="5" visible="no" active="no"/>
<layer number="13" name="Route13" color="4" fill="5" visible="no" active="no"/>
<layer number="14" name="Route14" color="1" fill="6" visible="no" active="no"/>
<layer number="15" name="Route15" color="4" fill="6" visible="no" active="no"/>
<layer number="16" name="Bottom" color="1" fill="1" visible="yes" active="yes"/>
<layer number="17" name="Pads" color="2" fill="1" visible="yes" active="yes"/>
<layer number="18" name="Vias" color="2" fill="1" visible="yes" active="yes"/>
<layer number="19" name="Unrouted" color="6" fill="1" visible="yes" active="yes"/>
<layer number="20" name="Dimension" color="15" fill="1" visible="yes" active="yes"/>
<layer number="21" name="tPlace" color="7" fill="1" visible="yes" active="yes"/>
<layer number="22" name="bPlace" color="7" fill="1" visible="yes" active="yes"/>
<layer number="23" name="tOrigins" color="15" fill="1" visible="yes" active="yes"/>
<layer number="24" name="bOrigins" color="15" fill="1" visible="yes" active="yes"/>
<layer number="25" name="tNames" color="7" fill="1" visible="yes" active="yes"/>
<layer number="26" name="bNames" color="7" fill="1" visible="yes" active="yes"/>
<layer number="27" name="tValues" color="7" fill="1" visible="yes" active="yes"/>
<layer number="28" name="bValues" color="7" fill="1" visible="yes" active="yes"/>
<layer number="29" name="tStop" color="7" fill="3" visible="no" active="yes"/>
<layer number="30" name="bStop" color="7" fill="6" visible="no" active="yes"/>
<layer number="31" name="tCream" color="7" fill="4" visible="no" active="yes"/>
<layer number="32" name="bCream" color="7" fill="5" visible="no" active="yes"/>
<layer number="33" name="tFinish" color="6" fill="3" visible="no" active="yes"/>
<layer number="34" name="bFinish" color="6" fill="6" visible="no" active="yes"/>
<layer number="35" name="tGlue" color="7" fill="4" visible="no" active="yes"/>
<layer number="36" name="bGlue" color="7" fill="5" visible="no" active="yes"/>
<layer number="37" name="tTest" color="7" fill="1" visible="no" active="yes"/>
<layer number="38" name="bTest" color="7" fill="1" visible="no" active="yes"/>
<layer number="39" name="tKeepout" color="4" fill="11" visible="yes" active="yes"/>
<layer number="40" name="bKeepout" color="1" fill="11" visible="yes" active="yes"/>
<layer number="41" name="tRestrict" color="4" fill="10" visible="yes" active="yes"/>
<layer number="42" name="bRestrict" color="1" fill="10" visible="yes" active="yes"/>
<layer number="43" name="vRestrict" color="2" fill="10" visible="yes" active="yes"/>
<layer number="44" name="Drills" color="7" fill="1" visible="no" active="yes"/>
<layer number="45" name="Holes" color="7" fill="1" visible="no" active="yes"/>
<layer number="46" name="Milling" color="3" fill="1" visible="no" active="yes"/>
<layer number="47" name="Measures" color="7" fill="1" visible="no" active="yes"/>
<layer number="48" name="Document" color="7" fill="1" visible="yes" active="yes"/>
<layer number="49" name="Reference" color="7" fill="1" visible="yes" active="yes"/>
<layer number="51" name="tDocu" color="7" fill="1" visible="yes" active="yes"/>
<layer number="52" name="bDocu" color="7" fill="1" visible="yes" active="yes"/>
<layer number="90" name="Modules" color="5" fill="1" visible="yes" active="yes"/>
<layer number="91" name="Nets" color="2" fill="1" visible="yes" active="yes"/>
<layer number="92" name="Busses" color="1" fill="1" visible="yes" active="yes"/>
<layer number="93" name="Pins" color="2" fill="1" visible="no" active="yes"/>
<layer number="94" name="Symbols" color="4" fill="1" visible="yes" active="yes"/>
<layer number="95" name="Names" color="7" fill="1" visible="yes" active="yes"/>
<layer number="96" name="Values" color="7" fill="1" visible="yes" active="yes"/>
<layer number="97" name="Info" color="7" fill="1" visible="yes" active="yes"/>
<layer number="98" name="Guide" color="6" fill="1" visible="yes" active="yes"/>
</layers>
<library>
<description>&lt;PCB mount audio buzzer 12Vdc 70dB Kingstate 70dB PCB Mount Continuous Internal Piezo Buzzer, 3600  4600 Hz&lt;/b&gt;&lt;p&gt;
&lt;author&gt;Created by SamacSys&lt;/author&gt;</description>
<packages>
<package name="KPEG242">
<description>&lt;b&gt;KPEG242&lt;/b&gt;&lt;br&gt;
</description>
<pad name="1" x="0" y="-3.81" drill="1" diameter="1.5"/>
<pad name="2" x="0" y="3.81" drill="1" diameter="1.5"/>
<text x="1.48" y="-0.96" size="1.27" layer="25" align="center">&gt;NAME</text>
<text x="1.48" y="-0.96" size="1.27" layer="27" align="center">&gt;VALUE</text>
<circle x="0" y="0" radius="6.85" width="0.254" layer="51"/>
<circle x="0" y="0" radius="6.85" width="0.254" layer="25"/>
<wire x1="1.27" y1="-3.81" x2="2.286" y2="-3.81" width="0.127" layer="21"/>
<wire x1="1.778" y1="-3.302" x2="1.778" y2="-4.318" width="0.127" layer="21"/>
</package>
</packages>
<symbols>
<symbol name="KPEG242">
<pin name="1" x="-7.62" y="0" visible="off" length="middle"/>
<pin name="2" x="7.62" y="0" visible="off" length="middle" rot="R180"/>
<wire x1="-1.905" y1="-0.635" x2="1.905" y2="-0.635" width="0.254" layer="94"/>
<wire x1="1.905" y1="-0.635" x2="1.905" y2="0" width="0.254" layer="94"/>
<wire x1="1.905" y1="2.54" x2="-1.905" y2="2.54" width="0.254" layer="94"/>
<wire x1="-1.905" y1="-0.635" x2="-1.905" y2="0" width="0.254" layer="94"/>
<wire x1="1.905" y1="2.54" x2="5.08" y2="5.08" width="0.254" layer="94"/>
<wire x1="5.08" y1="5.08" x2="-5.08" y2="5.08" width="0.254" layer="94"/>
<wire x1="-1.905" y1="2.54" x2="-5.08" y2="5.08" width="0.254" layer="94"/>
<wire x1="2.54" y1="0" x2="1.905" y2="0" width="0.1524" layer="94"/>
<wire x1="1.905" y1="0" x2="1.905" y2="2.54" width="0.254" layer="94"/>
<wire x1="-2.54" y1="0" x2="-1.905" y2="0" width="0.1524" layer="94"/>
<wire x1="-1.905" y1="0" x2="-1.905" y2="2.54" width="0.254" layer="94"/>
<text x="-3.81" y="6.35" size="1.778" layer="95">&gt;NAME</text>
<text x="-3.81" y="-3.175" size="1.778" layer="96">&gt;VALUE</text>
</symbol>
<symbol name="SP">
<wire x1="-1.905" y1="-0.635" x2="1.905" y2="-0.635" width="0.254" layer="94"/>
<wire x1="1.905" y1="-0.635" x2="1.905" y2="0" width="0.254" layer="94"/>
<wire x1="1.905" y1="2.54" x2="-1.905" y2="2.54" width="0.254" layer="94"/>
<wire x1="-1.905" y1="-0.635" x2="-1.905" y2="0" width="0.254" layer="94"/>
<wire x1="1.905" y1="2.54" x2="5.08" y2="5.08" width="0.254" layer="94"/>
<wire x1="5.08" y1="5.08" x2="-5.08" y2="5.08" width="0.254" layer="94"/>
<wire x1="-1.905" y1="2.54" x2="-5.08" y2="5.08" width="0.254" layer="94"/>
<wire x1="2.54" y1="0" x2="1.905" y2="0" width="0.1524" layer="94"/>
<wire x1="1.905" y1="0" x2="1.905" y2="2.54" width="0.254" layer="94"/>
<wire x1="-2.54" y1="0" x2="-1.905" y2="0" width="0.1524" layer="94"/>
<wire x1="-1.905" y1="0" x2="-1.905" y2="2.54" width="0.254" layer="94"/>
<text x="-3.81" y="6.35" size="1.778" layer="95">&gt;NAME</text>
<text x="-3.81" y="-3.175" size="1.778" layer="96">&gt;VALUE</text>
<pin name="2" x="5.08" y="0" visible="pad" length="short" direction="pas" rot="R180"/>
<pin name="1" x="-5.08" y="0" visible="pad" length="short" direction="pas"/>
</symbol>
</symbols>
<devicesets>
<deviceset name="KPEG242" prefix="LS">
<description>&lt;b&gt;PCB mount audio buzzer 12Vdc 70dB Kingstate 70dB PCB Mount Continuous Internal Piezo Buzzer, 3600  4600 Hz&lt;/b&gt;&lt;p&gt;
Source: &lt;a href="http://uk.rs-online.com/web/p/products/5358253"&gt; Datasheet &lt;/a&gt;</description>
<gates>
<gate name="G$1" symbol="KPEG242" x="0" y="0"/>
</gates>
<devices>
<device name="" package="KPEG242">
<connects>
<connect gate="G$1" pin="1" pad="1"/>
<connect gate="G$1" pin="2" pad="2"/>
</connects>
<technologies>
<technology name="">
<attribute name="DESCRIPTION" value="PCB mount audio buzzer 12Vdc 70dB Kingstate 70dB PCB Mount Continuous Internal Piezo Buzzer, 3600  4600 Hz" constant="no"/>
<attribute name="HEIGHT" value="mm" constant="no"/>
<attribute name="MANUFACTURER_NAME" value="KINGSTATE" constant="no"/>
<attribute name="MANUFACTURER_PART_NUMBER" value="KPEG242" constant="no"/>
<attribute name="RS_PART_NUMBER" value="5358253P" constant="no"/>
<attribute name="RS_PRICE/STOCK" value="http://uk.rs-online.com/web/p/products/5358253P" constant="no"/>
</technology>
</technologies>
</device>
</devices>
</deviceset>
</devicesets>
</library>
</drawing>
</eagle>
