<?xml version="1.0" encoding="utf-8"?>
<!DOCTYPE eagle SYSTEM "eagle.dtd">
<eagle version="9.0.1">
<drawing>
<settings>
<setting alwaysvectorfont="no"/>
<setting keepoldvectorfont="yes"/>
<setting verticaltext="up"/>
</settings>
<grid distance="0.635" unitdist="mm" unit="mm" style="lines" multiple="1" display="yes" altdistance="0.01" altunitdist="inch" altunit="inch"/>
<layers>
<layer number="1" name="Top" color="4" fill="1" visible="yes" active="yes"/>
<layer number="16" name="Bottom" color="1" fill="1" visible="yes" active="yes"/>
<layer number="17" name="Pads" color="2" fill="1" visible="yes" active="yes"/>
<layer number="18" name="Vias" color="2" fill="1" visible="yes" active="yes"/>
<layer number="19" name="Unrouted" color="6" fill="1" visible="yes" active="yes"/>
<layer number="20" name="Dimension" color="15" fill="1" visible="yes" active="yes"/>
<layer number="21" name="tPlace" color="7" fill="1" visible="yes" active="yes"/>
<layer number="22" name="bPlace" color="7" fill="1" visible="yes" active="yes"/>
<layer number="23" name="tOrigins" color="15" fill="1" visible="yes" active="yes"/>
<layer number="24" name="bOrigins" color="15" fill="1" visible="yes" active="yes"/>
<layer number="25" name="tNames" color="7" fill="1" visible="yes" active="yes"/>
<layer number="26" name="bNames" color="7" fill="1" visible="yes" active="yes"/>
<layer number="27" name="tValues" color="7" fill="1" visible="yes" active="yes"/>
<layer number="28" name="bValues" color="7" fill="1" visible="yes" active="yes"/>
<layer number="29" name="tStop" color="7" fill="3" visible="no" active="yes"/>
<layer number="30" name="bStop" color="7" fill="6" visible="no" active="yes"/>
<layer number="31" name="tCream" color="7" fill="4" visible="no" active="yes"/>
<layer number="32" name="bCream" color="7" fill="5" visible="no" active="yes"/>
<layer number="33" name="tFinish" color="6" fill="3" visible="no" active="yes"/>
<layer number="34" name="bFinish" color="6" fill="6" visible="no" active="yes"/>
<layer number="35" name="tGlue" color="7" fill="4" visible="no" active="yes"/>
<layer number="36" name="bGlue" color="7" fill="5" visible="no" active="yes"/>
<layer number="37" name="tTest" color="7" fill="1" visible="no" active="yes"/>
<layer number="38" name="bTest" color="7" fill="1" visible="no" active="yes"/>
<layer number="39" name="tKeepout" color="4" fill="11" visible="yes" active="yes"/>
<layer number="40" name="bKeepout" color="1" fill="11" visible="yes" active="yes"/>
<layer number="41" name="tRestrict" color="4" fill="10" visible="yes" active="yes"/>
<layer number="42" name="bRestrict" color="1" fill="10" visible="yes" active="yes"/>
<layer number="43" name="vRestrict" color="2" fill="10" visible="yes" active="yes"/>
<layer number="44" name="Drills" color="7" fill="1" visible="no" active="yes"/>
<layer number="45" name="Holes" color="7" fill="1" visible="no" active="yes"/>
<layer number="46" name="Milling" color="3" fill="1" visible="no" active="yes"/>
<layer number="47" name="Measures" color="7" fill="1" visible="no" active="yes"/>
<layer number="48" name="Document" color="7" fill="1" visible="yes" active="yes"/>
<layer number="49" name="Reference" color="7" fill="1" visible="yes" active="yes"/>
<layer number="51" name="tDocu" color="7" fill="1" visible="yes" active="yes"/>
<layer number="52" name="bDocu" color="7" fill="1" visible="yes" active="yes"/>
<layer number="90" name="Modules" color="5" fill="1" visible="yes" active="yes"/>
<layer number="91" name="Nets" color="2" fill="1" visible="yes" active="yes"/>
<layer number="92" name="Busses" color="1" fill="1" visible="yes" active="yes"/>
<layer number="93" name="Pins" color="2" fill="1" visible="no" active="yes"/>
<layer number="94" name="Symbols" color="4" fill="1" visible="yes" active="yes"/>
<layer number="95" name="Names" color="7" fill="1" visible="yes" active="yes"/>
<layer number="96" name="Values" color="7" fill="1" visible="yes" active="yes"/>
<layer number="97" name="Info" color="7" fill="1" visible="yes" active="yes"/>
<layer number="98" name="Guide" color="6" fill="1" visible="yes" active="yes"/>
</layers>
<library>
<description>&lt;DUAL PWM ST-DOWN DC-DC CONVerter DiodesZetex PAM2306AYPKE, Dual Step Down DC-DC Converter, 1A, Maximum of 3.3 V, 12-Pin WDFN&lt;/b&gt;&lt;p&gt;
&lt;author&gt;Created by SamacSys&lt;/author&gt;</description>
<packages>
<package name="SON45P300X300X80-13N">
<description>&lt;b&gt;3x3 mm WDFN 12&lt;/b&gt;&lt;br&gt;
</description>
<smd name="1" x="-1.5" y="1.125" dx="0.8" dy="0.25" layer="1"/>
<smd name="2" x="-1.5" y="0.675" dx="0.8" dy="0.25" layer="1"/>
<smd name="3" x="-1.5" y="0.225" dx="0.8" dy="0.25" layer="1"/>
<smd name="4" x="-1.5" y="-0.225" dx="0.8" dy="0.25" layer="1"/>
<smd name="5" x="-1.5" y="-0.675" dx="0.8" dy="0.25" layer="1"/>
<smd name="6" x="-1.5" y="-1.125" dx="0.8" dy="0.25" layer="1"/>
<smd name="7" x="1.5" y="-1.125" dx="0.8" dy="0.25" layer="1"/>
<smd name="8" x="1.5" y="-0.675" dx="0.8" dy="0.25" layer="1"/>
<smd name="9" x="1.5" y="-0.225" dx="0.8" dy="0.25" layer="1"/>
<smd name="10" x="1.5" y="0.225" dx="0.8" dy="0.25" layer="1"/>
<smd name="11" x="1.5" y="0.675" dx="0.8" dy="0.25" layer="1"/>
<smd name="12" x="1.5" y="1.125" dx="0.8" dy="0.25" layer="1"/>
<smd name="13" x="0" y="0" dx="2.65" dy="1.75" layer="1" rot="R90"/>
<text x="0" y="0" size="1.27" layer="25" align="center">&gt;NAME</text>
<text x="0" y="0" size="1.27" layer="27" align="center">&gt;VALUE</text>
<wire x1="-2.125" y1="1.775" x2="2.125" y2="1.775" width="0.05" layer="51"/>
<wire x1="2.125" y1="1.775" x2="2.125" y2="-1.775" width="0.05" layer="51"/>
<wire x1="2.125" y1="-1.775" x2="-2.125" y2="-1.775" width="0.05" layer="51"/>
<wire x1="-2.125" y1="-1.775" x2="-2.125" y2="1.775" width="0.05" layer="51"/>
<wire x1="-1.5" y1="1.5" x2="1.5" y2="1.5" width="0.1" layer="51"/>
<wire x1="1.5" y1="1.5" x2="1.5" y2="-1.5" width="0.1" layer="51"/>
<wire x1="1.5" y1="-1.5" x2="-1.5" y2="-1.5" width="0.1" layer="51"/>
<wire x1="-1.5" y1="-1.5" x2="-1.5" y2="1.5" width="0.1" layer="51"/>
<wire x1="-1.5" y1="0.75" x2="-0.75" y2="1.5" width="0.1" layer="51"/>
<circle x="-1.9" y="1.75" radius="0.125" width="0.25" layer="25"/>
</package>
</packages>
<symbols>
<symbol name="PAM2306AYPKE">
<wire x1="5.08" y1="2.54" x2="30.48" y2="2.54" width="0.254" layer="94"/>
<wire x1="30.48" y1="-40.64" x2="30.48" y2="2.54" width="0.254" layer="94"/>
<wire x1="30.48" y1="-40.64" x2="5.08" y2="-40.64" width="0.254" layer="94"/>
<wire x1="5.08" y1="2.54" x2="5.08" y2="-40.64" width="0.254" layer="94"/>
<text x="5.08" y="3.81" size="1.778" layer="95" align="center-left">&gt;NAME</text>
<text x="20.955" y="-41.91" size="1.778" layer="96" align="center-left">&gt;VALUE</text>
<pin name="VIN2" x="0" y="-17.78" length="middle" direction="pwr"/>
<pin name="LX2" x="35.56" y="-17.78" length="middle" rot="R180"/>
<pin name="GND_1" x="0" y="-35.56" length="middle" direction="pwr"/>
<pin name="FB1" x="35.56" y="-12.7" length="middle" direction="in" rot="R180"/>
<pin name="NC_1" x="35.56" y="-33.02" length="middle" rot="R180"/>
<pin name="EN1" x="0" y="-2.54" length="middle" direction="in"/>
<pin name="GND_3" x="35.56" y="-38.1" length="middle" direction="pwr" rot="R180"/>
<pin name="EN2" x="0" y="-20.32" length="middle" direction="in"/>
<pin name="NC_2" x="35.56" y="-35.56" length="middle" rot="R180"/>
<pin name="FB2" x="35.56" y="-27.94" length="middle" direction="in" rot="R180"/>
<pin name="GND_2" x="0" y="-38.1" length="middle" direction="pwr"/>
<pin name="LX1" x="35.56" y="0" length="middle" rot="R180"/>
<pin name="VIN1" x="0" y="0" length="middle" direction="pwr"/>
</symbol>
</symbols>
<devicesets>
<deviceset name="PAM2306AYPKE" prefix="PS">
<description>&lt;b&gt;DUAL PWM ST-DOWN DC-DC CONVerter DiodesZetex PAM2306AYPKE, Dual Step Down DC-DC Converter, 1A, Maximum of 3.3 V, 12-Pin WDFN&lt;/b&gt;&lt;p&gt;
Source: &lt;a href="https://componentsearchengine.com/Datasheets/1/PAM2306AYPKE.pdf"&gt; Datasheet &lt;/a&gt;</description>
<gates>
<gate name="G$1" symbol="PAM2306AYPKE" x="0" y="0"/>
</gates>
<devices>
<device name="" package="SON45P300X300X80-13N">
<connects>
<connect gate="G$1" pin="EN1" pad="6"/>
<connect gate="G$1" pin="EN2" pad="12"/>
<connect gate="G$1" pin="FB1" pad="4"/>
<connect gate="G$1" pin="FB2" pad="10"/>
<connect gate="G$1" pin="GND_1" pad="3"/>
<connect gate="G$1" pin="GND_2" pad="9"/>
<connect gate="G$1" pin="GND_3" pad="13"/>
<connect gate="G$1" pin="LX1" pad="8"/>
<connect gate="G$1" pin="LX2" pad="2"/>
<connect gate="G$1" pin="NC_1" pad="5"/>
<connect gate="G$1" pin="NC_2" pad="11"/>
<connect gate="G$1" pin="VIN1" pad="7"/>
<connect gate="G$1" pin="VIN2" pad="1"/>
</connects>
<technologies>
<technology name="">
<attribute name="ARROW_PART_NUMBER" value="PAM2306AYPKE" constant="no"/>
<attribute name="ARROW_PRICE/STOCK" value="https://www.arrow.com/en/products/pam2306aypke/diodes-incorporated" constant="no"/>
<attribute name="DESCRIPTION" value="DUAL PWM ST-DOWN DC-DC CONVerter DiodesZetex PAM2306AYPKE, Dual Step Down DC-DC Converter, 1A, Maximum of 3.3 V, 12-Pin WDFN" constant="no"/>
<attribute name="HEIGHT" value="0.8mm" constant="no"/>
<attribute name="MANUFACTURER_NAME" value="Diodes Inc." constant="no"/>
<attribute name="MANUFACTURER_PART_NUMBER" value="PAM2306AYPKE" constant="no"/>
<attribute name="RS_PART_NUMBER" value="1658411" constant="no"/>
<attribute name="RS_PRICE/STOCK" value="http://uk.rs-online.com/web/p/products/1658411" constant="no"/>
</technology>
</technologies>
</device>
</devices>
</deviceset>
</devicesets>
</library>
</drawing>
</eagle>
