<?xml version='1.0' encoding='UTF-8'?>
<!DOCTYPE eagle SYSTEM "eagle.dtd">
<eagle version="6.5.0">
<drawing>
<settings>
<setting alwaysvectorfont="no"/>
<setting verticaltext="up"/>
</settings>
<grid altunit="inch" altunitdist="inch" altdistance="0.025" display="yes" multiple="1" style="lines" unit="mm" unitdist="mm" distance="1.5"/>
<layers>
<layer active="yes" visible="yes" fill="1" color="4" name="Top" number="1"/>
<layer active="yes" visible="no" fill="3" color="1" name="Route2" number="2"/>
<layer active="yes" visible="no" fill="3" color="4" name="Route3" number="3"/>
<layer active="yes" visible="no" fill="6" color="1" name="Route14" number="14"/>
<layer active="yes" visible="no" fill="6" color="4" name="Route15" number="15"/>
<layer active="yes" visible="yes" fill="1" color="1" name="Bottom" number="16"/>
<layer active="yes" visible="yes" fill="1" color="2" name="Pads" number="17"/>
<layer active="yes" visible="yes" fill="1" color="2" name="Vias" number="18"/>
<layer active="yes" visible="yes" fill="1" color="6" name="Unrouted" number="19"/>
<layer active="yes" visible="yes" fill="1" color="15" name="Dimension" number="20"/>
<layer active="yes" visible="yes" fill="1" color="7" name="tPlace" number="21"/>
<layer active="yes" visible="yes" fill="1" color="7" name="bPlace" number="22"/>
<layer active="yes" visible="yes" fill="1" color="15" name="tOrigins" number="23"/>
<layer active="yes" visible="yes" fill="1" color="15" name="bOrigins" number="24"/>
<layer active="yes" visible="yes" fill="1" color="7" name="tNames" number="25"/>
<layer active="yes" visible="yes" fill="1" color="7" name="bNames" number="26"/>
<layer active="yes" visible="yes" fill="1" color="7" name="tValues" number="27"/>
<layer active="yes" visible="yes" fill="1" color="7" name="bValues" number="28"/>
<layer active="yes" visible="no" fill="3" color="7" name="tStop" number="29"/>
<layer active="yes" visible="no" fill="6" color="7" name="bStop" number="30"/>
<layer active="yes" visible="no" fill="4" color="7" name="tCream" number="31"/>
<layer active="yes" visible="no" fill="5" color="7" name="bCream" number="32"/>
<layer active="yes" visible="no" fill="3" color="6" name="tFinish" number="33"/>
<layer active="yes" visible="no" fill="6" color="6" name="bFinish" number="34"/>
<layer active="yes" visible="no" fill="4" color="7" name="tGlue" number="35"/>
<layer active="yes" visible="no" fill="5" color="7" name="bGlue" number="36"/>
<layer active="yes" visible="no" fill="1" color="7" name="tTest" number="37"/>
<layer active="yes" visible="no" fill="1" color="7" name="bTest" number="38"/>
<layer active="yes" visible="yes" fill="11" color="4" name="tKeepout" number="39"/>
<layer active="yes" visible="yes" fill="11" color="1" name="bKeepout" number="40"/>
<layer active="yes" visible="yes" fill="10" color="4" name="tRestrict" number="41"/>
<layer active="yes" visible="yes" fill="10" color="1" name="bRestrict" number="42"/>
<layer active="yes" visible="yes" fill="10" color="2" name="vRestrict" number="43"/>
<layer active="yes" visible="no" fill="1" color="7" name="Drills" number="44"/>
<layer active="yes" visible="yes" fill="1" color="7" name="Holes" number="45"/>
<layer active="yes" visible="no" fill="1" color="3" name="Milling" number="46"/>
<layer active="yes" visible="no" fill="1" color="7" name="Measures" number="47"/>
<layer active="yes" visible="yes" fill="1" color="7" name="Document" number="48"/>
<layer active="yes" visible="yes" fill="1" color="7" name="Reference" number="49"/>
<layer active="no" visible="no" fill="1" color="7" name="dxf" number="50"/>
<layer active="yes" visible="yes" fill="1" color="7" name="tDocu" number="51"/>
<layer active="yes" visible="yes" fill="1" color="7" name="bDocu" number="52"/>
<layer active="no" visible="no" fill="9" color="7" name="tGND_GNDA" number="53"/>
<layer active="no" visible="no" fill="9" color="1" name="bGND_GNDA" number="54"/>
<layer active="no" visible="no" fill="1" color="7" name="wert" number="56"/>
<layer active="yes" visible="yes" fill="1" color="2" name="Nets" number="91"/>
<layer active="yes" visible="yes" fill="1" color="1" name="Busses" number="92"/>
<layer active="yes" visible="yes" fill="1" color="2" name="Pins" number="93"/>
<layer active="yes" visible="yes" fill="1" color="4" name="Symbols" number="94"/>
<layer active="yes" visible="yes" fill="1" color="7" name="Names" number="95"/>
<layer active="yes" visible="yes" fill="1" color="7" name="Values" number="96"/>
<layer active="yes" visible="yes" fill="1" color="7" name="Info" number="97"/>
<layer active="yes" visible="yes" fill="1" color="6" name="Guide" number="98"/>
<layer active="no" visible="no" fill="1" color="7" name="Muster" number="100"/>
<layer active="yes" visible="no" fill="4" color="12" name="Patch_Top" number="101"/>
<layer active="yes" visible="no" fill="1" color="7" name="Vscore" number="102"/>
<layer active="yes" visible="no" fill="1" color="7" name="tMap" number="103"/>
<layer active="yes" visible="no" fill="1" color="16" name="Name" number="104"/>
<layer active="yes" visible="no" fill="1" color="7" name="tPlate" number="105"/>
<layer active="yes" visible="no" fill="1" color="7" name="bPlate" number="106"/>
<layer active="yes" visible="no" fill="1" color="7" name="Crop" number="107"/>
<layer active="yes" visible="no" fill="4" color="9" name="Patch_BOT" number="116"/>
<layer active="yes" visible="no" fill="1" color="7" name="_tsilk" number="121"/>
<layer active="yes" visible="no" fill="1" color="7" name="_bsilk" number="122"/>
<layer active="yes" visible="no" fill="1" color="7" name="_tNames" number="125"/>
<layer active="yes" visible="no" fill="1" color="7" name="Drill_legend" number="144"/>
<layer active="yes" visible="no" fill="1" color="7" name="HeatSink" number="151"/>
<layer active="yes" visible="no" fill="10" color="1" name="200bmp" number="200"/>
<layer active="yes" visible="no" fill="10" color="2" name="201bmp" number="201"/>
<layer active="yes" visible="no" fill="10" color="3" name="202bmp" number="202"/>
<layer active="yes" visible="no" fill="10" color="4" name="203bmp" number="203"/>
<layer active="yes" visible="no" fill="10" color="5" name="204bmp" number="204"/>
<layer active="yes" visible="no" fill="10" color="6" name="205bmp" number="205"/>
<layer active="yes" visible="no" fill="10" color="7" name="206bmp" number="206"/>
<layer active="yes" visible="no" fill="10" color="8" name="207bmp" number="207"/>
<layer active="yes" visible="no" fill="10" color="9" name="208bmp" number="208"/>
<layer active="yes" visible="no" fill="1" color="7" name="209bmp" number="209"/>
<layer active="yes" visible="no" fill="1" color="7" name="210bmp" number="210"/>
<layer active="yes" visible="no" fill="1" color="7" name="211bmp" number="211"/>
<layer active="yes" visible="no" fill="1" color="7" name="212bmp" number="212"/>
<layer active="yes" visible="no" fill="1" color="7" name="213bmp" number="213"/>
<layer active="yes" visible="no" fill="1" color="7" name="214bmp" number="214"/>
<layer active="yes" visible="no" fill="1" color="7" name="215bmp" number="215"/>
<layer active="yes" visible="no" fill="1" color="7" name="216bmp" number="216"/>
<layer active="no" visible="no" fill="1" color="18" name="217bmp" number="217"/>
<layer active="no" visible="no" fill="1" color="19" name="218bmp" number="218"/>
<layer active="no" visible="no" fill="1" color="20" name="219bmp" number="219"/>
<layer active="no" visible="no" fill="1" color="21" name="220bmp" number="220"/>
<layer active="no" visible="no" fill="1" color="22" name="221bmp" number="221"/>
<layer active="no" visible="no" fill="1" color="23" name="222bmp" number="222"/>
<layer active="no" visible="no" fill="1" color="24" name="223bmp" number="223"/>
<layer active="no" visible="no" fill="1" color="25" name="224bmp" number="224"/>
<layer active="no" visible="no" fill="1" color="3" name="Descript" number="250"/>
<layer active="no" visible="no" fill="11" color="12" name="SMDround" number="251"/>
<layer active="yes" visible="no" fill="1" color="7" name="cooling" number="254"/>
</layers>
<library>
<description>
</description>
<packages>
<package name="FCI-SODIMM-10116658-052FSLF">
<smd layer="1" dy="2" dx="0.35" y="4.1" x="31.65" name="1"/>
<smd layer="1" dy="2" dx="0.35" y="-4.1" x="31.35" name="2"/>
<smd layer="1" dy="2" dx="0.35" y="4.1" x="31.05" name="3"/>
<smd layer="1" dy="2" dx="0.35" y="-4.1" x="30.75" name="4"/>
<smd layer="1" dy="2" dx="0.35" y="4.1" x="30.45" name="5"/>
<smd layer="1" dy="2" dx="0.35" y="-4.1" x="30.15" name="6"/>
<smd layer="1" dy="2" dx="0.35" y="4.1" x="29.85" name="7"/>
<smd layer="1" dy="2" dx="0.35" y="-4.1" x="29.55" name="8"/>
<smd layer="1" dy="2" dx="0.35" y="4.1" x="29.25" name="9"/>
<smd layer="1" dy="2" dx="0.35" y="-4.1" x="28.95" name="10"/>
<smd layer="1" dy="2" dx="0.35" y="4.1" x="28.65" name="11"/>
<smd layer="1" dy="2" dx="0.35" y="-4.1" x="28.35" name="12"/>
<smd layer="1" dy="2" dx="0.35" y="4.1" x="28.05" name="13"/>
<smd layer="1" dy="2" dx="0.35" y="-4.1" x="27.75" name="14"/>
<smd layer="1" dy="2" dx="0.35" y="4.1" x="27.45" name="15"/>
<smd layer="1" dy="2" dx="0.35" y="-4.1" x="27.15" name="16"/>
<smd layer="1" dy="2" dx="0.35" y="4.1" x="26.85" name="17"/>
<smd layer="1" dy="2" dx="0.35" y="-4.1" x="26.55" name="18"/>
<smd layer="1" dy="2" dx="0.35" y="4.1" x="26.25" name="19"/>
<smd layer="1" dy="2" dx="0.35" y="-4.1" x="25.95" name="20"/>
<smd layer="1" dy="2" dx="0.35" y="4.1" x="25.65" name="21"/>
<smd layer="1" dy="2" dx="0.35" y="-4.1" x="25.35" name="22"/>
<smd layer="1" dy="2" dx="0.35" y="4.1" x="25.05" name="23"/>
<smd layer="1" dy="2" dx="0.35" y="-4.1" x="24.75" name="24"/>
<smd layer="1" dy="2" dx="0.35" y="4.1" x="24.45" name="25"/>
<smd layer="1" dy="2" dx="0.35" y="-4.1" x="24.15" name="26"/>
<smd layer="1" dy="2" dx="0.35" y="4.1" x="23.85" name="27"/>
<smd layer="1" dy="2" dx="0.35" y="-4.1" x="23.55" name="28"/>
<smd layer="1" dy="2" dx="0.35" y="4.1" x="23.25" name="29"/>
<smd layer="1" dy="2" dx="0.35" y="-4.1" x="22.95" name="30"/>
<smd layer="1" dy="2" dx="0.35" y="4.1" x="22.65" name="31"/>
<smd layer="1" dy="2" dx="0.35" y="-4.1" x="22.35" name="32"/>
<smd layer="1" dy="2" dx="0.35" y="4.1" x="22.05" name="33"/>
<smd layer="1" dy="2" dx="0.35" y="-4.1" x="21.75" name="34"/>
<smd layer="1" dy="2" dx="0.35" y="4.1" x="21.45" name="35"/>
<smd layer="1" dy="2" dx="0.35" y="-4.1" x="21.15" name="36"/>
<smd layer="1" dy="2" dx="0.35" y="4.1" x="20.85" name="37"/>
<smd layer="1" dy="2" dx="0.35" y="-4.1" x="20.55" name="38"/>
<smd layer="1" dy="2" dx="0.35" y="4.1" x="20.25" name="39"/>
<smd layer="1" dy="2" dx="0.35" y="-4.1" x="19.95" name="40"/>
<smd layer="1" dy="2" dx="0.35" y="4.1" x="16.05" name="41"/>
<smd layer="1" dy="2" dx="0.35" y="-4.1" x="15.75" name="42"/>
<smd layer="1" dy="2" dx="0.35" y="4.1" x="15.45" name="43"/>
<smd layer="1" dy="2" dx="0.35" y="-4.1" x="15.15" name="44"/>
<smd layer="1" dy="2" dx="0.35" y="4.1" x="14.85" name="45"/>
<smd layer="1" dy="2" dx="0.35" y="-4.1" x="14.55" name="46"/>
<smd layer="1" dy="2" dx="0.35" y="4.1" x="14.25" name="47"/>
<smd layer="1" dy="2" dx="0.35" y="-4.1" x="13.95" name="48"/>
<smd layer="1" dy="2" dx="0.35" y="4.1" x="13.65" name="49"/>
<smd layer="1" dy="2" dx="0.35" y="-4.1" x="13.35" name="50"/>
<smd layer="1" dy="2" dx="0.35" y="4.1" x="13.05" name="51"/>
<smd layer="1" dy="2" dx="0.35" y="-4.1" x="12.75" name="52"/>
<smd layer="1" dy="2" dx="0.35" y="4.1" x="12.45" name="53"/>
<smd layer="1" dy="2" dx="0.35" y="-4.1" x="12.15" name="54"/>
<smd layer="1" dy="2" dx="0.35" y="4.1" x="11.85" name="55"/>
<smd layer="1" dy="2" dx="0.35" y="-4.1" x="11.55" name="56"/>
<smd layer="1" dy="2" dx="0.35" y="4.1" x="11.25" name="57"/>
<smd layer="1" dy="2" dx="0.35" y="-4.1" x="10.95" name="58"/>
<smd layer="1" dy="2" dx="0.35" y="4.1" x="10.65" name="59"/>
<smd layer="1" dy="2" dx="0.35" y="-4.1" x="10.35" name="60"/>
<smd layer="1" dy="2" dx="0.35" y="4.1" x="10.05" name="61"/>
<smd layer="1" dy="2" dx="0.35" y="-4.1" x="9.75" name="62"/>
<smd layer="1" dy="2" dx="0.35" y="4.1" x="9.45" name="63"/>
<smd layer="1" dy="2" dx="0.35" y="-4.1" x="9.15" name="64"/>
<smd layer="1" dy="2" dx="0.35" y="4.1" x="8.85" name="65"/>
<smd layer="1" dy="2" dx="0.35" y="-4.1" x="8.55" name="66"/>
<smd layer="1" dy="2" dx="0.35" y="4.1" x="8.25" name="67"/>
<smd layer="1" dy="2" dx="0.35" y="-4.1" x="7.95" name="68"/>
<smd layer="1" dy="2" dx="0.35" y="4.1" x="7.65" name="69"/>
<smd layer="1" dy="2" dx="0.35" y="-4.1" x="7.35" name="70"/>
<smd layer="1" dy="2" dx="0.35" y="4.1" x="7.05" name="71"/>
<smd layer="1" dy="2" dx="0.35" y="-4.1" x="6.75" name="72"/>
<smd layer="1" dy="2" dx="0.35" y="4.1" x="6.45" name="73"/>
<smd layer="1" dy="2" dx="0.35" y="-4.1" x="6.15" name="74"/>
<smd layer="1" dy="2" dx="0.35" y="4.1" x="5.85" name="75"/>
<smd layer="1" dy="2" dx="0.35" y="-4.1" x="5.55" name="76"/>
<smd layer="1" dy="2" dx="0.35" y="4.1" x="5.25" name="77"/>
<smd layer="1" dy="2" dx="0.35" y="-4.1" x="4.95" name="78"/>
<smd layer="1" dy="2" dx="0.35" y="4.1" x="4.65" name="79"/>
<smd layer="1" dy="2" dx="0.35" y="-4.1" x="4.35" name="80"/>
<smd layer="1" dy="2" dx="0.35" y="4.1" x="4.05" name="81"/>
<smd layer="1" dy="2" dx="0.35" y="-4.1" x="3.75" name="82"/>
<smd layer="1" dy="2" dx="0.35" y="4.1" x="3.45" name="83"/>
<smd layer="1" dy="2" dx="0.35" y="-4.1" x="3.15" name="84"/>
<smd layer="1" dy="2" dx="0.35" y="4.1" x="2.85" name="85"/>
<smd layer="1" dy="2" dx="0.35" y="-4.1" x="2.55" name="86"/>
<smd layer="1" dy="2" dx="0.35" y="4.1" x="2.25" name="87"/>
<smd layer="1" dy="2" dx="0.35" y="-4.1" x="1.95" name="88"/>
<smd layer="1" dy="2" dx="0.35" y="4.1" x="1.65" name="89"/>
<smd layer="1" dy="2" dx="0.35" y="-4.1" x="1.35" name="90"/>
<smd layer="1" dy="2" dx="0.35" y="4.1" x="1.05" name="91"/>
<smd layer="1" dy="2" dx="0.35" y="-4.1" x="0.75" name="92"/>
<smd layer="1" dy="2" dx="0.35" y="4.1" x="0.45" name="93"/>
<smd layer="1" dy="2" dx="0.35" y="-4.1" x="0.15" name="94"/>
<smd layer="1" dy="2" dx="0.35" y="4.1" x="-0.15" name="95"/>
<smd layer="1" dy="2" dx="0.35" y="-4.1" x="-0.45" name="96"/>
<smd layer="1" dy="2" dx="0.35" y="4.1" x="-0.75" name="97"/>
<smd layer="1" dy="2" dx="0.35" y="-4.1" x="-1.05" name="98"/>
<smd layer="1" dy="2" dx="0.35" y="4.1" x="-1.35" name="99"/>
<smd layer="1" dy="2" dx="0.35" y="-4.1" x="-1.65" name="100"/>
<smd layer="1" dy="2" dx="0.35" y="4.1" x="-1.95" name="101"/>
<smd layer="1" dy="2" dx="0.35" y="-4.1" x="-2.25" name="102"/>
<smd layer="1" dy="2" dx="0.35" y="4.1" x="-2.55" name="103"/>
<smd layer="1" dy="2" dx="0.35" y="-4.1" x="-2.85" name="104"/>
<smd layer="1" dy="2" dx="0.35" y="4.1" x="-3.15" name="105"/>
<smd layer="1" dy="2" dx="0.35" y="-4.1" x="-3.45" name="106"/>
<smd layer="1" dy="2" dx="0.35" y="4.1" x="-3.75" name="107"/>
<smd layer="1" dy="2" dx="0.35" y="-4.1" x="-4.05" name="108"/>
<smd layer="1" dy="2" dx="0.35" y="4.1" x="-4.35" name="109"/>
<smd layer="1" dy="2" dx="0.35" y="-4.1" x="-4.65" name="110"/>
<smd layer="1" dy="2" dx="0.35" y="4.1" x="-4.95" name="111"/>
<smd layer="1" dy="2" dx="0.35" y="-4.1" x="-5.25" name="112"/>
<smd layer="1" dy="2" dx="0.35" y="4.1" x="-5.55" name="113"/>
<smd layer="1" dy="2" dx="0.35" y="-4.1" x="-5.85" name="114"/>
<smd layer="1" dy="2" dx="0.35" y="4.1" x="-6.15" name="115"/>
<smd layer="1" dy="2" dx="0.35" y="-4.1" x="-6.45" name="116"/>
<smd layer="1" dy="2" dx="0.35" y="4.1" x="-6.75" name="117"/>
<smd layer="1" dy="2" dx="0.35" y="-4.1" x="-7.05" name="118"/>
<smd layer="1" dy="2" dx="0.35" y="4.1" x="-7.35" name="119"/>
<smd layer="1" dy="2" dx="0.35" y="-4.1" x="-7.65" name="120"/>
<smd layer="1" dy="2" dx="0.35" y="4.1" x="-7.95" name="121"/>
<smd layer="1" dy="2" dx="0.35" y="-4.1" x="-8.25" name="122"/>
<smd layer="1" dy="2" dx="0.35" y="4.1" x="-8.55" name="123"/>
<smd layer="1" dy="2" dx="0.35" y="-4.1" x="-8.85" name="124"/>
<smd layer="1" dy="2" dx="0.35" y="4.1" x="-9.15" name="125"/>
<smd layer="1" dy="2" dx="0.35" y="-4.1" x="-9.45" name="126"/>
<smd layer="1" dy="2" dx="0.35" y="4.1" x="-9.75" name="127"/>
<smd layer="1" dy="2" dx="0.35" y="-4.1" x="-10.05" name="128"/>
<smd layer="1" dy="2" dx="0.35" y="4.1" x="-10.35" name="129"/>
<smd layer="1" dy="2" dx="0.35" y="-4.1" x="-10.65" name="130"/>
<smd layer="1" dy="2" dx="0.35" y="4.1" x="-10.95" name="131"/>
<smd layer="1" dy="2" dx="0.35" y="-4.1" x="-11.25" name="132"/>
<smd layer="1" dy="2" dx="0.35" y="4.1" x="-11.55" name="133"/>
<smd layer="1" dy="2" dx="0.35" y="-4.1" x="-11.85" name="134"/>
<smd layer="1" dy="2" dx="0.35" y="4.1" x="-12.15" name="135"/>
<smd layer="1" dy="2" dx="0.35" y="-4.1" x="-12.45" name="136"/>
<smd layer="1" dy="2" dx="0.35" y="4.1" x="-12.75" name="137"/>
<smd layer="1" dy="2" dx="0.35" y="-4.1" x="-13.05" name="138"/>
<smd layer="1" dy="2" dx="0.35" y="4.1" x="-13.35" name="139"/>
<smd layer="1" dy="2" dx="0.35" y="-4.1" x="-13.65" name="140"/>
<smd layer="1" dy="2" dx="0.35" y="4.1" x="-13.95" name="141"/>
<smd layer="1" dy="2" dx="0.35" y="-4.1" x="-14.25" name="142"/>
<smd layer="1" dy="2" dx="0.35" y="4.1" x="-14.55" name="143"/>
<smd layer="1" dy="2" dx="0.35" y="-4.1" x="-14.85" name="144"/>
<smd layer="1" dy="2" dx="0.35" y="4.1" x="-15.15" name="145"/>
<smd layer="1" dy="2" dx="0.35" y="-4.1" x="-15.45" name="146"/>
<smd layer="1" dy="2" dx="0.35" y="4.1" x="-15.75" name="147"/>
<smd layer="1" dy="2" dx="0.35" y="-4.1" x="-16.05" name="148"/>
<smd layer="1" dy="2" dx="0.35" y="4.1" x="-16.35" name="149"/>
<smd layer="1" dy="2" dx="0.35" y="-4.1" x="-16.65" name="150"/>
<smd layer="1" dy="2" dx="0.35" y="4.1" x="-16.95" name="151"/>
<smd layer="1" dy="2" dx="0.35" y="-4.1" x="-17.25" name="152"/>
<smd layer="1" dy="2" dx="0.35" y="4.1" x="-17.55" name="153"/>
<smd layer="1" dy="2" dx="0.35" y="-4.1" x="-17.85" name="154"/>
<smd layer="1" dy="2" dx="0.35" y="4.1" x="-18.15" name="155"/>
<smd layer="1" dy="2" dx="0.35" y="-4.1" x="-18.45" name="156"/>
<smd layer="1" dy="2" dx="0.35" y="4.1" x="-18.75" name="157"/>
<smd layer="1" dy="2" dx="0.35" y="-4.1" x="-19.05" name="158"/>
<smd layer="1" dy="2" dx="0.35" y="4.1" x="-19.35" name="159"/>
<smd layer="1" dy="2" dx="0.35" y="-4.1" x="-19.65" name="160"/>
<smd layer="1" dy="2" dx="0.35" y="4.1" x="-19.95" name="161"/>
<smd layer="1" dy="2" dx="0.35" y="-4.1" x="-20.25" name="162"/>
<smd layer="1" dy="2" dx="0.35" y="4.1" x="-20.55" name="163"/>
<smd layer="1" dy="2" dx="0.35" y="-4.1" x="-20.85" name="164"/>
<smd layer="1" dy="2" dx="0.35" y="4.1" x="-21.15" name="165"/>
<smd layer="1" dy="2" dx="0.35" y="-4.1" x="-21.45" name="166"/>
<smd layer="1" dy="2" dx="0.35" y="4.1" x="-21.75" name="167"/>
<smd layer="1" dy="2" dx="0.35" y="-4.1" x="-22.05" name="168"/>
<smd layer="1" dy="2" dx="0.35" y="4.1" x="-22.35" name="169"/>
<smd layer="1" dy="2" dx="0.35" y="-4.1" x="-22.65" name="170"/>
<smd layer="1" dy="2" dx="0.35" y="4.1" x="-22.95" name="171"/>
<smd layer="1" dy="2" dx="0.35" y="-4.1" x="-23.25" name="172"/>
<smd layer="1" dy="2" dx="0.35" y="4.1" x="-23.55" name="173"/>
<smd layer="1" dy="2" dx="0.35" y="-4.1" x="-23.85" name="174"/>
<smd layer="1" dy="2" dx="0.35" y="4.1" x="-24.15" name="175"/>
<smd layer="1" dy="2" dx="0.35" y="-4.1" x="-24.45" name="176"/>
<smd layer="1" dy="2" dx="0.35" y="4.1" x="-24.75" name="177"/>
<smd layer="1" dy="2" dx="0.35" y="-4.1" x="-25.05" name="178"/>
<smd layer="1" dy="2" dx="0.35" y="4.1" x="-25.35" name="179"/>
<smd layer="1" dy="2" dx="0.35" y="-4.1" x="-25.65" name="180"/>
<smd layer="1" dy="2" dx="0.35" y="4.1" x="-25.95" name="181"/>
<smd layer="1" dy="2" dx="0.35" y="-4.1" x="-26.25" name="182"/>
<smd layer="1" dy="2" dx="0.35" y="4.1" x="-26.55" name="183"/>
<smd layer="1" dy="2" dx="0.35" y="-4.1" x="-26.85" name="184"/>
<smd layer="1" dy="2" dx="0.35" y="4.1" x="-27.15" name="185"/>
<smd layer="1" dy="2" dx="0.35" y="-4.1" x="-27.45" name="186"/>
<smd layer="1" dy="2" dx="0.35" y="4.1" x="-27.75" name="187"/>
<smd layer="1" dy="2" dx="0.35" y="-4.1" x="-28.05" name="188"/>
<smd layer="1" dy="2" dx="0.35" y="4.1" x="-28.35" name="189"/>
<smd layer="1" dy="2" dx="0.35" y="-4.1" x="-28.65" name="190"/>
<smd layer="1" dy="2" dx="0.35" y="4.1" x="-28.95" name="191"/>
<smd layer="1" dy="2" dx="0.35" y="-4.1" x="-29.25" name="192"/>
<smd layer="1" dy="2" dx="0.35" y="4.1" x="-29.55" name="193"/>
<smd layer="1" dy="2" dx="0.35" y="-4.1" x="-29.85" name="194"/>
<smd layer="1" dy="2" dx="0.35" y="4.1" x="-30.15" name="195"/>
<smd layer="1" dy="2" dx="0.35" y="-4.1" x="-30.45" name="196"/>
<smd layer="1" dy="2" dx="0.35" y="4.1" x="-30.75" name="197"/>
<smd layer="1" dy="2" dx="0.35" y="-4.1" x="-31.05" name="198"/>
<smd layer="1" dy="2" dx="0.35" y="4.1" x="-31.35" name="199"/>
<smd layer="1" dy="2" dx="0.35" y="-4.1" x="-31.65" name="200"/>
<hole drill="1.6" y="0" x="33.4"/>
<hole drill="1.1" y="0" x="-33.4"/>
<smd layer="1" dy="4.6" dx="4.6" y="-12" x="32.6" name="201"/>
<smd layer="1" dy="4.6" dx="4.6" y="-12" x="-32.6" name="202"/>
<wire layer="21" width="0.127" y2="-25" x2="-37" y1="6.5" x1="-37"/>
<wire layer="21" width="0.127" y2="-25" x2="37" y1="6.5" x1="37"/>
<wire layer="21" width="0.127" y2="6.5" x2="37" y1="6.5" x1="-37"/>
<wire layer="21" width="0.127" y2="-25" x2="37" y1="-25" x1="-37"/>
<wire layer="21" width="0.127" y2="-30" x2="30" y1="-30" x1="-30"/>
<text layer="21" size="1.27" y="-24" x="-36">
</text>
</package>
</packages>
<symbols>
<symbol name="RASPBERRY-PI-CM">
<pin length="middle" y="53.34" x="-27.94" name="GND@1"/>
<pin rot="R180" length="middle" y="53.34" x="27.94" name="EEMC_DISABLE_N"/>
<pin length="middle" y="50.8" x="-27.94" name="GPIO0"/>
<pin rot="R180" length="middle" y="50.8" x="27.94" name="NC@4"/>
<pin length="middle" y="48.26" x="-27.94" name="GPIO1"/>
<pin rot="R180" length="middle" y="48.26" x="27.94" name="NC@6"/>
<pin length="middle" y="45.72" x="-27.94" name="GND@7"/>
<pin rot="R180" length="middle" y="45.72" x="27.94" name="NC@8"/>
<pin length="middle" y="43.18" x="-27.94" name="GPIO2"/>
<pin rot="R180" length="middle" y="43.18" x="27.94" name="NC@10"/>
<pin length="middle" y="40.64" x="-27.94" name="GPIO3"/>
<pin rot="R180" length="middle" y="40.64" x="27.94" name="NC@12"/>
<pin length="middle" y="38.1" x="-27.94" name="GND@13"/>
<pin rot="R180" length="middle" y="38.1" x="27.94" name="NC@14"/>
<pin length="middle" y="35.56" x="-27.94" name="GPIO4"/>
<pin rot="R180" length="middle" y="35.56" x="27.94" name="NC@16"/>
<pin length="middle" y="33.02" x="-27.94" name="GPIO5"/>
<pin rot="R180" length="middle" y="33.02" x="27.94" name="NC@18"/>
<pin length="middle" y="30.48" x="-27.94" name="GND@19"/>
<pin rot="R180" length="middle" y="30.48" x="27.94" name="NC@20"/>
<pin length="middle" y="27.94" x="-27.94" name="GPIO6"/>
<pin rot="R180" length="middle" y="27.94" x="27.94" name="NC@22"/>
<pin length="middle" y="25.4" x="-27.94" name="GPIO7"/>
<pin rot="R180" length="middle" y="25.4" x="27.94" name="NC@24"/>
<pin length="middle" y="22.86" x="-27.94" name="GND@25"/>
<pin rot="R180" length="middle" y="22.86" x="27.94" name="GND@26"/>
<pin length="middle" y="20.32" x="-27.94" name="GPIO8"/>
<pin rot="R180" length="middle" y="20.32" x="27.94" name="GPIO28"/>
<pin length="middle" y="17.78" x="-27.94" name="GPIO9"/>
<pin rot="R180" length="middle" y="17.78" x="27.94" name="GPIO29"/>
<pin length="middle" y="15.24" x="-27.94" name="GND@31"/>
<pin rot="R180" length="middle" y="15.24" x="27.94" name="GND@32"/>
<pin length="middle" y="12.7" x="-27.94" name="GPIO10"/>
<pin rot="R180" length="middle" y="12.7" x="27.94" name="GPIO30"/>
<pin length="middle" y="10.16" x="-27.94" name="GPIO11"/>
<pin rot="R180" length="middle" y="10.16" x="27.94" name="GPIO31"/>
<pin length="middle" y="7.62" x="-27.94" name="GND@37"/>
<pin rot="R180" length="middle" y="7.62" x="27.94" name="GND@38"/>
<pin length="middle" y="5.08" x="-27.94" name="GPIO0-27_VREF@39"/>
<pin rot="R180" length="middle" y="5.08" x="27.94" name="GPIO0-27_VREF@40"/>
<pin length="middle" y="-5.08" x="-27.94" name="GPIO28-45_VREF@41"/>
<pin rot="R180" length="middle" y="-5.08" x="27.94" name="GPIO28-45_VREF@42"/>
<pin length="middle" y="-7.62" x="-27.94" name="GND@43"/>
<pin rot="R180" length="middle" y="-7.62" x="27.94" name="GND@44"/>
<pin length="middle" y="-10.16" x="-27.94" name="GPIO12"/>
<pin rot="R180" length="middle" y="-10.16" x="27.94" name="GPIO32"/>
<pin length="middle" y="-12.7" x="-27.94" name="GPIO13"/>
<pin rot="R180" length="middle" y="-12.7" x="27.94" name="GPIO33"/>
<pin length="middle" y="-15.24" x="-27.94" name="GND@49"/>
<pin rot="R180" length="middle" y="-15.24" x="27.94" name="GND@50"/>
<pin length="middle" y="-17.78" x="-27.94" name="GPIO14"/>
<pin rot="R180" length="middle" y="-17.78" x="27.94" name="GPIO34"/>
<pin length="middle" y="-20.32" x="-27.94" name="GPIO15"/>
<pin rot="R180" length="middle" y="-20.32" x="27.94" name="GPIO35"/>
<pin length="middle" y="-22.86" x="-27.94" name="GND@55"/>
<pin rot="R180" length="middle" y="-22.86" x="27.94" name="GND@56"/>
<pin length="middle" y="-25.4" x="-27.94" name="GPIO16"/>
<pin rot="R180" length="middle" y="-25.4" x="27.94" name="GPIO36"/>
<pin length="middle" y="-27.94" x="-27.94" name="GPIO17"/>
<pin rot="R180" length="middle" y="-27.94" x="27.94" name="GPIO37"/>
<pin length="middle" y="-30.48" x="-27.94" name="GND@61"/>
<pin rot="R180" length="middle" y="-30.48" x="27.94" name="GND@62"/>
<pin length="middle" y="-33.02" x="-27.94" name="GPIO18"/>
<pin rot="R180" length="middle" y="-33.02" x="27.94" name="GPIO38"/>
<pin length="middle" y="-35.56" x="-27.94" name="GPIO19"/>
<pin rot="R180" length="middle" y="-35.56" x="27.94" name="GPIO39"/>
<pin length="middle" y="-38.1" x="-27.94" name="GND@67"/>
<pin rot="R180" length="middle" y="-38.1" x="27.94" name="GND@68"/>
<pin length="middle" y="-40.64" x="-27.94" name="GPIO20"/>
<pin rot="R180" length="middle" y="-40.64" x="27.94" name="GPIO40"/>
<pin length="middle" y="-43.18" x="-27.94" name="GPIO21"/>
<pin rot="R180" length="middle" y="-43.18" x="27.94" name="GPIO41"/>
<pin length="middle" y="-45.72" x="-27.94" name="GND@73"/>
<pin rot="R180" length="middle" y="-45.72" x="27.94" name="GND@74"/>
<pin length="middle" y="-48.26" x="-27.94" name="GPIO22"/>
<pin rot="R180" length="middle" y="-48.26" x="27.94" name="GPIO42"/>
<pin length="middle" y="-50.8" x="-27.94" name="GPIO23"/>
<pin rot="R180" length="middle" y="-50.8" x="27.94" name="GPIO43"/>
<pin length="middle" y="-53.34" x="-27.94" name="GND@79"/>
<pin rot="R180" length="middle" y="-53.34" x="27.94" name="GND@80"/>
<pin length="middle" y="-55.88" x="-27.94" name="GPIO24"/>
<pin rot="R180" length="middle" y="-55.88" x="27.94" name="GPIO44"/>
<pin length="middle" y="-58.42" x="-27.94" name="GPIO25"/>
<pin rot="R180" length="middle" y="-58.42" x="27.94" name="GPIO45"/>
<pin length="middle" y="-60.96" x="-27.94" name="GND@85"/>
<pin rot="R180" length="middle" y="-60.96" x="27.94" name="GND@86"/>
<pin length="middle" y="-63.5" x="-27.94" name="GPIO26"/>
<pin rot="R180" length="middle" y="-63.5" x="27.94" name="GPIO46_1V8"/>
<pin length="middle" y="-66.04" x="-27.94" name="GPIO27"/>
<pin rot="R180" length="middle" y="-66.04" x="27.94" name="GPIO47_1V8"/>
<pin length="middle" y="-68.58" x="-27.94" name="GND@91"/>
<pin rot="R180" length="middle" y="-68.58" x="27.94" name="GND@92"/>
<pin length="middle" y="-71.12" x="-27.94" name="DSI0_DN1"/>
<pin rot="R180" length="middle" y="-71.12" x="27.94" name="DSI1_DP0"/>
<pin length="middle" y="-73.66" x="-27.94" name="DSI0_DP1"/>
<pin rot="R180" length="middle" y="-73.66" x="27.94" name="DSI1_DN0"/>
<pin length="middle" y="-76.2" x="-27.94" name="GND@97"/>
<pin rot="R180" length="middle" y="-76.2" x="27.94" name="GND@98"/>
<pin length="middle" y="-78.74" x="-27.94" name="DSI0_DN0"/>
<pin rot="R180" length="middle" y="-78.74" x="27.94" name="DSI1_CP"/>
<pin length="middle" y="-81.28" x="-27.94" name="DSI0_DP0"/>
<pin rot="R180" length="middle" y="-81.28" x="27.94" name="DSI1_CN"/>
<pin length="middle" y="-83.82" x="-27.94" name="GND@103"/>
<pin rot="R180" length="middle" y="-83.82" x="27.94" name="GND@104"/>
<pin length="middle" y="-86.36" x="-27.94" name="DSI0_CN"/>
<pin rot="R180" length="middle" y="-86.36" x="27.94" name="DSI1_DP3"/>
<pin length="middle" y="-88.9" x="-27.94" name="DSI0_CP"/>
<pin rot="R180" length="middle" y="-88.9" x="27.94" name="DSI1_DN3"/>
<pin length="middle" y="-91.44" x="-27.94" name="GND@109"/>
<pin rot="R180" length="middle" y="-91.44" x="27.94" name="GND@110"/>
<pin length="middle" y="-93.98" x="-27.94" name="HDMI_CK_N"/>
<pin rot="R180" length="middle" y="-93.98" x="27.94" name="DSI1_DP2"/>
<pin length="middle" y="-96.52" x="-27.94" name="HDMI_CK_P"/>
<pin rot="R180" length="middle" y="-96.52" x="27.94" name="DSI1_DN2"/>
<pin length="middle" y="-99.06" x="-27.94" name="GND@115"/>
<pin rot="R180" length="middle" y="-99.06" x="27.94" name="GND@116"/>
<pin length="middle" y="-101.6" x="-27.94" name="HDMI_D0_N"/>
<pin rot="R180" length="middle" y="-101.6" x="27.94" name="DSI1_DP1"/>
<pin length="middle" y="-104.14" x="-27.94" name="HDMI_D0_P"/>
<pin rot="R180" length="middle" y="-104.14" x="27.94" name="DSI1_DN1"/>
<pin length="middle" y="-106.68" x="-27.94" name="GND@121"/>
<pin rot="R180" length="middle" y="-106.68" x="27.94" name="GND@122"/>
<pin length="middle" y="-109.22" x="-27.94" name="HDMI_D1_N"/>
<pin rot="R180" length="middle" y="-109.22" x="27.94" name="NC@124"/>
<pin length="middle" y="-111.76" x="-27.94" name="HDMI_D1_P"/>
<pin rot="R180" length="middle" y="-111.76" x="27.94" name="NC@126"/>
<pin length="middle" y="-114.3" x="-27.94" name="GND@127"/>
<pin rot="R180" length="middle" y="-114.3" x="27.94" name="NC@128"/>
<pin length="middle" y="-116.84" x="-27.94" name="HDMI_D2_N"/>
<pin rot="R180" length="middle" y="-116.84" x="27.94" name="NC@130"/>
<pin length="middle" y="-119.38" x="-27.94" name="HDMI_D2_P"/>
<pin rot="R180" length="middle" y="-119.38" x="27.94" name="NC@132"/>
<pin length="middle" y="-121.92" x="-27.94" name="GND@133"/>
<pin rot="R180" length="middle" y="-121.92" x="27.94" name="GND@134"/>
<pin length="middle" y="-124.46" x="-27.94" name="CAM1_DP3"/>
<pin rot="R180" length="middle" y="-124.46" x="27.94" name="CAM0_DP0"/>
<pin length="middle" y="-127" x="-27.94" name="CAM1_DN3"/>
<pin rot="R180" length="middle" y="-127" x="27.94" name="CAM0_DN0"/>
<pin length="middle" y="-129.54" x="-27.94" name="GND@139"/>
<pin rot="R180" length="middle" y="-129.54" x="27.94" name="GND@140"/>
<pin length="middle" y="-132.08" x="-27.94" name="CAM1_DP2"/>
<pin rot="R180" length="middle" y="-132.08" x="27.94" name="CAM0_CP"/>
<pin length="middle" y="-134.62" x="-27.94" name="CAM1_DN2"/>
<pin rot="R180" length="middle" y="-134.62" x="27.94" name="CAM0_CN"/>
<pin length="middle" y="-137.16" x="-27.94" name="GND@145"/>
<pin rot="R180" length="middle" y="-137.16" x="27.94" name="GND@146"/>
<pin length="middle" y="-139.7" x="-27.94" name="CAM1_CP"/>
<pin rot="R180" length="middle" y="-139.7" x="27.94" name="CAM0_DP1"/>
<pin length="middle" y="-142.24" x="-27.94" name="CAM1_CN"/>
<pin rot="R180" length="middle" y="-142.24" x="27.94" name="CAM0_DN1"/>
<pin length="middle" y="-144.78" x="-27.94" name="GND@151"/>
<pin rot="R180" length="middle" y="-144.78" x="27.94" name="GND@152"/>
<pin length="middle" y="-147.32" x="-27.94" name="CAM1_DP1"/>
<pin rot="R180" length="middle" y="-147.32" x="27.94" name="NC@154"/>
<pin length="middle" y="-149.86" x="-27.94" name="CAM1_DN1"/>
<pin rot="R180" length="middle" y="-149.86" x="27.94" name="NC@156"/>
<pin length="middle" y="-152.4" x="-27.94" name="GND@157"/>
<pin rot="R180" length="middle" y="-152.4" x="27.94" name="NC@158"/>
<pin length="middle" y="-154.94" x="-27.94" name="CAM1_DP0"/>
<pin rot="R180" length="middle" y="-154.94" x="27.94" name="NC@160"/>
<pin length="middle" y="-157.48" x="-27.94" name="CAM1_DN0"/>
<pin rot="R180" length="middle" y="-157.48" x="27.94" name="NC@162"/>
<pin length="middle" y="-160.02" x="-27.94" name="GND@163"/>
<pin rot="R180" length="middle" y="-160.02" x="27.94" name="GND@164"/>
<pin length="middle" y="-162.56" x="-27.94" name="USB_DP"/>
<pin rot="R180" length="middle" y="-162.56" x="27.94" name="TVDAC"/>
<pin length="middle" y="-165.1" x="-27.94" name="USB_DM"/>
<pin rot="R180" length="middle" y="-165.1" x="27.94" name="USB_OTGID"/>
<pin length="middle" y="-167.64" x="-27.94" name="GND@169"/>
<pin rot="R180" length="middle" y="-167.64" x="27.94" name="GND@170"/>
<pin length="middle" y="-170.18" x="-27.94" name="HDMI_CEC"/>
<pin rot="R180" length="middle" y="-170.18" x="27.94" name="VC_TRST_N"/>
<pin length="middle" y="-172.72" x="-27.94" name="HDMI_SDA"/>
<pin rot="R180" length="middle" y="-172.72" x="27.94" name="VC_TDI"/>
<pin length="middle" y="-175.26" x="-27.94" name="HDMI_SCL"/>
<pin rot="R180" length="middle" y="-175.26" x="27.94" name="VC_TMS"/>
<pin length="middle" y="-177.8" x="-27.94" name="RUN"/>
<pin rot="R180" length="middle" y="-177.8" x="27.94" name="VC_TDO"/>
<pin length="middle" y="-180.34" x="-27.94" name="VDD_CORE"/>
<pin rot="R180" length="middle" y="-180.34" x="27.94" name="VC_TCK"/>
<pin length="middle" y="-182.88" x="-27.94" name="GND@181"/>
<pin rot="R180" length="middle" y="-182.88" x="27.94" name="GND@182"/>
<pin length="middle" y="-185.42" x="-27.94" name="CM_1V8@183"/>
<pin rot="R180" length="middle" y="-185.42" x="27.94" name="CM_1V8@184"/>
<pin length="middle" y="-187.96" x="-27.94" name="CM_1V8@185"/>
<pin rot="R180" length="middle" y="-187.96" x="27.94" name="CM_1V8@186"/>
<pin length="middle" y="-190.5" x="-27.94" name="GND@187"/>
<pin rot="R180" length="middle" y="-190.5" x="27.94" name="GND@188"/>
<pin length="middle" y="-193.04" x="-27.94" name="CM_VDAC@189"/>
<pin rot="R180" length="middle" y="-193.04" x="27.94" name="CM_VDAC@190"/>
<pin length="middle" y="-195.58" x="-27.94" name="CM_3V3@191"/>
<pin rot="R180" length="middle" y="-195.58" x="27.94" name="CM_3V3@192"/>
<pin length="middle" y="-198.12" x="-27.94" name="CM_3V3@193"/>
<pin rot="R180" length="middle" y="-198.12" x="27.94" name="CM_3V3@194"/>
<pin length="middle" y="-200.66" x="-27.94" name="GND@195"/>
<pin rot="R180" length="middle" y="-200.66" x="27.94" name="GND@196"/>
<pin length="middle" y="-203.2" x="-27.94" name="CM_VBAT@197"/>
<pin rot="R180" length="middle" y="-203.2" x="27.94" name="CM_VBAT@198"/>
<pin length="middle" y="-205.74" x="-27.94" name="CM_VBAT@199"/>
<pin rot="R180" length="middle" y="-205.74" x="27.94" name="CM_VBAT@200"/>
<wire layer="94" width="0.254" y2="2.54" x2="-22.86" y1="58.42" x1="-22.86"/>
<wire layer="94" width="0.254" y2="-2.54" x2="-22.86" y1="2.54" x1="-22.86"/>
<wire layer="94" width="0.254" y2="-215.9" x2="-22.86" y1="-2.54" x1="-22.86"/>
<wire layer="94" width="0.254" y2="-215.9" x2="22.86" y1="-215.9" x1="-22.86"/>
<wire layer="94" width="0.254" y2="-2.54" x2="22.86" y1="-215.9" x1="22.86"/>
<wire layer="94" width="0.254" y2="2.54" x2="22.86" y1="-2.54" x1="22.86"/>
<wire layer="94" width="0.254" y2="58.42" x2="22.86" y1="2.54" x1="22.86"/>
<wire layer="94" width="0.254" y2="58.42" x2="-22.86" y1="58.42" x1="22.86"/>
<wire layer="94" width="0.254" y2="2.54" x2="22.86" y1="2.54" x1="-22.86"/>
<wire layer="94" width="0.254" y2="-2.54" x2="22.86" y1="-2.54" x1="-22.86"/>
<text layer="94" size="1.27" y="-218.44" x="-20.32">
</text>
<text layer="94" size="1.27" y="-220.98" x="-20.32">
</text>
<text layer="94" size="1.27" y="58.42" x="-20.32">
</text>
<pin length="middle" y="-213.36" x="-27.94" name="SHIELD1"/>
<pin rot="R180" length="middle" y="-213.36" x="27.94" name="SHIELD2"/>
</symbol>
</symbols>
<devicesets>
<deviceset name="RASPBERRY-PI-CM">
<description>
</description>
<gates>
<gate y="0" x="0" symbol="RASPBERRY-PI-CM" name="G$1"/>
</gates>
<devices>
<device package="FCI-SODIMM-10116658-052FSLF" name="">
<connects>
<connect pad="144" pin="CAM0_CN" gate="G$1"/>
<connect pad="142" pin="CAM0_CP" gate="G$1"/>
<connect pad="138" pin="CAM0_DN0" gate="G$1"/>
<connect pad="150" pin="CAM0_DN1" gate="G$1"/>
<connect pad="136" pin="CAM0_DP0" gate="G$1"/>
<connect pad="148" pin="CAM0_DP1" gate="G$1"/>
<connect pad="149" pin="CAM1_CN" gate="G$1"/>
<connect pad="147" pin="CAM1_CP" gate="G$1"/>
<connect pad="161" pin="CAM1_DN0" gate="G$1"/>
<connect pad="155" pin="CAM1_DN1" gate="G$1"/>
<connect pad="143" pin="CAM1_DN2" gate="G$1"/>
<connect pad="137" pin="CAM1_DN3" gate="G$1"/>
<connect pad="159" pin="CAM1_DP0" gate="G$1"/>
<connect pad="153" pin="CAM1_DP1" gate="G$1"/>
<connect pad="141" pin="CAM1_DP2" gate="G$1"/>
<connect pad="135" pin="CAM1_DP3" gate="G$1"/>
<connect pad="183" pin="CM_1V8@183" gate="G$1"/>
<connect pad="184" pin="CM_1V8@184" gate="G$1"/>
<connect pad="185" pin="CM_1V8@185" gate="G$1"/>
<connect pad="186" pin="CM_1V8@186" gate="G$1"/>
<connect pad="191" pin="CM_3V3@191" gate="G$1"/>
<connect pad="192" pin="CM_3V3@192" gate="G$1"/>
<connect pad="193" pin="CM_3V3@193" gate="G$1"/>
<connect pad="194" pin="CM_3V3@194" gate="G$1"/>
<connect pad="197" pin="CM_VBAT@197" gate="G$1"/>
<connect pad="198" pin="CM_VBAT@198" gate="G$1"/>
<connect pad="199" pin="CM_VBAT@199" gate="G$1"/>
<connect pad="200" pin="CM_VBAT@200" gate="G$1"/>
<connect pad="189" pin="CM_VDAC@189" gate="G$1"/>
<connect pad="190" pin="CM_VDAC@190" gate="G$1"/>
<connect pad="105" pin="DSI0_CN" gate="G$1"/>
<connect pad="107" pin="DSI0_CP" gate="G$1"/>
<connect pad="99" pin="DSI0_DN0" gate="G$1"/>
<connect pad="93" pin="DSI0_DN1" gate="G$1"/>
<connect pad="101" pin="DSI0_DP0" gate="G$1"/>
<connect pad="95" pin="DSI0_DP1" gate="G$1"/>
<connect pad="102" pin="DSI1_CN" gate="G$1"/>
<connect pad="100" pin="DSI1_CP" gate="G$1"/>
<connect pad="96" pin="DSI1_DN0" gate="G$1"/>
<connect pad="120" pin="DSI1_DN1" gate="G$1"/>
<connect pad="114" pin="DSI1_DN2" gate="G$1"/>
<connect pad="108" pin="DSI1_DN3" gate="G$1"/>
<connect pad="94" pin="DSI1_DP0" gate="G$1"/>
<connect pad="118" pin="DSI1_DP1" gate="G$1"/>
<connect pad="112" pin="DSI1_DP2" gate="G$1"/>
<connect pad="106" pin="DSI1_DP3" gate="G$1"/>
<connect pad="2" pin="EEMC_DISABLE_N" gate="G$1"/>
<connect pad="1" pin="GND@1" gate="G$1"/>
<connect pad="103" pin="GND@103" gate="G$1"/>
<connect pad="104" pin="GND@104" gate="G$1"/>
<connect pad="109" pin="GND@109" gate="G$1"/>
<connect pad="110" pin="GND@110" gate="G$1"/>
<connect pad="115" pin="GND@115" gate="G$1"/>
<connect pad="116" pin="GND@116" gate="G$1"/>
<connect pad="121" pin="GND@121" gate="G$1"/>
<connect pad="122" pin="GND@122" gate="G$1"/>
<connect pad="127" pin="GND@127" gate="G$1"/>
<connect pad="13" pin="GND@13" gate="G$1"/>
<connect pad="133" pin="GND@133" gate="G$1"/>
<connect pad="134" pin="GND@134" gate="G$1"/>
<connect pad="139" pin="GND@139" gate="G$1"/>
<connect pad="140" pin="GND@140" gate="G$1"/>
<connect pad="145" pin="GND@145" gate="G$1"/>
<connect pad="146" pin="GND@146" gate="G$1"/>
<connect pad="151" pin="GND@151" gate="G$1"/>
<connect pad="152" pin="GND@152" gate="G$1"/>
<connect pad="157" pin="GND@157" gate="G$1"/>
<connect pad="163" pin="GND@163" gate="G$1"/>
<connect pad="164" pin="GND@164" gate="G$1"/>
<connect pad="169" pin="GND@169" gate="G$1"/>
<connect pad="170" pin="GND@170" gate="G$1"/>
<connect pad="181" pin="GND@181" gate="G$1"/>
<connect pad="182" pin="GND@182" gate="G$1"/>
<connect pad="187" pin="GND@187" gate="G$1"/>
<connect pad="188" pin="GND@188" gate="G$1"/>
<connect pad="19" pin="GND@19" gate="G$1"/>
<connect pad="195" pin="GND@195" gate="G$1"/>
<connect pad="196" pin="GND@196" gate="G$1"/>
<connect pad="25" pin="GND@25" gate="G$1"/>
<connect pad="26" pin="GND@26" gate="G$1"/>
<connect pad="31" pin="GND@31" gate="G$1"/>
<connect pad="32" pin="GND@32" gate="G$1"/>
<connect pad="37" pin="GND@37" gate="G$1"/>
<connect pad="38" pin="GND@38" gate="G$1"/>
<connect pad="43" pin="GND@43" gate="G$1"/>
<connect pad="44" pin="GND@44" gate="G$1"/>
<connect pad="49" pin="GND@49" gate="G$1"/>
<connect pad="50" pin="GND@50" gate="G$1"/>
<connect pad="55" pin="GND@55" gate="G$1"/>
<connect pad="56" pin="GND@56" gate="G$1"/>
<connect pad="61" pin="GND@61" gate="G$1"/>
<connect pad="62" pin="GND@62" gate="G$1"/>
<connect pad="67" pin="GND@67" gate="G$1"/>
<connect pad="68" pin="GND@68" gate="G$1"/>
<connect pad="7" pin="GND@7" gate="G$1"/>
<connect pad="73" pin="GND@73" gate="G$1"/>
<connect pad="74" pin="GND@74" gate="G$1"/>
<connect pad="79" pin="GND@79" gate="G$1"/>
<connect pad="80" pin="GND@80" gate="G$1"/>
<connect pad="85" pin="GND@85" gate="G$1"/>
<connect pad="86" pin="GND@86" gate="G$1"/>
<connect pad="91" pin="GND@91" gate="G$1"/>
<connect pad="92" pin="GND@92" gate="G$1"/>
<connect pad="97" pin="GND@97" gate="G$1"/>
<connect pad="98" pin="GND@98" gate="G$1"/>
<connect pad="3" pin="GPIO0" gate="G$1"/>
<connect pad="39" pin="GPIO0-27_VREF@39" gate="G$1"/>
<connect pad="40" pin="GPIO0-27_VREF@40" gate="G$1"/>
<connect pad="5" pin="GPIO1" gate="G$1"/>
<connect pad="33" pin="GPIO10" gate="G$1"/>
<connect pad="35" pin="GPIO11" gate="G$1"/>
<connect pad="45" pin="GPIO12" gate="G$1"/>
<connect pad="47" pin="GPIO13" gate="G$1"/>
<connect pad="51" pin="GPIO14" gate="G$1"/>
<connect pad="53" pin="GPIO15" gate="G$1"/>
<connect pad="57" pin="GPIO16" gate="G$1"/>
<connect pad="59" pin="GPIO17" gate="G$1"/>
<connect pad="63" pin="GPIO18" gate="G$1"/>
<connect pad="65" pin="GPIO19" gate="G$1"/>
<connect pad="9" pin="GPIO2" gate="G$1"/>
<connect pad="69" pin="GPIO20" gate="G$1"/>
<connect pad="71" pin="GPIO21" gate="G$1"/>
<connect pad="75" pin="GPIO22" gate="G$1"/>
<connect pad="77" pin="GPIO23" gate="G$1"/>
<connect pad="81" pin="GPIO24" gate="G$1"/>
<connect pad="83" pin="GPIO25" gate="G$1"/>
<connect pad="87" pin="GPIO26" gate="G$1"/>
<connect pad="89" pin="GPIO27" gate="G$1"/>
<connect pad="28" pin="GPIO28" gate="G$1"/>
<connect pad="41" pin="GPIO28-45_VREF@41" gate="G$1"/>
<connect pad="42" pin="GPIO28-45_VREF@42" gate="G$1"/>
<connect pad="30" pin="GPIO29" gate="G$1"/>
<connect pad="11" pin="GPIO3" gate="G$1"/>
<connect pad="34" pin="GPIO30" gate="G$1"/>
<connect pad="36" pin="GPIO31" gate="G$1"/>
<connect pad="46" pin="GPIO32" gate="G$1"/>
<connect pad="48" pin="GPIO33" gate="G$1"/>
<connect pad="52" pin="GPIO34" gate="G$1"/>
<connect pad="54" pin="GPIO35" gate="G$1"/>
<connect pad="58" pin="GPIO36" gate="G$1"/>
<connect pad="60" pin="GPIO37" gate="G$1"/>
<connect pad="64" pin="GPIO38" gate="G$1"/>
<connect pad="66" pin="GPIO39" gate="G$1"/>
<connect pad="15" pin="GPIO4" gate="G$1"/>
<connect pad="70" pin="GPIO40" gate="G$1"/>
<connect pad="72" pin="GPIO41" gate="G$1"/>
<connect pad="76" pin="GPIO42" gate="G$1"/>
<connect pad="78" pin="GPIO43" gate="G$1"/>
<connect pad="82" pin="GPIO44" gate="G$1"/>
<connect pad="84" pin="GPIO45" gate="G$1"/>
<connect pad="88" pin="GPIO46_1V8" gate="G$1"/>
<connect pad="90" pin="GPIO47_1V8" gate="G$1"/>
<connect pad="17" pin="GPIO5" gate="G$1"/>
<connect pad="21" pin="GPIO6" gate="G$1"/>
<connect pad="23" pin="GPIO7" gate="G$1"/>
<connect pad="27" pin="GPIO8" gate="G$1"/>
<connect pad="29" pin="GPIO9" gate="G$1"/>
<connect pad="171" pin="HDMI_CEC" gate="G$1"/>
<connect pad="111" pin="HDMI_CK_N" gate="G$1"/>
<connect pad="113" pin="HDMI_CK_P" gate="G$1"/>
<connect pad="117" pin="HDMI_D0_N" gate="G$1"/>
<connect pad="119" pin="HDMI_D0_P" gate="G$1"/>
<connect pad="123" pin="HDMI_D1_N" gate="G$1"/>
<connect pad="125" pin="HDMI_D1_P" gate="G$1"/>
<connect pad="129" pin="HDMI_D2_N" gate="G$1"/>
<connect pad="131" pin="HDMI_D2_P" gate="G$1"/>
<connect pad="175" pin="HDMI_SCL" gate="G$1"/>
<connect pad="173" pin="HDMI_SDA" gate="G$1"/>
<connect pad="10" pin="NC@10" gate="G$1"/>
<connect pad="12" pin="NC@12" gate="G$1"/>
<connect pad="124" pin="NC@124" gate="G$1"/>
<connect pad="126" pin="NC@126" gate="G$1"/>
<connect pad="128" pin="NC@128" gate="G$1"/>
<connect pad="130" pin="NC@130" gate="G$1"/>
<connect pad="132" pin="NC@132" gate="G$1"/>
<connect pad="14" pin="NC@14" gate="G$1"/>
<connect pad="154" pin="NC@154" gate="G$1"/>
<connect pad="156" pin="NC@156" gate="G$1"/>
<connect pad="158" pin="NC@158" gate="G$1"/>
<connect pad="16" pin="NC@16" gate="G$1"/>
<connect pad="160" pin="NC@160" gate="G$1"/>
<connect pad="162" pin="NC@162" gate="G$1"/>
<connect pad="18" pin="NC@18" gate="G$1"/>
<connect pad="20" pin="NC@20" gate="G$1"/>
<connect pad="22" pin="NC@22" gate="G$1"/>
<connect pad="24" pin="NC@24" gate="G$1"/>
<connect pad="4" pin="NC@4" gate="G$1"/>
<connect pad="6" pin="NC@6" gate="G$1"/>
<connect pad="8" pin="NC@8" gate="G$1"/>
<connect pad="177" pin="RUN" gate="G$1"/>
<connect pad="201" pin="SHIELD1" gate="G$1"/>
<connect pad="202" pin="SHIELD2" gate="G$1"/>
<connect pad="166" pin="TVDAC" gate="G$1"/>
<connect pad="167" pin="USB_DM" gate="G$1"/>
<connect pad="165" pin="USB_DP" gate="G$1"/>
<connect pad="168" pin="USB_OTGID" gate="G$1"/>
<connect pad="180" pin="VC_TCK" gate="G$1"/>
<connect pad="174" pin="VC_TDI" gate="G$1"/>
<connect pad="178" pin="VC_TDO" gate="G$1"/>
<connect pad="176" pin="VC_TMS" gate="G$1"/>
<connect pad="172" pin="VC_TRST_N" gate="G$1"/>
<connect pad="179" pin="VDD_CORE" gate="G$1"/>
</connects>
<technologies>
<technology name=""/>
</technologies>
</device>
</devices>
</deviceset>
</devicesets>
</library>
</drawing>
</eagle>
