G04 EAGLE Gerber X2 export*
%TF.Part,Single*%
%TF.FileFunction,Copper,L2,Inr,Mixed*%
%TF.FilePolarity,Positive*%
%TF.GenerationSoftware,Autodesk,EAGLE,9.0.1*%
%TF.CreationDate,2018-07-19T23:26:43Z*%
G75*
%MOMM*%
%FSLAX34Y34*%
%LPD*%
%AMOC8*
5,1,8,0,0,1.08239X$1,22.5*%
G01*
%ADD10C,1.500000*%
%ADD11C,1.350000*%
%ADD12C,1.800000*%
%ADD13C,1.950000*%
%ADD14C,1.524000*%
%ADD15C,1.650000*%
%ADD16C,0.550000*%
%ADD17C,0.600000*%
%ADD18C,0.500000*%
%ADD19C,0.650000*%
%ADD20C,0.750000*%
%ADD21C,0.900000*%
%ADD22C,2.100000*%
%ADD23C,1.050000*%
%ADD24C,1.200000*%

G36*
X1020024Y5339D02*
X1020024Y5339D01*
X1020049Y5336D01*
X1020144Y5358D01*
X1020241Y5374D01*
X1020262Y5386D01*
X1020286Y5392D01*
X1020370Y5443D01*
X1020456Y5489D01*
X1020473Y5507D01*
X1020494Y5520D01*
X1020556Y5596D01*
X1020623Y5667D01*
X1020633Y5690D01*
X1020649Y5709D01*
X1020683Y5800D01*
X1020724Y5890D01*
X1020726Y5914D01*
X1020735Y5937D01*
X1020749Y6084D01*
X1020749Y79251D01*
X1093916Y79251D01*
X1093940Y79255D01*
X1093965Y79252D01*
X1094060Y79275D01*
X1094157Y79290D01*
X1094178Y79302D01*
X1094202Y79308D01*
X1094286Y79359D01*
X1094372Y79405D01*
X1094389Y79423D01*
X1094410Y79436D01*
X1094472Y79512D01*
X1094539Y79584D01*
X1094549Y79606D01*
X1094565Y79625D01*
X1094599Y79716D01*
X1094640Y79806D01*
X1094642Y79830D01*
X1094651Y79853D01*
X1094665Y80000D01*
X1094665Y770000D01*
X1094661Y770024D01*
X1094664Y770049D01*
X1094642Y770144D01*
X1094626Y770241D01*
X1094614Y770262D01*
X1094608Y770286D01*
X1094557Y770370D01*
X1094511Y770456D01*
X1094493Y770473D01*
X1094480Y770494D01*
X1094404Y770556D01*
X1094333Y770623D01*
X1094310Y770633D01*
X1094291Y770649D01*
X1094200Y770683D01*
X1094110Y770724D01*
X1094086Y770726D01*
X1094063Y770735D01*
X1093916Y770749D01*
X1020749Y770749D01*
X1020749Y843916D01*
X1020745Y843940D01*
X1020748Y843965D01*
X1020725Y844060D01*
X1020710Y844157D01*
X1020698Y844178D01*
X1020692Y844202D01*
X1020641Y844286D01*
X1020595Y844372D01*
X1020577Y844389D01*
X1020564Y844410D01*
X1020488Y844472D01*
X1020416Y844539D01*
X1020394Y844549D01*
X1020375Y844565D01*
X1020284Y844599D01*
X1020194Y844640D01*
X1020170Y844642D01*
X1020147Y844651D01*
X1020000Y844665D01*
X227000Y844665D01*
X226976Y844661D01*
X226951Y844664D01*
X226856Y844642D01*
X226759Y844626D01*
X226738Y844614D01*
X226714Y844608D01*
X226630Y844557D01*
X226544Y844511D01*
X226527Y844493D01*
X226506Y844480D01*
X226444Y844404D01*
X226377Y844333D01*
X226367Y844310D01*
X226352Y844291D01*
X226317Y844200D01*
X226276Y844110D01*
X226274Y844086D01*
X226265Y844063D01*
X226251Y843916D01*
X226251Y812000D01*
X226267Y811904D01*
X226276Y811807D01*
X226286Y811784D01*
X226290Y811759D01*
X226336Y811673D01*
X226377Y811584D01*
X226398Y811559D01*
X226405Y811544D01*
X226424Y811527D01*
X226470Y811470D01*
X310251Y727690D01*
X310251Y514697D01*
X310267Y514601D01*
X310276Y514504D01*
X310286Y514481D01*
X310290Y514456D01*
X310336Y514370D01*
X310377Y514282D01*
X310398Y514256D01*
X310405Y514241D01*
X310424Y514224D01*
X310470Y514167D01*
X310777Y513860D01*
X311815Y511356D01*
X311815Y508644D01*
X310777Y506140D01*
X310470Y505833D01*
X310413Y505753D01*
X310352Y505678D01*
X310343Y505655D01*
X310328Y505634D01*
X310300Y505541D01*
X310265Y505450D01*
X310262Y505417D01*
X310257Y505401D01*
X310258Y505376D01*
X310251Y505303D01*
X310251Y410310D01*
X306690Y406749D01*
X6084Y406749D01*
X6060Y406745D01*
X6035Y406748D01*
X5940Y406726D01*
X5843Y406710D01*
X5822Y406698D01*
X5798Y406692D01*
X5714Y406641D01*
X5628Y406595D01*
X5611Y406577D01*
X5590Y406564D01*
X5528Y406488D01*
X5461Y406417D01*
X5451Y406394D01*
X5435Y406375D01*
X5401Y406284D01*
X5360Y406194D01*
X5358Y406170D01*
X5349Y406147D01*
X5335Y406000D01*
X5335Y80000D01*
X5339Y79976D01*
X5336Y79951D01*
X5358Y79856D01*
X5374Y79759D01*
X5386Y79738D01*
X5392Y79714D01*
X5443Y79630D01*
X5489Y79544D01*
X5507Y79527D01*
X5520Y79506D01*
X5596Y79444D01*
X5667Y79377D01*
X5690Y79367D01*
X5709Y79352D01*
X5800Y79317D01*
X5890Y79276D01*
X5914Y79274D01*
X5937Y79265D01*
X6084Y79251D01*
X79251Y79251D01*
X79251Y6084D01*
X79255Y6060D01*
X79252Y6035D01*
X79275Y5940D01*
X79290Y5843D01*
X79302Y5822D01*
X79308Y5798D01*
X79359Y5714D01*
X79405Y5628D01*
X79423Y5611D01*
X79436Y5590D01*
X79512Y5528D01*
X79584Y5461D01*
X79606Y5451D01*
X79625Y5435D01*
X79716Y5401D01*
X79806Y5360D01*
X79830Y5358D01*
X79853Y5349D01*
X80000Y5335D01*
X1020000Y5335D01*
X1020024Y5339D01*
G37*
%LPC*%
G36*
X682476Y19515D02*
X682476Y19515D01*
X678181Y21294D01*
X674894Y24581D01*
X673115Y28876D01*
X673115Y33524D01*
X674099Y35899D01*
X674110Y35947D01*
X674130Y35992D01*
X674138Y36065D01*
X674154Y36137D01*
X674150Y36186D01*
X674155Y36235D01*
X674138Y36306D01*
X674131Y36380D01*
X674110Y36424D01*
X674099Y36472D01*
X674060Y36535D01*
X674030Y36602D01*
X673997Y36638D01*
X673971Y36680D01*
X673914Y36726D01*
X673863Y36780D01*
X673820Y36803D01*
X673782Y36835D01*
X673713Y36861D01*
X673648Y36895D01*
X673600Y36903D01*
X673554Y36921D01*
X673408Y36935D01*
X673407Y36935D01*
X670595Y36935D01*
X667998Y38011D01*
X666011Y39998D01*
X664935Y42595D01*
X664935Y45124D01*
X664927Y45172D01*
X664929Y45221D01*
X664908Y45292D01*
X664896Y45365D01*
X664872Y45408D01*
X664858Y45455D01*
X664815Y45515D01*
X664781Y45580D01*
X664745Y45614D01*
X664716Y45653D01*
X664656Y45696D01*
X664603Y45747D01*
X664558Y45767D01*
X664518Y45796D01*
X664448Y45817D01*
X664380Y45848D01*
X664331Y45852D01*
X664285Y45867D01*
X664211Y45864D01*
X664137Y45872D01*
X664090Y45861D01*
X664041Y45859D01*
X663901Y45817D01*
X663900Y45816D01*
X663899Y45816D01*
X661724Y44915D01*
X657076Y44915D01*
X652781Y46694D01*
X649494Y49981D01*
X647715Y54276D01*
X647715Y58924D01*
X649494Y63219D01*
X652781Y66506D01*
X657076Y68285D01*
X661724Y68285D01*
X666019Y66506D01*
X669306Y63219D01*
X671085Y58924D01*
X671085Y54276D01*
X670184Y52101D01*
X670173Y52053D01*
X670152Y52008D01*
X670145Y51935D01*
X670128Y51863D01*
X670133Y51814D01*
X670128Y51765D01*
X670145Y51694D01*
X670152Y51620D01*
X670172Y51576D01*
X670184Y51528D01*
X670222Y51465D01*
X670253Y51398D01*
X670286Y51362D01*
X670312Y51320D01*
X670369Y51274D01*
X670420Y51220D01*
X670463Y51197D01*
X670501Y51165D01*
X670570Y51139D01*
X670635Y51105D01*
X670683Y51097D01*
X670729Y51079D01*
X670875Y51065D01*
X670876Y51065D01*
X673324Y51065D01*
X673372Y51073D01*
X673421Y51071D01*
X673492Y51092D01*
X673565Y51104D01*
X673608Y51128D01*
X673655Y51142D01*
X673715Y51185D01*
X673780Y51219D01*
X673814Y51255D01*
X673853Y51284D01*
X673896Y51344D01*
X673947Y51397D01*
X673967Y51442D01*
X673996Y51482D01*
X674017Y51552D01*
X674048Y51620D01*
X674052Y51669D01*
X674067Y51715D01*
X674064Y51789D01*
X674072Y51863D01*
X674061Y51910D01*
X674059Y51959D01*
X674017Y52099D01*
X674016Y52100D01*
X674016Y52101D01*
X673115Y54276D01*
X673115Y58924D01*
X674894Y63219D01*
X678181Y66506D01*
X682476Y68285D01*
X687124Y68285D01*
X691419Y66506D01*
X694706Y63219D01*
X696485Y58924D01*
X696485Y54276D01*
X694706Y49981D01*
X691419Y46694D01*
X687124Y44915D01*
X682476Y44915D01*
X680101Y45899D01*
X680053Y45910D01*
X680008Y45930D01*
X679935Y45938D01*
X679863Y45954D01*
X679814Y45950D01*
X679765Y45955D01*
X679694Y45938D01*
X679620Y45931D01*
X679576Y45910D01*
X679528Y45899D01*
X679465Y45860D01*
X679398Y45830D01*
X679362Y45797D01*
X679320Y45771D01*
X679274Y45714D01*
X679220Y45663D01*
X679197Y45620D01*
X679165Y45582D01*
X679139Y45513D01*
X679105Y45448D01*
X679097Y45400D01*
X679079Y45354D01*
X679065Y45208D01*
X679065Y45207D01*
X679065Y42593D01*
X679073Y42545D01*
X679071Y42496D01*
X679092Y42425D01*
X679104Y42352D01*
X679128Y42309D01*
X679142Y42262D01*
X679185Y42202D01*
X679219Y42137D01*
X679255Y42104D01*
X679284Y42064D01*
X679344Y42021D01*
X679397Y41970D01*
X679442Y41950D01*
X679482Y41921D01*
X679552Y41900D01*
X679620Y41870D01*
X679669Y41865D01*
X679715Y41850D01*
X679789Y41853D01*
X679863Y41845D01*
X679910Y41857D01*
X679959Y41858D01*
X680099Y41901D01*
X680100Y41901D01*
X680101Y41901D01*
X682476Y42885D01*
X687124Y42885D01*
X691419Y41106D01*
X694706Y37819D01*
X696485Y33524D01*
X696485Y28876D01*
X694706Y24581D01*
X691419Y21294D01*
X687124Y19515D01*
X682476Y19515D01*
G37*
%LPD*%
%LPC*%
G36*
X526103Y716435D02*
X526103Y716435D01*
X520750Y718653D01*
X516653Y722750D01*
X514435Y728103D01*
X514435Y733897D01*
X516653Y739250D01*
X520750Y743347D01*
X526103Y745565D01*
X531897Y745565D01*
X537250Y743347D01*
X541347Y739250D01*
X543565Y733897D01*
X543565Y728103D01*
X541347Y722750D01*
X537250Y718653D01*
X531897Y716435D01*
X526103Y716435D01*
G37*
%LPD*%
%LPC*%
G36*
X912644Y136185D02*
X912644Y136185D01*
X910140Y137223D01*
X908223Y139140D01*
X907185Y141644D01*
X907185Y144356D01*
X908223Y146860D01*
X910140Y148777D01*
X912644Y149815D01*
X915356Y149815D01*
X917860Y148777D01*
X919006Y147631D01*
X919046Y147602D01*
X919080Y147567D01*
X919145Y147532D01*
X919205Y147489D01*
X919252Y147475D01*
X919295Y147451D01*
X919368Y147439D01*
X919438Y147418D01*
X919487Y147420D01*
X919536Y147412D01*
X919609Y147424D01*
X919682Y147426D01*
X919728Y147443D01*
X919777Y147451D01*
X919841Y147486D01*
X919911Y147512D01*
X919949Y147543D01*
X919992Y147566D01*
X920042Y147620D01*
X920099Y147666D01*
X920125Y147708D01*
X920159Y147744D01*
X920219Y147857D01*
X922140Y149777D01*
X924644Y150815D01*
X927356Y150815D01*
X929860Y149777D01*
X931785Y147853D01*
X931797Y147832D01*
X931815Y147787D01*
X931861Y147729D01*
X931900Y147667D01*
X931938Y147636D01*
X931969Y147598D01*
X932032Y147559D01*
X932089Y147512D01*
X932135Y147495D01*
X932177Y147469D01*
X932248Y147452D01*
X932317Y147426D01*
X932366Y147424D01*
X932414Y147413D01*
X932487Y147420D01*
X932561Y147418D01*
X932608Y147432D01*
X932657Y147437D01*
X932724Y147467D01*
X932795Y147489D01*
X932835Y147517D01*
X932879Y147537D01*
X932992Y147630D01*
X932993Y147631D01*
X932994Y147631D01*
X934140Y148777D01*
X936644Y149815D01*
X939356Y149815D01*
X941860Y148777D01*
X943777Y146860D01*
X944308Y145579D01*
X944347Y145517D01*
X944377Y145450D01*
X944411Y145414D01*
X944437Y145372D01*
X944493Y145326D01*
X944544Y145272D01*
X944587Y145249D01*
X944625Y145217D01*
X944694Y145191D01*
X944759Y145157D01*
X944807Y145149D01*
X944854Y145131D01*
X944927Y145129D01*
X944999Y145117D01*
X945048Y145125D01*
X945097Y145123D01*
X945168Y145145D01*
X945240Y145156D01*
X945284Y145180D01*
X945331Y145194D01*
X945391Y145237D01*
X945456Y145271D01*
X945489Y145307D01*
X945529Y145336D01*
X945572Y145396D01*
X945623Y145449D01*
X945657Y145514D01*
X945672Y145534D01*
X945677Y145550D01*
X945692Y145579D01*
X946223Y146860D01*
X948140Y148777D01*
X950644Y149815D01*
X953356Y149815D01*
X955860Y148777D01*
X957777Y146860D01*
X958815Y144356D01*
X958815Y141644D01*
X957777Y139140D01*
X955860Y137223D01*
X953356Y136185D01*
X950644Y136185D01*
X948140Y137223D01*
X946223Y139140D01*
X945692Y140421D01*
X945653Y140483D01*
X945623Y140550D01*
X945589Y140586D01*
X945563Y140628D01*
X945507Y140674D01*
X945456Y140728D01*
X945413Y140751D01*
X945375Y140783D01*
X945306Y140809D01*
X945241Y140843D01*
X945193Y140851D01*
X945146Y140869D01*
X945073Y140871D01*
X945001Y140883D01*
X944952Y140875D01*
X944903Y140877D01*
X944832Y140855D01*
X944760Y140844D01*
X944716Y140820D01*
X944669Y140806D01*
X944609Y140763D01*
X944544Y140729D01*
X944511Y140693D01*
X944471Y140664D01*
X944428Y140604D01*
X944377Y140551D01*
X944343Y140486D01*
X944328Y140466D01*
X944323Y140450D01*
X944308Y140421D01*
X943777Y139140D01*
X941860Y137223D01*
X939356Y136185D01*
X936644Y136185D01*
X934140Y137223D01*
X932215Y139147D01*
X932203Y139168D01*
X932185Y139213D01*
X932139Y139271D01*
X932100Y139333D01*
X932062Y139364D01*
X932031Y139402D01*
X931968Y139441D01*
X931911Y139488D01*
X931865Y139505D01*
X931823Y139531D01*
X931752Y139548D01*
X931683Y139574D01*
X931634Y139576D01*
X931586Y139587D01*
X931513Y139580D01*
X931439Y139582D01*
X931392Y139568D01*
X931343Y139563D01*
X931276Y139533D01*
X931205Y139511D01*
X931165Y139483D01*
X931121Y139463D01*
X931008Y139370D01*
X931007Y139369D01*
X931006Y139369D01*
X929860Y138223D01*
X927356Y137185D01*
X924644Y137185D01*
X922140Y138223D01*
X920994Y139369D01*
X920954Y139398D01*
X920920Y139433D01*
X920855Y139468D01*
X920795Y139511D01*
X920748Y139525D01*
X920705Y139549D01*
X920632Y139561D01*
X920562Y139582D01*
X920513Y139580D01*
X920464Y139588D01*
X920391Y139576D01*
X920318Y139574D01*
X920272Y139557D01*
X920223Y139549D01*
X920159Y139514D01*
X920089Y139488D01*
X920051Y139457D01*
X920008Y139434D01*
X919958Y139380D01*
X919901Y139334D01*
X919875Y139292D01*
X919841Y139256D01*
X919781Y139143D01*
X917860Y137223D01*
X915356Y136185D01*
X912644Y136185D01*
G37*
%LPD*%
%LPC*%
G36*
X1039949Y147485D02*
X1039949Y147485D01*
X1035974Y149132D01*
X1032932Y152174D01*
X1031285Y156149D01*
X1031285Y157863D01*
X1031277Y157912D01*
X1031279Y157961D01*
X1031258Y158031D01*
X1031246Y158104D01*
X1031222Y158147D01*
X1031208Y158194D01*
X1031165Y158254D01*
X1031131Y158319D01*
X1031095Y158353D01*
X1031066Y158393D01*
X1031006Y158436D01*
X1030953Y158486D01*
X1030908Y158506D01*
X1030868Y158535D01*
X1030797Y158556D01*
X1030730Y158587D01*
X1030681Y158592D01*
X1030635Y158606D01*
X1030561Y158604D01*
X1030487Y158611D01*
X1030440Y158600D01*
X1030391Y158598D01*
X1030251Y158556D01*
X1030250Y158556D01*
X1030249Y158555D01*
X1029356Y158185D01*
X1026644Y158185D01*
X1024140Y159223D01*
X1022223Y161140D01*
X1021185Y163644D01*
X1021185Y166356D01*
X1022223Y168860D01*
X1024140Y170777D01*
X1026644Y171815D01*
X1029356Y171815D01*
X1031860Y170777D01*
X1033777Y168860D01*
X1034399Y167359D01*
X1034425Y167317D01*
X1034442Y167271D01*
X1034489Y167214D01*
X1034528Y167151D01*
X1034566Y167120D01*
X1034597Y167082D01*
X1034660Y167043D01*
X1034717Y166997D01*
X1034763Y166979D01*
X1034804Y166953D01*
X1034876Y166937D01*
X1034945Y166911D01*
X1034994Y166909D01*
X1035042Y166898D01*
X1035115Y166905D01*
X1035189Y166903D01*
X1035236Y166917D01*
X1035285Y166921D01*
X1035352Y166952D01*
X1035422Y166973D01*
X1035462Y167002D01*
X1035507Y167022D01*
X1035620Y167115D01*
X1035621Y167115D01*
X1035621Y167116D01*
X1035974Y167468D01*
X1039949Y169115D01*
X1044251Y169115D01*
X1048226Y167468D01*
X1051268Y164426D01*
X1052915Y160451D01*
X1052915Y156149D01*
X1051268Y152174D01*
X1048226Y149132D01*
X1044251Y147485D01*
X1039949Y147485D01*
G37*
%LPD*%
%LPC*%
G36*
X44050Y114885D02*
X44050Y114885D01*
X39524Y116760D01*
X36060Y120224D01*
X34185Y124750D01*
X34185Y129650D01*
X36060Y134176D01*
X39524Y137640D01*
X44050Y139515D01*
X48950Y139515D01*
X53476Y137640D01*
X56940Y134176D01*
X58815Y129650D01*
X58815Y124750D01*
X56940Y120224D01*
X53476Y116760D01*
X48950Y114885D01*
X44050Y114885D01*
G37*
%LPD*%
%LPC*%
G36*
X44050Y149885D02*
X44050Y149885D01*
X39524Y151760D01*
X36060Y155224D01*
X34185Y159750D01*
X34185Y164650D01*
X36060Y169176D01*
X39524Y172640D01*
X44050Y174515D01*
X48950Y174515D01*
X53476Y172640D01*
X56940Y169176D01*
X58815Y164650D01*
X58815Y159750D01*
X56940Y155224D01*
X53476Y151760D01*
X48950Y149885D01*
X44050Y149885D01*
G37*
%LPD*%
%LPC*%
G36*
X581644Y142185D02*
X581644Y142185D01*
X579140Y143223D01*
X577223Y145140D01*
X576185Y147644D01*
X576185Y150356D01*
X577223Y152860D01*
X579140Y154777D01*
X581644Y155815D01*
X584356Y155815D01*
X585888Y155180D01*
X586012Y155151D01*
X586125Y155124D01*
X586126Y155125D01*
X586126Y155124D01*
X586255Y155137D01*
X586368Y155148D01*
X586369Y155148D01*
X586476Y155197D01*
X586591Y155249D01*
X586705Y155342D01*
X587140Y155777D01*
X589644Y156815D01*
X592356Y156815D01*
X594860Y155777D01*
X595970Y154667D01*
X595990Y154653D01*
X596006Y154634D01*
X596089Y154582D01*
X596169Y154525D01*
X596192Y154518D01*
X596213Y154505D01*
X596308Y154483D01*
X596402Y154454D01*
X596426Y154455D01*
X596450Y154450D01*
X596548Y154459D01*
X596646Y154462D01*
X596669Y154471D01*
X596693Y154473D01*
X596782Y154514D01*
X596874Y154548D01*
X596893Y154564D01*
X596916Y154574D01*
X597030Y154667D01*
X598060Y155697D01*
X600564Y156735D01*
X603276Y156735D01*
X605841Y155672D01*
X605913Y155620D01*
X606035Y155583D01*
X606147Y155549D01*
X606300Y155554D01*
X606390Y155557D01*
X606391Y155557D01*
X606532Y155600D01*
X608065Y156235D01*
X610776Y156235D01*
X613280Y155197D01*
X615197Y153280D01*
X616235Y150775D01*
X616235Y148064D01*
X615197Y145560D01*
X613280Y143643D01*
X610776Y142605D01*
X608065Y142605D01*
X605499Y143668D01*
X605427Y143720D01*
X605310Y143755D01*
X605193Y143791D01*
X605040Y143786D01*
X604950Y143783D01*
X604949Y143783D01*
X604808Y143740D01*
X603276Y143105D01*
X600564Y143105D01*
X598060Y144143D01*
X596950Y145253D01*
X596930Y145267D01*
X596914Y145286D01*
X596831Y145338D01*
X596824Y145343D01*
X596823Y145344D01*
X596751Y145395D01*
X596728Y145402D01*
X596707Y145415D01*
X596612Y145437D01*
X596518Y145466D01*
X596493Y145465D01*
X596470Y145470D01*
X596372Y145461D01*
X596274Y145458D01*
X596251Y145449D01*
X596227Y145447D01*
X596137Y145406D01*
X596046Y145372D01*
X596027Y145356D01*
X596004Y145346D01*
X595890Y145253D01*
X594860Y144223D01*
X592356Y143185D01*
X589644Y143185D01*
X588112Y143820D01*
X587988Y143849D01*
X587875Y143876D01*
X587874Y143875D01*
X587874Y143876D01*
X587745Y143863D01*
X587632Y143852D01*
X587631Y143852D01*
X587520Y143801D01*
X587409Y143751D01*
X587295Y143658D01*
X586860Y143223D01*
X584356Y142185D01*
X581644Y142185D01*
G37*
%LPD*%
%LPC*%
G36*
X834876Y44915D02*
X834876Y44915D01*
X830581Y46694D01*
X827294Y49981D01*
X825515Y54276D01*
X825515Y58924D01*
X827294Y63219D01*
X830581Y66506D01*
X834876Y68285D01*
X839524Y68285D01*
X843819Y66506D01*
X847106Y63219D01*
X848885Y58924D01*
X848885Y54276D01*
X847106Y49981D01*
X843819Y46694D01*
X839524Y44915D01*
X834876Y44915D01*
G37*
%LPD*%
%LPC*%
G36*
X453876Y44915D02*
X453876Y44915D01*
X449581Y46694D01*
X446294Y49981D01*
X444515Y54276D01*
X444515Y58924D01*
X446294Y63219D01*
X449581Y66506D01*
X453876Y68285D01*
X458524Y68285D01*
X462819Y66506D01*
X466106Y63219D01*
X467885Y58924D01*
X467885Y54276D01*
X466106Y49981D01*
X462819Y46694D01*
X458524Y44915D01*
X453876Y44915D01*
G37*
%LPD*%
%LPC*%
G36*
X377676Y19515D02*
X377676Y19515D01*
X373381Y21294D01*
X370094Y24581D01*
X368315Y28876D01*
X368315Y33524D01*
X370094Y37819D01*
X373381Y41106D01*
X377676Y42885D01*
X382324Y42885D01*
X386619Y41106D01*
X389906Y37819D01*
X391685Y33524D01*
X391685Y28876D01*
X389906Y24581D01*
X386619Y21294D01*
X382324Y19515D01*
X377676Y19515D01*
G37*
%LPD*%
%LPC*%
G36*
X479276Y44915D02*
X479276Y44915D01*
X474981Y46694D01*
X471694Y49981D01*
X469915Y54276D01*
X469915Y58924D01*
X471694Y63219D01*
X474981Y66506D01*
X479276Y68285D01*
X483924Y68285D01*
X488219Y66506D01*
X491506Y63219D01*
X493285Y58924D01*
X493285Y54276D01*
X491506Y49981D01*
X488219Y46694D01*
X483924Y44915D01*
X479276Y44915D01*
G37*
%LPD*%
%LPC*%
G36*
X352276Y19515D02*
X352276Y19515D01*
X347981Y21294D01*
X344694Y24581D01*
X342915Y28876D01*
X342915Y33524D01*
X344694Y37819D01*
X347981Y41106D01*
X352276Y42885D01*
X356924Y42885D01*
X361219Y41106D01*
X364506Y37819D01*
X366285Y33524D01*
X366285Y28876D01*
X364506Y24581D01*
X361219Y21294D01*
X356924Y19515D01*
X352276Y19515D01*
G37*
%LPD*%
%LPC*%
G36*
X733276Y19515D02*
X733276Y19515D01*
X728981Y21294D01*
X725694Y24581D01*
X723915Y28876D01*
X723915Y33524D01*
X725694Y37819D01*
X728981Y41106D01*
X733276Y42885D01*
X737924Y42885D01*
X742219Y41106D01*
X745506Y37819D01*
X747285Y33524D01*
X747285Y28876D01*
X745506Y24581D01*
X742219Y21294D01*
X737924Y19515D01*
X733276Y19515D01*
G37*
%LPD*%
%LPC*%
G36*
X403076Y19515D02*
X403076Y19515D01*
X398781Y21294D01*
X395494Y24581D01*
X393715Y28876D01*
X393715Y33524D01*
X395494Y37819D01*
X398781Y41106D01*
X403076Y42885D01*
X407724Y42885D01*
X412019Y41106D01*
X415306Y37819D01*
X417085Y33524D01*
X417085Y28876D01*
X415306Y24581D01*
X412019Y21294D01*
X407724Y19515D01*
X403076Y19515D01*
G37*
%LPD*%
%LPC*%
G36*
X428476Y19515D02*
X428476Y19515D01*
X424181Y21294D01*
X420894Y24581D01*
X419115Y28876D01*
X419115Y33524D01*
X420894Y37819D01*
X424181Y41106D01*
X428476Y42885D01*
X433124Y42885D01*
X437419Y41106D01*
X440706Y37819D01*
X442485Y33524D01*
X442485Y28876D01*
X440706Y24581D01*
X437419Y21294D01*
X433124Y19515D01*
X428476Y19515D01*
G37*
%LPD*%
%LPC*%
G36*
X479276Y19515D02*
X479276Y19515D01*
X474981Y21294D01*
X471694Y24581D01*
X469915Y28876D01*
X469915Y33524D01*
X471694Y37819D01*
X474981Y41106D01*
X479276Y42885D01*
X483924Y42885D01*
X488219Y41106D01*
X491506Y37819D01*
X493285Y33524D01*
X493285Y28876D01*
X491506Y24581D01*
X488219Y21294D01*
X483924Y19515D01*
X479276Y19515D01*
G37*
%LPD*%
%LPC*%
G36*
X504676Y19515D02*
X504676Y19515D01*
X500381Y21294D01*
X497094Y24581D01*
X495315Y28876D01*
X495315Y33524D01*
X497094Y37819D01*
X500381Y41106D01*
X504676Y42885D01*
X509324Y42885D01*
X513619Y41106D01*
X516906Y37819D01*
X518685Y33524D01*
X518685Y28876D01*
X516906Y24581D01*
X513619Y21294D01*
X509324Y19515D01*
X504676Y19515D01*
G37*
%LPD*%
%LPC*%
G36*
X784076Y19515D02*
X784076Y19515D01*
X779781Y21294D01*
X776494Y24581D01*
X774715Y28876D01*
X774715Y33524D01*
X776494Y37819D01*
X779781Y41106D01*
X784076Y42885D01*
X788724Y42885D01*
X793019Y41106D01*
X796306Y37819D01*
X798085Y33524D01*
X798085Y28876D01*
X796306Y24581D01*
X793019Y21294D01*
X788724Y19515D01*
X784076Y19515D01*
G37*
%LPD*%
%LPC*%
G36*
X530076Y19515D02*
X530076Y19515D01*
X525781Y21294D01*
X522494Y24581D01*
X520715Y28876D01*
X520715Y33524D01*
X522494Y37819D01*
X525781Y41106D01*
X530076Y42885D01*
X534724Y42885D01*
X539019Y41106D01*
X542306Y37819D01*
X544085Y33524D01*
X544085Y28876D01*
X542306Y24581D01*
X539019Y21294D01*
X534724Y19515D01*
X530076Y19515D01*
G37*
%LPD*%
%LPC*%
G36*
X555476Y19515D02*
X555476Y19515D01*
X551181Y21294D01*
X547894Y24581D01*
X546115Y28876D01*
X546115Y33524D01*
X547894Y37819D01*
X551181Y41106D01*
X555476Y42885D01*
X560124Y42885D01*
X564419Y41106D01*
X567706Y37819D01*
X569485Y33524D01*
X569485Y28876D01*
X567706Y24581D01*
X564419Y21294D01*
X560124Y19515D01*
X555476Y19515D01*
G37*
%LPD*%
%LPC*%
G36*
X631676Y19515D02*
X631676Y19515D01*
X627381Y21294D01*
X624094Y24581D01*
X622315Y28876D01*
X622315Y33524D01*
X624094Y37819D01*
X627381Y41106D01*
X631676Y42885D01*
X636324Y42885D01*
X640619Y41106D01*
X643906Y37819D01*
X645685Y33524D01*
X645685Y28876D01*
X643906Y24581D01*
X640619Y21294D01*
X636324Y19515D01*
X631676Y19515D01*
G37*
%LPD*%
%LPC*%
G36*
X707876Y19515D02*
X707876Y19515D01*
X703581Y21294D01*
X700294Y24581D01*
X698515Y28876D01*
X698515Y33524D01*
X700294Y37819D01*
X703581Y41106D01*
X707876Y42885D01*
X712524Y42885D01*
X716819Y41106D01*
X720106Y37819D01*
X721885Y33524D01*
X721885Y28876D01*
X720106Y24581D01*
X716819Y21294D01*
X712524Y19515D01*
X707876Y19515D01*
G37*
%LPD*%
%LPC*%
G36*
X758676Y19515D02*
X758676Y19515D01*
X754381Y21294D01*
X751094Y24581D01*
X749315Y28876D01*
X749315Y33524D01*
X751094Y37819D01*
X754381Y41106D01*
X758676Y42885D01*
X763324Y42885D01*
X767619Y41106D01*
X770906Y37819D01*
X772685Y33524D01*
X772685Y28876D01*
X770906Y24581D01*
X767619Y21294D01*
X763324Y19515D01*
X758676Y19515D01*
G37*
%LPD*%
%LPC*%
G36*
X555476Y44915D02*
X555476Y44915D01*
X551181Y46694D01*
X547894Y49981D01*
X546115Y54276D01*
X546115Y58924D01*
X547894Y63219D01*
X551181Y66506D01*
X555476Y68285D01*
X560124Y68285D01*
X564419Y66506D01*
X567706Y63219D01*
X569485Y58924D01*
X569485Y54276D01*
X567706Y49981D01*
X564419Y46694D01*
X560124Y44915D01*
X555476Y44915D01*
G37*
%LPD*%
%LPC*%
G36*
X809476Y19515D02*
X809476Y19515D01*
X805181Y21294D01*
X801894Y24581D01*
X800115Y28876D01*
X800115Y33524D01*
X801894Y37819D01*
X805181Y41106D01*
X809476Y42885D01*
X814124Y42885D01*
X818419Y41106D01*
X821706Y37819D01*
X823485Y33524D01*
X823485Y28876D01*
X821706Y24581D01*
X818419Y21294D01*
X814124Y19515D01*
X809476Y19515D01*
G37*
%LPD*%
%LPC*%
G36*
X580876Y19515D02*
X580876Y19515D01*
X576581Y21294D01*
X573294Y24581D01*
X571515Y28876D01*
X571515Y33524D01*
X573294Y37819D01*
X576581Y41106D01*
X580876Y42885D01*
X585524Y42885D01*
X589819Y41106D01*
X593106Y37819D01*
X594885Y33524D01*
X594885Y28876D01*
X593106Y24581D01*
X589819Y21294D01*
X585524Y19515D01*
X580876Y19515D01*
G37*
%LPD*%
%LPC*%
G36*
X606276Y19515D02*
X606276Y19515D01*
X601981Y21294D01*
X598694Y24581D01*
X596915Y28876D01*
X596915Y33524D01*
X598694Y37819D01*
X601981Y41106D01*
X606276Y42885D01*
X610924Y42885D01*
X615219Y41106D01*
X618506Y37819D01*
X620285Y33524D01*
X620285Y28876D01*
X618506Y24581D01*
X615219Y21294D01*
X610924Y19515D01*
X606276Y19515D01*
G37*
%LPD*%
%LPC*%
G36*
X1041676Y290715D02*
X1041676Y290715D01*
X1037381Y292494D01*
X1034094Y295781D01*
X1032315Y300076D01*
X1032315Y304724D01*
X1034094Y309019D01*
X1037381Y312306D01*
X1041676Y314085D01*
X1046324Y314085D01*
X1050619Y312306D01*
X1053906Y309019D01*
X1055685Y304724D01*
X1055685Y300076D01*
X1053906Y295781D01*
X1050619Y292494D01*
X1046324Y290715D01*
X1041676Y290715D01*
G37*
%LPD*%
%LPC*%
G36*
X530076Y44915D02*
X530076Y44915D01*
X525781Y46694D01*
X522494Y49981D01*
X520715Y54276D01*
X520715Y58924D01*
X522494Y63219D01*
X525781Y66506D01*
X530076Y68285D01*
X534724Y68285D01*
X539019Y66506D01*
X542306Y63219D01*
X544085Y58924D01*
X544085Y54276D01*
X542306Y49981D01*
X539019Y46694D01*
X534724Y44915D01*
X530076Y44915D01*
G37*
%LPD*%
%LPC*%
G36*
X606276Y44915D02*
X606276Y44915D01*
X601981Y46694D01*
X598694Y49981D01*
X596915Y54276D01*
X596915Y58924D01*
X598694Y63219D01*
X601981Y66506D01*
X606276Y68285D01*
X610924Y68285D01*
X615219Y66506D01*
X618506Y63219D01*
X620285Y58924D01*
X620285Y54276D01*
X618506Y49981D01*
X615219Y46694D01*
X610924Y44915D01*
X606276Y44915D01*
G37*
%LPD*%
%LPC*%
G36*
X631676Y44915D02*
X631676Y44915D01*
X627381Y46694D01*
X624094Y49981D01*
X622315Y54276D01*
X622315Y58924D01*
X624094Y63219D01*
X627381Y66506D01*
X631676Y68285D01*
X636324Y68285D01*
X640619Y66506D01*
X643906Y63219D01*
X645685Y58924D01*
X645685Y54276D01*
X643906Y49981D01*
X640619Y46694D01*
X636324Y44915D01*
X631676Y44915D01*
G37*
%LPD*%
%LPC*%
G36*
X1041676Y265315D02*
X1041676Y265315D01*
X1037381Y267094D01*
X1034094Y270381D01*
X1032315Y274676D01*
X1032315Y279324D01*
X1034094Y283619D01*
X1037381Y286906D01*
X1041676Y288685D01*
X1046324Y288685D01*
X1050619Y286906D01*
X1053906Y283619D01*
X1055685Y279324D01*
X1055685Y274676D01*
X1053906Y270381D01*
X1050619Y267094D01*
X1046324Y265315D01*
X1041676Y265315D01*
G37*
%LPD*%
%LPC*%
G36*
X352276Y44915D02*
X352276Y44915D01*
X347981Y46694D01*
X344694Y49981D01*
X342915Y54276D01*
X342915Y58924D01*
X344694Y63219D01*
X347981Y66506D01*
X352276Y68285D01*
X356924Y68285D01*
X361219Y66506D01*
X364506Y63219D01*
X366285Y58924D01*
X366285Y54276D01*
X364506Y49981D01*
X361219Y46694D01*
X356924Y44915D01*
X352276Y44915D01*
G37*
%LPD*%
%LPC*%
G36*
X377676Y44915D02*
X377676Y44915D01*
X373381Y46694D01*
X370094Y49981D01*
X368315Y54276D01*
X368315Y58924D01*
X370094Y63219D01*
X373381Y66506D01*
X377676Y68285D01*
X382324Y68285D01*
X386619Y66506D01*
X389906Y63219D01*
X391685Y58924D01*
X391685Y54276D01*
X389906Y49981D01*
X386619Y46694D01*
X382324Y44915D01*
X377676Y44915D01*
G37*
%LPD*%
%LPC*%
G36*
X428476Y44915D02*
X428476Y44915D01*
X424181Y46694D01*
X420894Y49981D01*
X419115Y54276D01*
X419115Y58924D01*
X420894Y63219D01*
X424181Y66506D01*
X428476Y68285D01*
X433124Y68285D01*
X437419Y66506D01*
X440706Y63219D01*
X442485Y58924D01*
X442485Y54276D01*
X440706Y49981D01*
X437419Y46694D01*
X433124Y44915D01*
X428476Y44915D01*
G37*
%LPD*%
%LPC*%
G36*
X733276Y44915D02*
X733276Y44915D01*
X728981Y46694D01*
X725694Y49981D01*
X723915Y54276D01*
X723915Y58924D01*
X725694Y63219D01*
X728981Y66506D01*
X733276Y68285D01*
X737924Y68285D01*
X742219Y66506D01*
X745506Y63219D01*
X747285Y58924D01*
X747285Y54276D01*
X745506Y49981D01*
X742219Y46694D01*
X737924Y44915D01*
X733276Y44915D01*
G37*
%LPD*%
%LPC*%
G36*
X784076Y44915D02*
X784076Y44915D01*
X779781Y46694D01*
X776494Y49981D01*
X774715Y54276D01*
X774715Y58924D01*
X776494Y63219D01*
X779781Y66506D01*
X784076Y68285D01*
X788724Y68285D01*
X793019Y66506D01*
X796306Y63219D01*
X798085Y58924D01*
X798085Y54276D01*
X796306Y49981D01*
X793019Y46694D01*
X788724Y44915D01*
X784076Y44915D01*
G37*
%LPD*%
%LPC*%
G36*
X809476Y44915D02*
X809476Y44915D01*
X805181Y46694D01*
X801894Y49981D01*
X800115Y54276D01*
X800115Y58924D01*
X801894Y63219D01*
X805181Y66506D01*
X809476Y68285D01*
X814124Y68285D01*
X818419Y66506D01*
X821706Y63219D01*
X823485Y58924D01*
X823485Y54276D01*
X821706Y49981D01*
X818419Y46694D01*
X814124Y44915D01*
X809476Y44915D01*
G37*
%LPD*%
%LPC*%
G36*
X938644Y217185D02*
X938644Y217185D01*
X936140Y218223D01*
X934223Y220140D01*
X933927Y220854D01*
X933914Y220874D01*
X933907Y220898D01*
X933850Y220978D01*
X933798Y221061D01*
X933779Y221076D01*
X933765Y221096D01*
X933686Y221153D01*
X933610Y221216D01*
X933587Y221224D01*
X933567Y221239D01*
X933473Y221267D01*
X933381Y221302D01*
X933357Y221303D01*
X933333Y221310D01*
X933235Y221307D01*
X933137Y221310D01*
X933114Y221303D01*
X933089Y221302D01*
X932948Y221259D01*
X930356Y220185D01*
X927644Y220185D01*
X925140Y221223D01*
X923223Y223140D01*
X922185Y225644D01*
X922185Y228356D01*
X923223Y230860D01*
X925140Y232777D01*
X927644Y233815D01*
X930356Y233815D01*
X932860Y232777D01*
X934777Y230860D01*
X935073Y230146D01*
X935086Y230126D01*
X935093Y230102D01*
X935150Y230022D01*
X935202Y229939D01*
X935221Y229924D01*
X935235Y229904D01*
X935314Y229847D01*
X935390Y229784D01*
X935413Y229776D01*
X935433Y229761D01*
X935527Y229733D01*
X935619Y229698D01*
X935643Y229697D01*
X935667Y229690D01*
X935765Y229693D01*
X935863Y229690D01*
X935886Y229697D01*
X935911Y229698D01*
X936052Y229741D01*
X938644Y230815D01*
X941356Y230815D01*
X943860Y229777D01*
X945777Y227860D01*
X946101Y227079D01*
X946139Y227017D01*
X946170Y226950D01*
X946203Y226914D01*
X946230Y226872D01*
X946286Y226826D01*
X946336Y226772D01*
X946380Y226749D01*
X946418Y226717D01*
X946487Y226691D01*
X946552Y226657D01*
X946600Y226649D01*
X946646Y226631D01*
X946720Y226629D01*
X946792Y226617D01*
X946841Y226625D01*
X946890Y226623D01*
X946961Y226645D01*
X947033Y226656D01*
X947077Y226680D01*
X947124Y226694D01*
X947184Y226737D01*
X947248Y226771D01*
X947282Y226807D01*
X947322Y226836D01*
X947365Y226896D01*
X947415Y226949D01*
X947450Y227014D01*
X947465Y227034D01*
X947469Y227050D01*
X947485Y227079D01*
X948223Y228860D01*
X950140Y230777D01*
X952644Y231815D01*
X955356Y231815D01*
X957860Y230777D01*
X959777Y228860D01*
X960815Y226356D01*
X960815Y223644D01*
X959777Y221140D01*
X957860Y219223D01*
X955356Y218185D01*
X952644Y218185D01*
X950140Y219223D01*
X948223Y221140D01*
X947899Y221921D01*
X947861Y221983D01*
X947830Y222050D01*
X947797Y222086D01*
X947770Y222128D01*
X947714Y222174D01*
X947664Y222228D01*
X947620Y222251D01*
X947582Y222283D01*
X947513Y222309D01*
X947448Y222343D01*
X947400Y222351D01*
X947354Y222369D01*
X947280Y222371D01*
X947208Y222383D01*
X947159Y222375D01*
X947110Y222377D01*
X947039Y222355D01*
X946967Y222344D01*
X946923Y222320D01*
X946876Y222306D01*
X946816Y222263D01*
X946752Y222229D01*
X946718Y222193D01*
X946678Y222164D01*
X946635Y222104D01*
X946585Y222051D01*
X946550Y221986D01*
X946535Y221966D01*
X946531Y221950D01*
X946515Y221921D01*
X945777Y220140D01*
X943860Y218223D01*
X941356Y217185D01*
X938644Y217185D01*
G37*
%LPD*%
%LPC*%
G36*
X447700Y652335D02*
X447700Y652335D01*
X443449Y654096D01*
X440196Y657349D01*
X438435Y661600D01*
X438435Y666200D01*
X440196Y670451D01*
X443449Y673704D01*
X447700Y675465D01*
X452300Y675465D01*
X456551Y673704D01*
X459804Y670451D01*
X461565Y666200D01*
X461565Y661600D01*
X459804Y657349D01*
X456551Y654096D01*
X452300Y652335D01*
X447700Y652335D01*
G37*
%LPD*%
%LPC*%
G36*
X620400Y588435D02*
X620400Y588435D01*
X616149Y590196D01*
X612896Y593449D01*
X611135Y597700D01*
X611135Y602300D01*
X612896Y606551D01*
X616149Y609804D01*
X620400Y611565D01*
X625000Y611565D01*
X629251Y609804D01*
X632504Y606551D01*
X634265Y602300D01*
X634265Y597700D01*
X632504Y593449D01*
X629251Y590196D01*
X625000Y588435D01*
X620400Y588435D01*
G37*
%LPD*%
%LPC*%
G36*
X878700Y424435D02*
X878700Y424435D01*
X874449Y426196D01*
X871196Y429449D01*
X869435Y433700D01*
X869435Y438300D01*
X871196Y442551D01*
X874449Y445804D01*
X878700Y447565D01*
X883300Y447565D01*
X887551Y445804D01*
X890804Y442551D01*
X892565Y438300D01*
X892565Y433700D01*
X890804Y429449D01*
X887551Y426196D01*
X883300Y424435D01*
X878700Y424435D01*
G37*
%LPD*%
%LPC*%
G36*
X544200Y588435D02*
X544200Y588435D01*
X539949Y590196D01*
X536696Y593449D01*
X534935Y597700D01*
X534935Y602300D01*
X536696Y606551D01*
X539949Y609804D01*
X544200Y611565D01*
X548800Y611565D01*
X553051Y609804D01*
X556304Y606551D01*
X558065Y602300D01*
X558065Y597700D01*
X556304Y593449D01*
X553051Y590196D01*
X548800Y588435D01*
X544200Y588435D01*
G37*
%LPD*%
%LPC*%
G36*
X193644Y19185D02*
X193644Y19185D01*
X191140Y20223D01*
X189215Y22147D01*
X189203Y22168D01*
X189185Y22213D01*
X189139Y22270D01*
X189100Y22333D01*
X189062Y22364D01*
X189031Y22402D01*
X188968Y22441D01*
X188911Y22488D01*
X188865Y22505D01*
X188823Y22531D01*
X188752Y22548D01*
X188683Y22574D01*
X188634Y22576D01*
X188586Y22587D01*
X188513Y22580D01*
X188439Y22582D01*
X188392Y22568D01*
X188343Y22563D01*
X188276Y22533D01*
X188205Y22511D01*
X188165Y22483D01*
X188121Y22463D01*
X188061Y22414D01*
X188059Y22413D01*
X188058Y22411D01*
X188008Y22370D01*
X188007Y22369D01*
X188006Y22369D01*
X187478Y21841D01*
X184974Y20803D01*
X182262Y20803D01*
X179758Y21841D01*
X177841Y23758D01*
X176803Y26262D01*
X176803Y28974D01*
X177841Y31478D01*
X179758Y33395D01*
X182262Y34433D01*
X184974Y34433D01*
X187478Y33395D01*
X189403Y31471D01*
X189415Y31450D01*
X189433Y31405D01*
X189479Y31348D01*
X189518Y31285D01*
X189556Y31254D01*
X189587Y31216D01*
X189650Y31177D01*
X189707Y31130D01*
X189753Y31113D01*
X189795Y31087D01*
X189866Y31070D01*
X189935Y31044D01*
X189984Y31042D01*
X190032Y31031D01*
X190105Y31038D01*
X190179Y31036D01*
X190226Y31050D01*
X190275Y31055D01*
X190342Y31085D01*
X190413Y31107D01*
X190453Y31135D01*
X190497Y31155D01*
X190610Y31248D01*
X190611Y31249D01*
X190612Y31249D01*
X191140Y31777D01*
X193644Y32815D01*
X196356Y32815D01*
X198860Y31777D01*
X200470Y30167D01*
X200490Y30153D01*
X200506Y30134D01*
X200589Y30082D01*
X200669Y30025D01*
X200692Y30018D01*
X200713Y30005D01*
X200808Y29983D01*
X200902Y29954D01*
X200927Y29955D01*
X200950Y29950D01*
X201048Y29959D01*
X201146Y29962D01*
X201169Y29971D01*
X201193Y29973D01*
X201283Y30014D01*
X201374Y30048D01*
X201393Y30064D01*
X201416Y30074D01*
X201530Y30167D01*
X203140Y31777D01*
X205644Y32815D01*
X208356Y32815D01*
X210860Y31777D01*
X212777Y29860D01*
X213815Y27356D01*
X213815Y24644D01*
X212777Y22140D01*
X210860Y20223D01*
X208356Y19185D01*
X205644Y19185D01*
X203140Y20223D01*
X201530Y21833D01*
X201510Y21847D01*
X201494Y21866D01*
X201411Y21918D01*
X201331Y21975D01*
X201308Y21982D01*
X201287Y21995D01*
X201192Y22017D01*
X201098Y22046D01*
X201074Y22045D01*
X201050Y22050D01*
X200952Y22041D01*
X200854Y22038D01*
X200831Y22029D01*
X200807Y22027D01*
X200718Y21986D01*
X200626Y21952D01*
X200607Y21936D01*
X200584Y21926D01*
X200470Y21833D01*
X198860Y20223D01*
X196356Y19185D01*
X193644Y19185D01*
G37*
%LPD*%
%LPC*%
G36*
X721644Y146185D02*
X721644Y146185D01*
X719140Y147223D01*
X717223Y149140D01*
X716185Y151644D01*
X716185Y154356D01*
X717223Y156860D01*
X719140Y158777D01*
X721644Y159815D01*
X723772Y159815D01*
X723869Y159831D01*
X723966Y159840D01*
X723989Y159850D01*
X724013Y159854D01*
X724099Y159901D01*
X724189Y159941D01*
X724207Y159958D01*
X724228Y159969D01*
X724295Y160041D01*
X724367Y160108D01*
X724378Y160130D01*
X724395Y160147D01*
X724436Y160237D01*
X724482Y160323D01*
X724486Y160347D01*
X724496Y160370D01*
X724506Y160467D01*
X724522Y160564D01*
X724518Y160588D01*
X724520Y160613D01*
X724498Y160708D01*
X724482Y160804D01*
X724470Y160826D01*
X724465Y160850D01*
X724413Y160933D01*
X724367Y161020D01*
X724349Y161037D01*
X724336Y161058D01*
X724260Y161120D01*
X724189Y161187D01*
X724161Y161202D01*
X722223Y163140D01*
X721185Y165644D01*
X721185Y168356D01*
X722223Y170860D01*
X724140Y172777D01*
X726644Y173815D01*
X729356Y173815D01*
X731860Y172777D01*
X733777Y170860D01*
X734815Y168356D01*
X734815Y166539D01*
X734840Y166384D01*
X734854Y166299D01*
X734915Y166185D01*
X734969Y166084D01*
X734969Y166083D01*
X735059Y165999D01*
X735147Y165917D01*
X735148Y165916D01*
X735277Y165847D01*
X737860Y164777D01*
X739777Y162860D01*
X740815Y160356D01*
X740815Y157644D01*
X739777Y155140D01*
X737860Y153223D01*
X735356Y152185D01*
X732644Y152185D01*
X730851Y152928D01*
X730803Y152939D01*
X730758Y152960D01*
X730685Y152967D01*
X730613Y152984D01*
X730564Y152979D01*
X730515Y152984D01*
X730444Y152967D01*
X730370Y152960D01*
X730326Y152940D01*
X730278Y152928D01*
X730215Y152890D01*
X730148Y152859D01*
X730112Y152826D01*
X730070Y152800D01*
X730024Y152743D01*
X729970Y152692D01*
X729947Y152649D01*
X729915Y152611D01*
X729889Y152542D01*
X729855Y152477D01*
X729847Y152429D01*
X729829Y152383D01*
X729815Y152237D01*
X729815Y152236D01*
X729815Y151644D01*
X728777Y149140D01*
X726860Y147223D01*
X724356Y146185D01*
X721644Y146185D01*
G37*
%LPD*%
%LPC*%
G36*
X1039949Y197485D02*
X1039949Y197485D01*
X1035974Y199132D01*
X1032932Y202174D01*
X1031285Y206149D01*
X1031285Y210451D01*
X1032932Y214426D01*
X1035974Y217468D01*
X1039949Y219115D01*
X1044251Y219115D01*
X1048226Y217468D01*
X1051268Y214426D01*
X1052915Y210451D01*
X1052915Y206149D01*
X1051268Y202174D01*
X1048226Y199132D01*
X1044251Y197485D01*
X1039949Y197485D01*
G37*
%LPD*%
%LPC*%
G36*
X707998Y766935D02*
X707998Y766935D01*
X704299Y768468D01*
X701468Y771299D01*
X699935Y774998D01*
X699935Y779002D01*
X701468Y782701D01*
X704299Y785532D01*
X707998Y787065D01*
X712002Y787065D01*
X715701Y785532D01*
X718532Y782701D01*
X720065Y779002D01*
X720065Y774998D01*
X718532Y771299D01*
X715701Y768468D01*
X712002Y766935D01*
X707998Y766935D01*
G37*
%LPD*%
%LPC*%
G36*
X792998Y652935D02*
X792998Y652935D01*
X789299Y654468D01*
X786468Y657299D01*
X784935Y660998D01*
X784935Y665002D01*
X786468Y668701D01*
X789299Y671532D01*
X792998Y673065D01*
X797002Y673065D01*
X800701Y671532D01*
X803532Y668701D01*
X805065Y665002D01*
X805065Y660998D01*
X803532Y657299D01*
X800701Y654468D01*
X797002Y652935D01*
X792998Y652935D01*
G37*
%LPD*%
%LPC*%
G36*
X632644Y81185D02*
X632644Y81185D01*
X630140Y82223D01*
X628223Y84140D01*
X627185Y86644D01*
X627185Y88772D01*
X627169Y88869D01*
X627160Y88966D01*
X627150Y88989D01*
X627146Y89013D01*
X627099Y89099D01*
X627059Y89189D01*
X627042Y89207D01*
X627031Y89228D01*
X626959Y89295D01*
X626892Y89367D01*
X626870Y89378D01*
X626853Y89395D01*
X626763Y89436D01*
X626677Y89482D01*
X626653Y89486D01*
X626630Y89496D01*
X626533Y89506D01*
X626436Y89522D01*
X626412Y89518D01*
X626387Y89520D01*
X626292Y89498D01*
X626196Y89482D01*
X626174Y89470D01*
X626150Y89465D01*
X626067Y89413D01*
X625980Y89367D01*
X625963Y89349D01*
X625942Y89336D01*
X625880Y89260D01*
X625813Y89189D01*
X625798Y89161D01*
X623860Y87223D01*
X621356Y86185D01*
X618644Y86185D01*
X616140Y87223D01*
X614223Y89140D01*
X613185Y91644D01*
X613185Y94356D01*
X614223Y96860D01*
X616140Y98777D01*
X618644Y99815D01*
X621356Y99815D01*
X623860Y98777D01*
X625777Y96860D01*
X626815Y94356D01*
X626815Y92228D01*
X626817Y92211D01*
X626816Y92199D01*
X626827Y92153D01*
X626831Y92131D01*
X626840Y92034D01*
X626850Y92011D01*
X626854Y91987D01*
X626901Y91901D01*
X626941Y91811D01*
X626958Y91793D01*
X626969Y91772D01*
X627041Y91705D01*
X627108Y91633D01*
X627130Y91622D01*
X627147Y91605D01*
X627237Y91564D01*
X627323Y91518D01*
X627347Y91514D01*
X627370Y91504D01*
X627467Y91494D01*
X627564Y91478D01*
X627588Y91482D01*
X627613Y91480D01*
X627708Y91502D01*
X627804Y91518D01*
X627826Y91530D01*
X627850Y91535D01*
X627933Y91587D01*
X628020Y91633D01*
X628037Y91651D01*
X628058Y91664D01*
X628120Y91740D01*
X628187Y91811D01*
X628202Y91839D01*
X630140Y93777D01*
X632644Y94815D01*
X635356Y94815D01*
X637860Y93777D01*
X639777Y91860D01*
X640815Y89356D01*
X640815Y86644D01*
X639777Y84140D01*
X637860Y82223D01*
X635356Y81185D01*
X632644Y81185D01*
G37*
%LPD*%
%LPC*%
G36*
X546644Y136185D02*
X546644Y136185D01*
X544140Y137223D01*
X542223Y139140D01*
X541936Y139833D01*
X541910Y139875D01*
X541892Y139921D01*
X541846Y139978D01*
X541807Y140040D01*
X541769Y140071D01*
X541738Y140109D01*
X541675Y140148D01*
X541618Y140195D01*
X541572Y140212D01*
X541531Y140238D01*
X541459Y140255D01*
X541390Y140281D01*
X541341Y140283D01*
X541293Y140294D01*
X541220Y140287D01*
X541146Y140289D01*
X541099Y140275D01*
X541050Y140270D01*
X540983Y140240D01*
X540912Y140218D01*
X540873Y140190D01*
X540828Y140170D01*
X540715Y140077D01*
X540714Y140076D01*
X538860Y138223D01*
X536356Y137185D01*
X533644Y137185D01*
X531140Y138223D01*
X529223Y140140D01*
X528185Y142644D01*
X528185Y145356D01*
X529223Y147860D01*
X531140Y149777D01*
X533644Y150815D01*
X536356Y150815D01*
X538860Y149777D01*
X540777Y147860D01*
X541064Y147167D01*
X541090Y147125D01*
X541108Y147079D01*
X541154Y147022D01*
X541193Y146960D01*
X541231Y146929D01*
X541262Y146891D01*
X541325Y146852D01*
X541382Y146805D01*
X541428Y146788D01*
X541469Y146762D01*
X541541Y146745D01*
X541610Y146719D01*
X541659Y146717D01*
X541707Y146706D01*
X541780Y146713D01*
X541854Y146711D01*
X541901Y146725D01*
X541950Y146730D01*
X542017Y146760D01*
X542088Y146782D01*
X542127Y146810D01*
X542172Y146830D01*
X542285Y146923D01*
X542286Y146924D01*
X544140Y148777D01*
X546644Y149815D01*
X549356Y149815D01*
X551860Y148777D01*
X553777Y146860D01*
X554815Y144356D01*
X554815Y141644D01*
X553777Y139140D01*
X551860Y137223D01*
X549356Y136185D01*
X546644Y136185D01*
G37*
%LPD*%
%LPC*%
G36*
X307297Y159935D02*
X307297Y159935D01*
X303782Y161391D01*
X301091Y164082D01*
X299635Y167597D01*
X299635Y171403D01*
X301091Y174918D01*
X303782Y177609D01*
X307297Y179065D01*
X311103Y179065D01*
X314618Y177609D01*
X317309Y174918D01*
X318765Y171403D01*
X318765Y167597D01*
X317309Y164082D01*
X314618Y161391D01*
X311103Y159935D01*
X307297Y159935D01*
G37*
%LPD*%
%LPC*%
G36*
X764147Y796685D02*
X764147Y796685D01*
X760724Y798103D01*
X758103Y800724D01*
X756685Y804147D01*
X756685Y807853D01*
X758103Y811276D01*
X760724Y813897D01*
X764147Y815315D01*
X767853Y815315D01*
X771276Y813897D01*
X773897Y811276D01*
X775315Y807853D01*
X775315Y804147D01*
X773897Y800724D01*
X771276Y798103D01*
X767853Y796685D01*
X764147Y796685D01*
G37*
%LPD*%
%LPC*%
G36*
X939147Y425685D02*
X939147Y425685D01*
X935724Y427103D01*
X933103Y429724D01*
X931685Y433147D01*
X931685Y436853D01*
X933103Y440276D01*
X935724Y442897D01*
X939147Y444315D01*
X942853Y444315D01*
X946276Y442897D01*
X948897Y440276D01*
X950315Y436853D01*
X950315Y433147D01*
X948897Y429724D01*
X946276Y427103D01*
X942853Y425685D01*
X939147Y425685D01*
G37*
%LPD*%
%LPC*%
G36*
X968147Y427685D02*
X968147Y427685D01*
X964724Y429103D01*
X962103Y431724D01*
X960685Y435147D01*
X960685Y438853D01*
X962103Y442276D01*
X964724Y444897D01*
X968147Y446315D01*
X971853Y446315D01*
X975276Y444897D01*
X977897Y442276D01*
X979315Y438853D01*
X979315Y435147D01*
X977897Y431724D01*
X975276Y429103D01*
X971853Y427685D01*
X968147Y427685D01*
G37*
%LPD*%
%LPC*%
G36*
X118694Y270435D02*
X118694Y270435D01*
X116281Y271435D01*
X114435Y273281D01*
X113435Y275694D01*
X113435Y278306D01*
X114435Y280719D01*
X115686Y281970D01*
X115701Y281990D01*
X115720Y282006D01*
X115771Y282089D01*
X115828Y282169D01*
X115836Y282192D01*
X115848Y282213D01*
X115871Y282308D01*
X115899Y282402D01*
X115899Y282427D01*
X115904Y282450D01*
X115895Y282548D01*
X115891Y282646D01*
X115883Y282669D01*
X115880Y282693D01*
X115840Y282783D01*
X115806Y282874D01*
X115790Y282893D01*
X115780Y282916D01*
X115686Y283030D01*
X114435Y284281D01*
X113435Y286694D01*
X113435Y289306D01*
X114435Y291719D01*
X116281Y293565D01*
X118694Y294565D01*
X121306Y294565D01*
X123719Y293565D01*
X125565Y291719D01*
X126565Y289306D01*
X126565Y286694D01*
X125565Y284281D01*
X124314Y283030D01*
X124299Y283010D01*
X124281Y282994D01*
X124229Y282911D01*
X124172Y282831D01*
X124164Y282808D01*
X124152Y282787D01*
X124129Y282692D01*
X124101Y282598D01*
X124101Y282574D01*
X124096Y282550D01*
X124105Y282452D01*
X124109Y282354D01*
X124117Y282331D01*
X124120Y282307D01*
X124160Y282218D01*
X124194Y282126D01*
X124210Y282107D01*
X124220Y282084D01*
X124314Y281970D01*
X125565Y280719D01*
X126565Y278306D01*
X126565Y275694D01*
X125565Y273281D01*
X123719Y271435D01*
X121306Y270435D01*
X118694Y270435D01*
G37*
%LPD*%
%LPC*%
G36*
X509644Y107185D02*
X509644Y107185D01*
X507140Y108223D01*
X505223Y110140D01*
X504185Y112644D01*
X504185Y115356D01*
X505223Y117860D01*
X507140Y119777D01*
X509644Y120815D01*
X512356Y120815D01*
X514860Y119777D01*
X514970Y119667D01*
X514990Y119653D01*
X515006Y119634D01*
X515089Y119582D01*
X515168Y119525D01*
X515192Y119518D01*
X515213Y119505D01*
X515308Y119483D01*
X515402Y119454D01*
X515426Y119455D01*
X515450Y119450D01*
X515548Y119459D01*
X515646Y119462D01*
X515669Y119471D01*
X515693Y119473D01*
X515782Y119514D01*
X515874Y119548D01*
X515893Y119564D01*
X515916Y119574D01*
X516030Y119667D01*
X516140Y119777D01*
X518644Y120815D01*
X521356Y120815D01*
X523860Y119777D01*
X525777Y117860D01*
X526815Y115356D01*
X526815Y112644D01*
X525777Y110140D01*
X523860Y108223D01*
X521356Y107185D01*
X518644Y107185D01*
X516140Y108223D01*
X516030Y108333D01*
X516010Y108347D01*
X515994Y108366D01*
X515911Y108418D01*
X515831Y108475D01*
X515808Y108482D01*
X515787Y108495D01*
X515692Y108517D01*
X515598Y108546D01*
X515573Y108545D01*
X515550Y108550D01*
X515452Y108541D01*
X515354Y108538D01*
X515331Y108529D01*
X515307Y108527D01*
X515217Y108486D01*
X515126Y108452D01*
X515107Y108436D01*
X515084Y108426D01*
X514970Y108333D01*
X514860Y108223D01*
X512356Y107185D01*
X509644Y107185D01*
G37*
%LPD*%
%LPC*%
G36*
X333448Y97382D02*
X333448Y97382D01*
X330943Y98419D01*
X329026Y100336D01*
X327989Y102841D01*
X327989Y104371D01*
X327967Y104501D01*
X327949Y104611D01*
X327887Y104727D01*
X327834Y104826D01*
X327751Y104904D01*
X327656Y104993D01*
X327655Y104994D01*
X327526Y105063D01*
X327140Y105223D01*
X325223Y107140D01*
X324185Y109644D01*
X324185Y112356D01*
X325223Y114860D01*
X327140Y116777D01*
X329644Y117815D01*
X332356Y117815D01*
X334860Y116777D01*
X336777Y114860D01*
X337815Y112356D01*
X337815Y110826D01*
X337839Y110679D01*
X337854Y110586D01*
X337854Y110585D01*
X337916Y110470D01*
X337969Y110371D01*
X337969Y110370D01*
X338052Y110292D01*
X338147Y110204D01*
X338147Y110203D01*
X338148Y110203D01*
X338277Y110134D01*
X338664Y109974D01*
X340581Y108057D01*
X341618Y105552D01*
X341618Y102841D01*
X340581Y100336D01*
X338664Y98419D01*
X336159Y97382D01*
X333448Y97382D01*
G37*
%LPD*%
%LPC*%
G36*
X351446Y250185D02*
X351446Y250185D01*
X348573Y251375D01*
X346375Y253573D01*
X345185Y256446D01*
X345185Y259554D01*
X346375Y262427D01*
X348573Y264625D01*
X351446Y265815D01*
X354554Y265815D01*
X357427Y264625D01*
X359625Y262427D01*
X360815Y259554D01*
X360815Y256446D01*
X359625Y253573D01*
X357427Y251375D01*
X354554Y250185D01*
X351446Y250185D01*
G37*
%LPD*%
%LPC*%
G36*
X476446Y273185D02*
X476446Y273185D01*
X473573Y274375D01*
X471375Y276573D01*
X470185Y279446D01*
X470185Y282554D01*
X471375Y285427D01*
X473573Y287625D01*
X476446Y288815D01*
X479554Y288815D01*
X482427Y287625D01*
X484625Y285427D01*
X485815Y282554D01*
X485815Y279446D01*
X484625Y276573D01*
X482427Y274375D01*
X479554Y273185D01*
X476446Y273185D01*
G37*
%LPD*%
%LPC*%
G36*
X95446Y245185D02*
X95446Y245185D01*
X92573Y246375D01*
X90375Y248573D01*
X89185Y251446D01*
X89185Y254554D01*
X90375Y257427D01*
X92573Y259625D01*
X95446Y260815D01*
X98554Y260815D01*
X101427Y259625D01*
X103625Y257427D01*
X104815Y254554D01*
X104815Y251446D01*
X103625Y248573D01*
X101427Y246375D01*
X98554Y245185D01*
X95446Y245185D01*
G37*
%LPD*%
%LPC*%
G36*
X450446Y273185D02*
X450446Y273185D01*
X447573Y274375D01*
X445375Y276573D01*
X444185Y279446D01*
X444185Y282554D01*
X445375Y285427D01*
X447573Y287625D01*
X450446Y288815D01*
X453554Y288815D01*
X456427Y287625D01*
X458625Y285427D01*
X459815Y282554D01*
X459815Y279446D01*
X458625Y276573D01*
X456427Y274375D01*
X453554Y273185D01*
X450446Y273185D01*
G37*
%LPD*%
%LPC*%
G36*
X887446Y381185D02*
X887446Y381185D01*
X884573Y382375D01*
X882375Y384573D01*
X881185Y387446D01*
X881185Y390554D01*
X882375Y393427D01*
X884573Y395625D01*
X887446Y396815D01*
X890554Y396815D01*
X893427Y395625D01*
X895625Y393427D01*
X896815Y390554D01*
X896815Y387446D01*
X895625Y384573D01*
X893427Y382375D01*
X890554Y381185D01*
X887446Y381185D01*
G37*
%LPD*%
%LPC*%
G36*
X913446Y381185D02*
X913446Y381185D01*
X910573Y382375D01*
X908375Y384573D01*
X907185Y387446D01*
X907185Y390554D01*
X908375Y393427D01*
X910573Y395625D01*
X913446Y396815D01*
X916554Y396815D01*
X919427Y395625D01*
X921625Y393427D01*
X922815Y390554D01*
X922815Y387446D01*
X921625Y384573D01*
X919427Y382375D01*
X916554Y381185D01*
X913446Y381185D01*
G37*
%LPD*%
%LPC*%
G36*
X939446Y381185D02*
X939446Y381185D01*
X936573Y382375D01*
X934375Y384573D01*
X933185Y387446D01*
X933185Y390554D01*
X934375Y393427D01*
X936573Y395625D01*
X939446Y396815D01*
X942554Y396815D01*
X945427Y395625D01*
X947625Y393427D01*
X948815Y390554D01*
X948815Y387446D01*
X947625Y384573D01*
X945427Y382375D01*
X942554Y381185D01*
X939446Y381185D01*
G37*
%LPD*%
%LPC*%
G36*
X965446Y381185D02*
X965446Y381185D01*
X962573Y382375D01*
X960375Y384573D01*
X959185Y387446D01*
X959185Y390554D01*
X960375Y393427D01*
X962573Y395625D01*
X965446Y396815D01*
X968554Y396815D01*
X971427Y395625D01*
X973625Y393427D01*
X974815Y390554D01*
X974815Y387446D01*
X973625Y384573D01*
X971427Y382375D01*
X968554Y381185D01*
X965446Y381185D01*
G37*
%LPD*%
%LPC*%
G36*
X339446Y554185D02*
X339446Y554185D01*
X336573Y555375D01*
X334375Y557573D01*
X333185Y560446D01*
X333185Y563554D01*
X334375Y566427D01*
X336573Y568625D01*
X339446Y569815D01*
X342554Y569815D01*
X345427Y568625D01*
X347625Y566427D01*
X348815Y563554D01*
X348815Y560446D01*
X347625Y557573D01*
X345427Y555375D01*
X342554Y554185D01*
X339446Y554185D01*
G37*
%LPD*%
%LPC*%
G36*
X913446Y426185D02*
X913446Y426185D01*
X910573Y427375D01*
X908375Y429573D01*
X907185Y432446D01*
X907185Y435554D01*
X908375Y438427D01*
X910573Y440625D01*
X913446Y441815D01*
X916554Y441815D01*
X919427Y440625D01*
X921625Y438427D01*
X922815Y435554D01*
X922815Y432446D01*
X921625Y429573D01*
X919427Y427375D01*
X916554Y426185D01*
X913446Y426185D01*
G37*
%LPD*%
%LPC*%
G36*
X917446Y518185D02*
X917446Y518185D01*
X914573Y519375D01*
X912375Y521573D01*
X911185Y524446D01*
X911185Y527554D01*
X912375Y530427D01*
X914573Y532625D01*
X917446Y533815D01*
X920554Y533815D01*
X923427Y532625D01*
X925625Y530427D01*
X926815Y527554D01*
X926815Y524446D01*
X925625Y521573D01*
X923427Y519375D01*
X920554Y518185D01*
X917446Y518185D01*
G37*
%LPD*%
%LPC*%
G36*
X918446Y559185D02*
X918446Y559185D01*
X915573Y560375D01*
X913375Y562573D01*
X912185Y565446D01*
X912185Y568554D01*
X913375Y571427D01*
X915573Y573625D01*
X918446Y574815D01*
X921554Y574815D01*
X924427Y573625D01*
X926625Y571427D01*
X927815Y568554D01*
X927815Y565446D01*
X926625Y562573D01*
X924427Y560375D01*
X921554Y559185D01*
X918446Y559185D01*
G37*
%LPD*%
%LPC*%
G36*
X323446Y572185D02*
X323446Y572185D01*
X320573Y573375D01*
X318375Y575573D01*
X317185Y578446D01*
X317185Y581554D01*
X318375Y584427D01*
X320573Y586625D01*
X323446Y587815D01*
X326554Y587815D01*
X329427Y586625D01*
X331625Y584427D01*
X332815Y581554D01*
X332815Y578446D01*
X331625Y575573D01*
X329427Y573375D01*
X326554Y572185D01*
X323446Y572185D01*
G37*
%LPD*%
%LPC*%
G36*
X701545Y679685D02*
X701545Y679685D01*
X698857Y680799D01*
X696799Y682857D01*
X695685Y685545D01*
X695685Y688455D01*
X696799Y691143D01*
X698857Y693201D01*
X701545Y694315D01*
X704455Y694315D01*
X707143Y693201D01*
X709201Y691143D01*
X710315Y688455D01*
X710315Y685545D01*
X709201Y682857D01*
X707143Y680799D01*
X704455Y679685D01*
X701545Y679685D01*
G37*
%LPD*%
%LPC*%
G36*
X817595Y732935D02*
X817595Y732935D01*
X814998Y734011D01*
X813011Y735998D01*
X811935Y738595D01*
X811935Y741405D01*
X813011Y744002D01*
X814998Y745989D01*
X817595Y747065D01*
X820405Y747065D01*
X823002Y745989D01*
X824989Y744002D01*
X826065Y741405D01*
X826065Y738595D01*
X824989Y735998D01*
X823002Y734011D01*
X820405Y732935D01*
X817595Y732935D01*
G37*
%LPD*%
%LPC*%
G36*
X975795Y162435D02*
X975795Y162435D01*
X973198Y163511D01*
X971211Y165498D01*
X970135Y168095D01*
X970135Y170905D01*
X971211Y173502D01*
X973198Y175489D01*
X975795Y176565D01*
X978605Y176565D01*
X981202Y175489D01*
X983189Y173502D01*
X984265Y170905D01*
X984265Y168095D01*
X983189Y165498D01*
X981202Y163511D01*
X978605Y162435D01*
X975795Y162435D01*
G37*
%LPD*%
%LPC*%
G36*
X936644Y189185D02*
X936644Y189185D01*
X934140Y190223D01*
X932223Y192140D01*
X931185Y194644D01*
X931185Y197356D01*
X932223Y199860D01*
X934140Y201777D01*
X936644Y202815D01*
X939356Y202815D01*
X941860Y201777D01*
X943777Y199860D01*
X944815Y197356D01*
X944815Y194644D01*
X943777Y192140D01*
X941860Y190223D01*
X939356Y189185D01*
X936644Y189185D01*
G37*
%LPD*%
%LPC*%
G36*
X957644Y189185D02*
X957644Y189185D01*
X955140Y190223D01*
X953223Y192140D01*
X952185Y194644D01*
X952185Y197356D01*
X953223Y199860D01*
X955140Y201777D01*
X957644Y202815D01*
X960356Y202815D01*
X962860Y201777D01*
X964777Y199860D01*
X965815Y197356D01*
X965815Y194644D01*
X964777Y192140D01*
X962860Y190223D01*
X960356Y189185D01*
X957644Y189185D01*
G37*
%LPD*%
%LPC*%
G36*
X910644Y217185D02*
X910644Y217185D01*
X908140Y218223D01*
X906223Y220140D01*
X905185Y222644D01*
X905185Y225356D01*
X906223Y227860D01*
X908140Y229777D01*
X910644Y230815D01*
X913356Y230815D01*
X915860Y229777D01*
X917777Y227860D01*
X918815Y225356D01*
X918815Y222644D01*
X917777Y220140D01*
X915860Y218223D01*
X913356Y217185D01*
X910644Y217185D01*
G37*
%LPD*%
%LPC*%
G36*
X535644Y184185D02*
X535644Y184185D01*
X533140Y185223D01*
X531223Y187140D01*
X530185Y189644D01*
X530185Y192356D01*
X531223Y194860D01*
X533140Y196777D01*
X535644Y197815D01*
X538356Y197815D01*
X540860Y196777D01*
X542777Y194860D01*
X543815Y192356D01*
X543815Y189644D01*
X542777Y187140D01*
X540860Y185223D01*
X538356Y184185D01*
X535644Y184185D01*
G37*
%LPD*%
%LPC*%
G36*
X143644Y280185D02*
X143644Y280185D01*
X141140Y281223D01*
X139223Y283140D01*
X138185Y285644D01*
X138185Y288356D01*
X139223Y290860D01*
X141140Y292777D01*
X143644Y293815D01*
X146356Y293815D01*
X148860Y292777D01*
X150777Y290860D01*
X151815Y288356D01*
X151815Y285644D01*
X150777Y283140D01*
X148860Y281223D01*
X146356Y280185D01*
X143644Y280185D01*
G37*
%LPD*%
%LPC*%
G36*
X640644Y144185D02*
X640644Y144185D01*
X638140Y145223D01*
X636223Y147140D01*
X635185Y149644D01*
X635185Y152356D01*
X636223Y154860D01*
X638140Y156777D01*
X640644Y157815D01*
X643356Y157815D01*
X645860Y156777D01*
X647777Y154860D01*
X648815Y152356D01*
X648815Y149644D01*
X647777Y147140D01*
X645860Y145223D01*
X643356Y144185D01*
X640644Y144185D01*
G37*
%LPD*%
%LPC*%
G36*
X160644Y44185D02*
X160644Y44185D01*
X158140Y45223D01*
X156223Y47140D01*
X155185Y49644D01*
X155185Y52356D01*
X156223Y54860D01*
X158140Y56777D01*
X160644Y57815D01*
X163356Y57815D01*
X165860Y56777D01*
X167777Y54860D01*
X168815Y52356D01*
X168815Y49644D01*
X167777Y47140D01*
X165860Y45223D01*
X163356Y44185D01*
X160644Y44185D01*
G37*
%LPD*%
%LPC*%
G36*
X227644Y42185D02*
X227644Y42185D01*
X225140Y43223D01*
X223223Y45140D01*
X222185Y47644D01*
X222185Y50356D01*
X223223Y52860D01*
X225140Y54777D01*
X227644Y55815D01*
X230356Y55815D01*
X232860Y54777D01*
X234777Y52860D01*
X235815Y50356D01*
X235815Y47644D01*
X234777Y45140D01*
X232860Y43223D01*
X230356Y42185D01*
X227644Y42185D01*
G37*
%LPD*%
%LPC*%
G36*
X535644Y378185D02*
X535644Y378185D01*
X533140Y379223D01*
X531223Y381140D01*
X530185Y383644D01*
X530185Y386356D01*
X531223Y388860D01*
X533140Y390777D01*
X535644Y391815D01*
X538356Y391815D01*
X540860Y390777D01*
X542777Y388860D01*
X543815Y386356D01*
X543815Y383644D01*
X542777Y381140D01*
X540860Y379223D01*
X538356Y378185D01*
X535644Y378185D01*
G37*
%LPD*%
%LPC*%
G36*
X712644Y166185D02*
X712644Y166185D01*
X710140Y167223D01*
X708223Y169140D01*
X707185Y171644D01*
X707185Y174356D01*
X708223Y176860D01*
X710140Y178777D01*
X712644Y179815D01*
X715356Y179815D01*
X717860Y178777D01*
X719777Y176860D01*
X720815Y174356D01*
X720815Y171644D01*
X719777Y169140D01*
X717860Y167223D01*
X715356Y166185D01*
X712644Y166185D01*
G37*
%LPD*%
%LPC*%
G36*
X391644Y107185D02*
X391644Y107185D01*
X389140Y108223D01*
X387223Y110140D01*
X386185Y112644D01*
X386185Y115356D01*
X387223Y117860D01*
X389140Y119777D01*
X391644Y120815D01*
X394356Y120815D01*
X396860Y119777D01*
X398777Y117860D01*
X399815Y115356D01*
X399815Y112644D01*
X398777Y110140D01*
X396860Y108223D01*
X394356Y107185D01*
X391644Y107185D01*
G37*
%LPD*%
%LPC*%
G36*
X569644Y89185D02*
X569644Y89185D01*
X567140Y90223D01*
X565223Y92140D01*
X564185Y94644D01*
X564185Y97356D01*
X565223Y99860D01*
X567140Y101777D01*
X569644Y102815D01*
X572356Y102815D01*
X574860Y101777D01*
X576777Y99860D01*
X577815Y97356D01*
X577815Y94644D01*
X576777Y92140D01*
X574860Y90223D01*
X572356Y89185D01*
X569644Y89185D01*
G37*
%LPD*%
%LPC*%
G36*
X320644Y203185D02*
X320644Y203185D01*
X318140Y204223D01*
X316223Y206140D01*
X315185Y208644D01*
X315185Y211356D01*
X316223Y213860D01*
X318140Y215777D01*
X320644Y216815D01*
X323356Y216815D01*
X325860Y215777D01*
X327777Y213860D01*
X328815Y211356D01*
X328815Y208644D01*
X327777Y206140D01*
X325860Y204223D01*
X323356Y203185D01*
X320644Y203185D01*
G37*
%LPD*%
%LPC*%
G36*
X594644Y85185D02*
X594644Y85185D01*
X592140Y86223D01*
X590223Y88140D01*
X589185Y90644D01*
X589185Y93356D01*
X590223Y95860D01*
X592140Y97777D01*
X594644Y98815D01*
X597356Y98815D01*
X599860Y97777D01*
X601777Y95860D01*
X602815Y93356D01*
X602815Y90644D01*
X601777Y88140D01*
X599860Y86223D01*
X597356Y85185D01*
X594644Y85185D01*
G37*
%LPD*%
%LPC*%
G36*
X1059644Y383185D02*
X1059644Y383185D01*
X1057140Y384223D01*
X1055223Y386140D01*
X1054185Y388644D01*
X1054185Y391356D01*
X1055223Y393860D01*
X1057140Y395777D01*
X1059644Y396815D01*
X1062356Y396815D01*
X1064860Y395777D01*
X1066777Y393860D01*
X1067815Y391356D01*
X1067815Y388644D01*
X1066777Y386140D01*
X1064860Y384223D01*
X1062356Y383185D01*
X1059644Y383185D01*
G37*
%LPD*%
%LPC*%
G36*
X183644Y61185D02*
X183644Y61185D01*
X181140Y62223D01*
X179223Y64140D01*
X178185Y66644D01*
X178185Y69356D01*
X179223Y71860D01*
X181140Y73777D01*
X183644Y74815D01*
X186356Y74815D01*
X188860Y73777D01*
X190777Y71860D01*
X191815Y69356D01*
X191815Y66644D01*
X190777Y64140D01*
X188860Y62223D01*
X186356Y61185D01*
X183644Y61185D01*
G37*
%LPD*%
%LPC*%
G36*
X206644Y60185D02*
X206644Y60185D01*
X204140Y61223D01*
X202223Y63140D01*
X201185Y65644D01*
X201185Y68356D01*
X202223Y70860D01*
X204140Y72777D01*
X206644Y73815D01*
X209356Y73815D01*
X211860Y72777D01*
X213777Y70860D01*
X214815Y68356D01*
X214815Y65644D01*
X213777Y63140D01*
X211860Y61223D01*
X209356Y60185D01*
X206644Y60185D01*
G37*
%LPD*%
%LPC*%
G36*
X630644Y172185D02*
X630644Y172185D01*
X628140Y173223D01*
X626223Y175140D01*
X625185Y177644D01*
X625185Y180356D01*
X626223Y182860D01*
X628140Y184777D01*
X630644Y185815D01*
X633356Y185815D01*
X635860Y184777D01*
X637777Y182860D01*
X638815Y180356D01*
X638815Y177644D01*
X637777Y175140D01*
X635860Y173223D01*
X633356Y172185D01*
X630644Y172185D01*
G37*
%LPD*%
%LPC*%
G36*
X1056644Y442185D02*
X1056644Y442185D01*
X1054140Y443223D01*
X1052223Y445140D01*
X1051185Y447644D01*
X1051185Y450356D01*
X1052223Y452860D01*
X1054140Y454777D01*
X1056644Y455815D01*
X1059356Y455815D01*
X1061860Y454777D01*
X1063777Y452860D01*
X1064815Y450356D01*
X1064815Y447644D01*
X1063777Y445140D01*
X1061860Y443223D01*
X1059356Y442185D01*
X1056644Y442185D01*
G37*
%LPD*%
%LPC*%
G36*
X454644Y483185D02*
X454644Y483185D01*
X452140Y484223D01*
X450223Y486140D01*
X449185Y488644D01*
X449185Y491356D01*
X450223Y493860D01*
X452140Y495777D01*
X454644Y496815D01*
X457356Y496815D01*
X459860Y495777D01*
X461777Y493860D01*
X462815Y491356D01*
X462815Y488644D01*
X461777Y486140D01*
X459860Y484223D01*
X457356Y483185D01*
X454644Y483185D01*
G37*
%LPD*%
%LPC*%
G36*
X360644Y498185D02*
X360644Y498185D01*
X358140Y499223D01*
X356223Y501140D01*
X355185Y503644D01*
X355185Y506356D01*
X356223Y508860D01*
X358140Y510777D01*
X360644Y511815D01*
X363356Y511815D01*
X365860Y510777D01*
X367777Y508860D01*
X368815Y506356D01*
X368815Y503644D01*
X367777Y501140D01*
X365860Y499223D01*
X363356Y498185D01*
X360644Y498185D01*
G37*
%LPD*%
%LPC*%
G36*
X805644Y174185D02*
X805644Y174185D01*
X803140Y175223D01*
X801223Y177140D01*
X800185Y179644D01*
X800185Y182356D01*
X801223Y184860D01*
X803140Y186777D01*
X805644Y187815D01*
X808356Y187815D01*
X810860Y186777D01*
X812777Y184860D01*
X813815Y182356D01*
X813815Y179644D01*
X812777Y177140D01*
X810860Y175223D01*
X808356Y174185D01*
X805644Y174185D01*
G37*
%LPD*%
%LPC*%
G36*
X767644Y187185D02*
X767644Y187185D01*
X765140Y188223D01*
X763223Y190140D01*
X762185Y192644D01*
X762185Y195356D01*
X763223Y197860D01*
X765140Y199777D01*
X767644Y200815D01*
X770356Y200815D01*
X772860Y199777D01*
X774777Y197860D01*
X775815Y195356D01*
X775815Y192644D01*
X774777Y190140D01*
X772860Y188223D01*
X770356Y187185D01*
X767644Y187185D01*
G37*
%LPD*%
%LPC*%
G36*
X914644Y189185D02*
X914644Y189185D01*
X912140Y190223D01*
X910223Y192140D01*
X909185Y194644D01*
X909185Y197356D01*
X910223Y199860D01*
X912140Y201777D01*
X914644Y202815D01*
X917356Y202815D01*
X919860Y201777D01*
X921777Y199860D01*
X922815Y197356D01*
X922815Y194644D01*
X921777Y192140D01*
X919860Y190223D01*
X917356Y189185D01*
X914644Y189185D01*
G37*
%LPD*%
%LPC*%
G36*
X227644Y22185D02*
X227644Y22185D01*
X225140Y23223D01*
X223223Y25140D01*
X222185Y27644D01*
X222185Y30356D01*
X223223Y32860D01*
X225140Y34777D01*
X227644Y35815D01*
X230356Y35815D01*
X232860Y34777D01*
X234777Y32860D01*
X235815Y30356D01*
X235815Y27644D01*
X234777Y25140D01*
X232860Y23223D01*
X230356Y22185D01*
X227644Y22185D01*
G37*
%LPD*%
%LPC*%
G36*
X160644Y19185D02*
X160644Y19185D01*
X158140Y20223D01*
X156223Y22140D01*
X155185Y24644D01*
X155185Y27356D01*
X156223Y29860D01*
X158140Y31777D01*
X160644Y32815D01*
X163356Y32815D01*
X165860Y31777D01*
X167777Y29860D01*
X168815Y27356D01*
X168815Y24644D01*
X167777Y22140D01*
X165860Y20223D01*
X163356Y19185D01*
X160644Y19185D01*
G37*
%LPD*%
%LPC*%
G36*
X770644Y670185D02*
X770644Y670185D01*
X768140Y671223D01*
X766223Y673140D01*
X765185Y675644D01*
X765185Y678356D01*
X766223Y680860D01*
X768140Y682777D01*
X770644Y683815D01*
X773356Y683815D01*
X775860Y682777D01*
X777777Y680860D01*
X778815Y678356D01*
X778815Y675644D01*
X777777Y673140D01*
X775860Y671223D01*
X773356Y670185D01*
X770644Y670185D01*
G37*
%LPD*%
%LPC*%
G36*
X930694Y107435D02*
X930694Y107435D01*
X928281Y108435D01*
X926435Y110281D01*
X925435Y112694D01*
X925435Y115306D01*
X926435Y117719D01*
X928281Y119565D01*
X930694Y120565D01*
X933306Y120565D01*
X935719Y119565D01*
X937565Y117719D01*
X938565Y115306D01*
X938565Y112694D01*
X937565Y110281D01*
X935719Y108435D01*
X933306Y107435D01*
X930694Y107435D01*
G37*
%LPD*%
%LPC*%
G36*
X955694Y108435D02*
X955694Y108435D01*
X953281Y109435D01*
X951435Y111281D01*
X950435Y113694D01*
X950435Y116306D01*
X951435Y118719D01*
X953281Y120565D01*
X955694Y121565D01*
X958306Y121565D01*
X960719Y120565D01*
X962565Y118719D01*
X963565Y116306D01*
X963565Y113694D01*
X962565Y111281D01*
X960719Y109435D01*
X958306Y108435D01*
X955694Y108435D01*
G37*
%LPD*%
%LPC*%
G36*
X906694Y107435D02*
X906694Y107435D01*
X904281Y108435D01*
X902435Y110281D01*
X901435Y112694D01*
X901435Y115306D01*
X902435Y117719D01*
X904281Y119565D01*
X906694Y120565D01*
X909306Y120565D01*
X911719Y119565D01*
X913565Y117719D01*
X914565Y115306D01*
X914565Y112694D01*
X913565Y110281D01*
X911719Y108435D01*
X909306Y107435D01*
X906694Y107435D01*
G37*
%LPD*%
D10*
X130000Y644500D03*
X130000Y796500D03*
X450000Y638500D03*
X450000Y663900D03*
D11*
X1042100Y158300D03*
X1042100Y208300D03*
D12*
X1069100Y148300D03*
X1069100Y218300D03*
D13*
X50000Y693000D03*
X50000Y743800D03*
D14*
X354600Y31200D03*
X354600Y56600D03*
X380000Y31200D03*
X380000Y56600D03*
X405400Y31200D03*
X405400Y56600D03*
X430800Y31200D03*
X430800Y56600D03*
X456200Y31200D03*
X456200Y56600D03*
X481600Y31200D03*
X481600Y56600D03*
X507000Y31200D03*
X507000Y56600D03*
X532400Y31200D03*
X532400Y56600D03*
X557800Y31200D03*
X557800Y56600D03*
X583200Y31200D03*
X583200Y56600D03*
X608600Y31200D03*
X608600Y56600D03*
X634000Y31200D03*
X634000Y56600D03*
X659400Y31200D03*
X659400Y56600D03*
X684800Y31200D03*
X684800Y56600D03*
X710200Y31200D03*
X710200Y56600D03*
X735600Y31200D03*
X735600Y56600D03*
X761000Y31200D03*
X761000Y56600D03*
X786400Y31200D03*
X786400Y56600D03*
X811800Y31200D03*
X811800Y56600D03*
X837200Y31200D03*
X837200Y56600D03*
D15*
X46500Y162200D03*
X46500Y127200D03*
X46500Y92200D03*
D10*
X546500Y600000D03*
X622700Y600000D03*
X277000Y510500D03*
X257000Y450500D03*
X257000Y570500D03*
X135000Y450500D03*
X135000Y570500D03*
D13*
X50000Y485000D03*
X50000Y535800D03*
D14*
X1044000Y277000D03*
X1044000Y302400D03*
X1044000Y327800D03*
D16*
X578470Y143000D03*
X596930Y143000D03*
X614470Y143000D03*
X636000Y144000D03*
D17*
X255000Y106000D03*
X220000Y136000D03*
X265000Y84000D03*
X173000Y28000D03*
D16*
X951000Y196000D03*
X903480Y224480D03*
D18*
X919000Y188000D03*
D19*
X1021730Y196000D03*
D20*
X746000Y784000D03*
X719000Y681000D03*
D18*
X754000Y729000D03*
X762000Y729000D03*
X754000Y722000D03*
X762000Y722000D03*
X754000Y715000D03*
X762000Y715000D03*
X754000Y708000D03*
X762000Y708000D03*
X922000Y115000D03*
X561000Y142000D03*
D16*
X1053000Y416000D03*
D17*
X278000Y817000D03*
X304000Y817000D03*
X328000Y817000D03*
X353000Y817000D03*
X378000Y817000D03*
X406000Y817000D03*
X433000Y817000D03*
X460000Y817000D03*
X486000Y817000D03*
X513000Y817000D03*
X542000Y817000D03*
X569000Y817000D03*
X598000Y817000D03*
X622000Y817000D03*
X646000Y817000D03*
X278000Y792000D03*
X304000Y792000D03*
X328000Y792000D03*
X353000Y792000D03*
X378000Y792000D03*
X406000Y792000D03*
X433000Y792000D03*
X460000Y792000D03*
X486000Y792000D03*
X513000Y792000D03*
X542000Y792000D03*
X569000Y792000D03*
X598000Y792000D03*
X622000Y792000D03*
X646000Y792000D03*
X253000Y817000D03*
X328000Y768000D03*
X353000Y768000D03*
X378000Y768000D03*
X406000Y768000D03*
X433000Y768000D03*
X460000Y768000D03*
X303000Y768000D03*
X328000Y743000D03*
X353000Y743000D03*
X378000Y743000D03*
X406000Y743000D03*
X433000Y743000D03*
X460000Y743000D03*
X809000Y814000D03*
X835000Y814000D03*
X859000Y814000D03*
X884000Y814000D03*
X909000Y814000D03*
X937000Y814000D03*
X964000Y814000D03*
X991000Y814000D03*
X809000Y789000D03*
X835000Y789000D03*
X859000Y789000D03*
X884000Y789000D03*
X909000Y789000D03*
X937000Y789000D03*
X964000Y789000D03*
X991000Y789000D03*
X885000Y750000D03*
X911000Y750000D03*
X935000Y750000D03*
X960000Y750000D03*
X985000Y750000D03*
X1013000Y750000D03*
X1040000Y750000D03*
X1067000Y750000D03*
X885000Y725000D03*
X911000Y725000D03*
X935000Y725000D03*
X960000Y725000D03*
X985000Y725000D03*
X1013000Y725000D03*
X1040000Y725000D03*
X1067000Y725000D03*
X885000Y698000D03*
X911000Y698000D03*
X935000Y698000D03*
X960000Y698000D03*
X985000Y698000D03*
X1013000Y698000D03*
X1040000Y698000D03*
X1067000Y698000D03*
X885000Y673000D03*
X911000Y673000D03*
X935000Y673000D03*
X960000Y673000D03*
X985000Y673000D03*
X1013000Y673000D03*
X1040000Y673000D03*
X1067000Y673000D03*
X886000Y646000D03*
X912000Y646000D03*
X936000Y646000D03*
X961000Y646000D03*
X986000Y646000D03*
X1014000Y646000D03*
X1041000Y646000D03*
X1068000Y646000D03*
X886000Y621000D03*
X912000Y621000D03*
X936000Y621000D03*
X961000Y621000D03*
X986000Y621000D03*
X1014000Y621000D03*
X1041000Y621000D03*
X1068000Y621000D03*
X680000Y621000D03*
X706000Y621000D03*
X730000Y621000D03*
X755000Y621000D03*
X780000Y621000D03*
X808000Y621000D03*
X835000Y621000D03*
X862000Y621000D03*
X680000Y596000D03*
X706000Y596000D03*
X730000Y596000D03*
X755000Y596000D03*
X780000Y596000D03*
X808000Y596000D03*
X835000Y596000D03*
X862000Y596000D03*
X681000Y572000D03*
X707000Y572000D03*
X731000Y572000D03*
X756000Y572000D03*
X781000Y572000D03*
X809000Y572000D03*
X836000Y572000D03*
X863000Y572000D03*
X681000Y547000D03*
X707000Y547000D03*
X731000Y547000D03*
X756000Y547000D03*
X781000Y547000D03*
X809000Y547000D03*
X836000Y547000D03*
X863000Y547000D03*
X655000Y523000D03*
X681000Y523000D03*
X705000Y523000D03*
X730000Y523000D03*
X755000Y523000D03*
X783000Y523000D03*
X810000Y523000D03*
X837000Y523000D03*
X655000Y498000D03*
X681000Y498000D03*
X705000Y498000D03*
X730000Y498000D03*
X755000Y498000D03*
X783000Y498000D03*
X810000Y498000D03*
X837000Y498000D03*
X987000Y594000D03*
X1015000Y594000D03*
X1042000Y594000D03*
X1069000Y594000D03*
X987000Y569000D03*
X1015000Y569000D03*
X1042000Y569000D03*
X1069000Y569000D03*
X988000Y542000D03*
X1016000Y542000D03*
X1043000Y542000D03*
X1070000Y542000D03*
X988000Y517000D03*
X1016000Y517000D03*
X1043000Y517000D03*
X1070000Y517000D03*
X655000Y473000D03*
X681000Y473000D03*
X705000Y473000D03*
X730000Y473000D03*
X755000Y473000D03*
X655000Y448000D03*
X681000Y448000D03*
X705000Y448000D03*
X730000Y448000D03*
X755000Y448000D03*
X655000Y423000D03*
X681000Y423000D03*
X705000Y423000D03*
X730000Y423000D03*
X755000Y423000D03*
X655000Y398000D03*
X681000Y398000D03*
X705000Y398000D03*
X730000Y398000D03*
X755000Y398000D03*
X814000Y361000D03*
X840000Y361000D03*
X864000Y361000D03*
X889000Y361000D03*
X814000Y336000D03*
X840000Y336000D03*
X864000Y336000D03*
X889000Y336000D03*
X814000Y311000D03*
X840000Y311000D03*
X864000Y311000D03*
X889000Y311000D03*
X814000Y286000D03*
X840000Y286000D03*
X864000Y286000D03*
X889000Y286000D03*
X630000Y524000D03*
X630000Y499000D03*
X630000Y474000D03*
X630000Y449000D03*
X630000Y424000D03*
X630000Y399000D03*
X328000Y416000D03*
X353000Y416000D03*
X378000Y416000D03*
X403000Y416000D03*
X428000Y416000D03*
X453000Y416000D03*
X354000Y719000D03*
X379000Y719000D03*
X407000Y719000D03*
X354000Y694000D03*
X379000Y694000D03*
X407000Y694000D03*
X354000Y670000D03*
X379000Y670000D03*
X407000Y670000D03*
X354000Y645000D03*
X379000Y645000D03*
X407000Y645000D03*
X136000Y392000D03*
X162000Y392000D03*
X186000Y392000D03*
X211000Y392000D03*
X236000Y392000D03*
X264000Y392000D03*
X291000Y392000D03*
X318000Y392000D03*
X344000Y392000D03*
X371000Y392000D03*
X400000Y392000D03*
X427000Y392000D03*
X456000Y392000D03*
X111000Y392000D03*
X328000Y440000D03*
X353000Y440000D03*
X378000Y440000D03*
X403000Y440000D03*
X428000Y440000D03*
X453000Y440000D03*
X328000Y464000D03*
X353000Y464000D03*
X378000Y464000D03*
X403000Y464000D03*
X428000Y464000D03*
X453000Y464000D03*
X731000Y376000D03*
X731000Y351000D03*
X731000Y326000D03*
X731000Y301000D03*
X706000Y375000D03*
X706000Y350000D03*
X706000Y325000D03*
X682000Y376000D03*
X682000Y351000D03*
X655000Y376000D03*
X783000Y473000D03*
X808000Y473000D03*
X783000Y448000D03*
X808000Y448000D03*
X886000Y28000D03*
X912000Y28000D03*
X936000Y28000D03*
X961000Y28000D03*
X986000Y28000D03*
X614000Y714000D03*
X638000Y714000D03*
X614000Y689000D03*
X638000Y689000D03*
X568000Y741000D03*
X592000Y741000D03*
X568000Y716000D03*
X592000Y716000D03*
X486000Y769000D03*
X513000Y769000D03*
X542000Y769000D03*
X569000Y769000D03*
X433000Y719000D03*
X460000Y719000D03*
X588000Y659000D03*
X613000Y659000D03*
X641000Y659000D03*
X588000Y635000D03*
X613000Y635000D03*
X641000Y635000D03*
X189000Y287000D03*
X214000Y287000D03*
X242000Y287000D03*
X189000Y263000D03*
X214000Y263000D03*
X242000Y263000D03*
X242000Y185000D03*
X242000Y210000D03*
X242000Y238000D03*
X266000Y185000D03*
X266000Y210000D03*
X266000Y238000D03*
X266000Y287000D03*
X266000Y263000D03*
X214000Y238000D03*
X214000Y211000D03*
X190000Y238000D03*
X165000Y263000D03*
X165000Y287000D03*
X364000Y303000D03*
X390000Y303000D03*
X417000Y303000D03*
X446000Y303000D03*
X473000Y303000D03*
X502000Y303000D03*
X890000Y158000D03*
X761000Y158000D03*
X787000Y158000D03*
X811000Y158000D03*
X836000Y158000D03*
X601000Y399000D03*
X601000Y425000D03*
X601000Y452000D03*
X601000Y481000D03*
X601000Y508000D03*
X601000Y537000D03*
X962000Y519000D03*
X962000Y545000D03*
X962000Y569000D03*
X962000Y594000D03*
D16*
X393000Y114000D03*
X634000Y88000D03*
X596000Y92000D03*
X571000Y96000D03*
X620000Y93000D03*
X511000Y114000D03*
X520000Y114000D03*
X548000Y143000D03*
X714000Y173000D03*
X728000Y167000D03*
X734000Y159000D03*
X583000Y149000D03*
X591000Y150000D03*
X601920Y149920D03*
X609420Y149420D03*
X723000Y153000D03*
X1061000Y390000D03*
X322000Y210000D03*
X632000Y179000D03*
X807000Y181000D03*
X185000Y68000D03*
X183618Y27618D03*
X207000Y26000D03*
X208000Y67000D03*
X162000Y26000D03*
X162000Y51000D03*
X229000Y49000D03*
X229000Y29000D03*
D21*
X198000Y451000D03*
D22*
X529000Y731000D03*
D20*
X325000Y580000D03*
X341000Y562000D03*
D23*
X766000Y806000D03*
D16*
X772000Y677000D03*
D23*
X970000Y437000D03*
D16*
X195000Y26000D03*
D23*
X941000Y435000D03*
D20*
X920000Y567000D03*
D17*
X819000Y740000D03*
D24*
X710000Y777000D03*
D16*
X145000Y287000D03*
D20*
X452000Y281000D03*
X478000Y281000D03*
X353000Y258000D03*
X97000Y253000D03*
D19*
X703000Y687000D03*
D24*
X795000Y663000D03*
D10*
X881000Y436000D03*
D20*
X915000Y434000D03*
X919000Y526000D03*
D18*
X957000Y115000D03*
D20*
X967000Y389000D03*
D16*
X952000Y143000D03*
X954000Y225000D03*
X959000Y196000D03*
D18*
X932000Y114000D03*
D20*
X941000Y389000D03*
D16*
X940000Y224000D03*
X938000Y196000D03*
X938000Y143000D03*
D18*
X908000Y114000D03*
D20*
X889000Y389000D03*
D16*
X912000Y224000D03*
X916000Y196000D03*
X914000Y143000D03*
D20*
X915000Y389000D03*
D16*
X929000Y227000D03*
X926000Y144000D03*
X1028000Y165000D03*
X769000Y194000D03*
X1058000Y449000D03*
X334803Y104197D03*
D18*
X120000Y288000D03*
D16*
X331000Y111000D03*
D18*
X120000Y277000D03*
D16*
X535000Y144000D03*
X537000Y385000D03*
X537000Y191000D03*
X456000Y490000D03*
X642000Y151000D03*
D17*
X672000Y44000D03*
D16*
X362000Y505000D03*
X305000Y510000D03*
M02*
