G04 EAGLE Gerber X2 export*
%TF.Part,Single*%
%TF.FileFunction,Profile,NP*%
%TF.FilePolarity,Positive*%
%TF.GenerationSoftware,Autodesk,EAGLE,9.0.1*%
%TF.CreationDate,2018-07-19T23:26:44Z*%
G75*
%MOMM*%
%FSLAX34Y34*%
%LPD*%
%AMOC8*
5,1,8,0,0,1.08239X$1,22.5*%
G01*
%ADD10C,0.254000*%


D10*
X0Y0D02*
X1100000Y0D01*
X1100000Y850000D01*
X0Y850000D01*
X0Y0D01*
X56000Y39476D02*
X55932Y38431D01*
X55795Y37392D01*
X55590Y36365D01*
X55319Y35353D01*
X54983Y34361D01*
X54582Y33393D01*
X54118Y32454D01*
X53595Y31546D01*
X53013Y30675D01*
X52375Y29844D01*
X51684Y29057D01*
X50943Y28316D01*
X50156Y27625D01*
X49325Y26988D01*
X48454Y26406D01*
X47546Y25882D01*
X46607Y25418D01*
X45639Y25017D01*
X44647Y24681D01*
X43635Y24410D01*
X42608Y24205D01*
X41569Y24069D01*
X40524Y24000D01*
X39476Y24000D01*
X38431Y24069D01*
X37392Y24205D01*
X36365Y24410D01*
X35353Y24681D01*
X34361Y25017D01*
X33393Y25418D01*
X32454Y25882D01*
X31546Y26406D01*
X30675Y26988D01*
X29844Y27625D01*
X29057Y28316D01*
X28316Y29057D01*
X27625Y29844D01*
X26988Y30675D01*
X26406Y31546D01*
X25882Y32454D01*
X25418Y33393D01*
X25017Y34361D01*
X24681Y35353D01*
X24410Y36365D01*
X24205Y37392D01*
X24069Y38431D01*
X24000Y39476D01*
X24000Y40524D01*
X24069Y41569D01*
X24205Y42608D01*
X24410Y43635D01*
X24681Y44647D01*
X25017Y45639D01*
X25418Y46607D01*
X25882Y47546D01*
X26406Y48454D01*
X26988Y49325D01*
X27625Y50156D01*
X28316Y50943D01*
X29057Y51684D01*
X29844Y52375D01*
X30675Y53013D01*
X31546Y53595D01*
X32454Y54118D01*
X33393Y54582D01*
X34361Y54983D01*
X35353Y55319D01*
X36365Y55590D01*
X37392Y55795D01*
X38431Y55932D01*
X39476Y56000D01*
X40524Y56000D01*
X41569Y55932D01*
X42608Y55795D01*
X43635Y55590D01*
X44647Y55319D01*
X45639Y54983D01*
X46607Y54582D01*
X47546Y54118D01*
X48454Y53595D01*
X49325Y53013D01*
X50156Y52375D01*
X50943Y51684D01*
X51684Y50943D01*
X52375Y50156D01*
X53013Y49325D01*
X53595Y48454D01*
X54118Y47546D01*
X54582Y46607D01*
X54983Y45639D01*
X55319Y44647D01*
X55590Y43635D01*
X55795Y42608D01*
X55932Y41569D01*
X56000Y40524D01*
X56000Y39476D01*
X56000Y809476D02*
X55932Y808431D01*
X55795Y807392D01*
X55590Y806365D01*
X55319Y805353D01*
X54983Y804361D01*
X54582Y803393D01*
X54118Y802454D01*
X53595Y801546D01*
X53013Y800675D01*
X52375Y799844D01*
X51684Y799057D01*
X50943Y798316D01*
X50156Y797625D01*
X49325Y796988D01*
X48454Y796406D01*
X47546Y795882D01*
X46607Y795418D01*
X45639Y795017D01*
X44647Y794681D01*
X43635Y794410D01*
X42608Y794205D01*
X41569Y794069D01*
X40524Y794000D01*
X39476Y794000D01*
X38431Y794069D01*
X37392Y794205D01*
X36365Y794410D01*
X35353Y794681D01*
X34361Y795017D01*
X33393Y795418D01*
X32454Y795882D01*
X31546Y796406D01*
X30675Y796988D01*
X29844Y797625D01*
X29057Y798316D01*
X28316Y799057D01*
X27625Y799844D01*
X26988Y800675D01*
X26406Y801546D01*
X25882Y802454D01*
X25418Y803393D01*
X25017Y804361D01*
X24681Y805353D01*
X24410Y806365D01*
X24205Y807392D01*
X24069Y808431D01*
X24000Y809476D01*
X24000Y810524D01*
X24069Y811569D01*
X24205Y812608D01*
X24410Y813635D01*
X24681Y814647D01*
X25017Y815639D01*
X25418Y816607D01*
X25882Y817546D01*
X26406Y818454D01*
X26988Y819325D01*
X27625Y820156D01*
X28316Y820943D01*
X29057Y821684D01*
X29844Y822375D01*
X30675Y823013D01*
X31546Y823595D01*
X32454Y824118D01*
X33393Y824582D01*
X34361Y824983D01*
X35353Y825319D01*
X36365Y825590D01*
X37392Y825795D01*
X38431Y825932D01*
X39476Y826000D01*
X40524Y826000D01*
X41569Y825932D01*
X42608Y825795D01*
X43635Y825590D01*
X44647Y825319D01*
X45639Y824983D01*
X46607Y824582D01*
X47546Y824118D01*
X48454Y823595D01*
X49325Y823013D01*
X50156Y822375D01*
X50943Y821684D01*
X51684Y820943D01*
X52375Y820156D01*
X53013Y819325D01*
X53595Y818454D01*
X54118Y817546D01*
X54582Y816607D01*
X54983Y815639D01*
X55319Y814647D01*
X55590Y813635D01*
X55795Y812608D01*
X55932Y811569D01*
X56000Y810524D01*
X56000Y809476D01*
X1076000Y39476D02*
X1075932Y38431D01*
X1075795Y37392D01*
X1075590Y36365D01*
X1075319Y35353D01*
X1074983Y34361D01*
X1074582Y33393D01*
X1074118Y32454D01*
X1073595Y31546D01*
X1073013Y30675D01*
X1072375Y29844D01*
X1071684Y29057D01*
X1070943Y28316D01*
X1070156Y27625D01*
X1069325Y26988D01*
X1068454Y26406D01*
X1067546Y25882D01*
X1066607Y25418D01*
X1065639Y25017D01*
X1064647Y24681D01*
X1063635Y24410D01*
X1062608Y24205D01*
X1061569Y24069D01*
X1060524Y24000D01*
X1059476Y24000D01*
X1058431Y24069D01*
X1057392Y24205D01*
X1056365Y24410D01*
X1055353Y24681D01*
X1054361Y25017D01*
X1053393Y25418D01*
X1052454Y25882D01*
X1051546Y26406D01*
X1050675Y26988D01*
X1049844Y27625D01*
X1049057Y28316D01*
X1048316Y29057D01*
X1047625Y29844D01*
X1046988Y30675D01*
X1046406Y31546D01*
X1045882Y32454D01*
X1045418Y33393D01*
X1045017Y34361D01*
X1044681Y35353D01*
X1044410Y36365D01*
X1044205Y37392D01*
X1044069Y38431D01*
X1044000Y39476D01*
X1044000Y40524D01*
X1044069Y41569D01*
X1044205Y42608D01*
X1044410Y43635D01*
X1044681Y44647D01*
X1045017Y45639D01*
X1045418Y46607D01*
X1045882Y47546D01*
X1046406Y48454D01*
X1046988Y49325D01*
X1047625Y50156D01*
X1048316Y50943D01*
X1049057Y51684D01*
X1049844Y52375D01*
X1050675Y53013D01*
X1051546Y53595D01*
X1052454Y54118D01*
X1053393Y54582D01*
X1054361Y54983D01*
X1055353Y55319D01*
X1056365Y55590D01*
X1057392Y55795D01*
X1058431Y55932D01*
X1059476Y56000D01*
X1060524Y56000D01*
X1061569Y55932D01*
X1062608Y55795D01*
X1063635Y55590D01*
X1064647Y55319D01*
X1065639Y54983D01*
X1066607Y54582D01*
X1067546Y54118D01*
X1068454Y53595D01*
X1069325Y53013D01*
X1070156Y52375D01*
X1070943Y51684D01*
X1071684Y50943D01*
X1072375Y50156D01*
X1073013Y49325D01*
X1073595Y48454D01*
X1074118Y47546D01*
X1074582Y46607D01*
X1074983Y45639D01*
X1075319Y44647D01*
X1075590Y43635D01*
X1075795Y42608D01*
X1075932Y41569D01*
X1076000Y40524D01*
X1076000Y39476D01*
X1076000Y809476D02*
X1075932Y808431D01*
X1075795Y807392D01*
X1075590Y806365D01*
X1075319Y805353D01*
X1074983Y804361D01*
X1074582Y803393D01*
X1074118Y802454D01*
X1073595Y801546D01*
X1073013Y800675D01*
X1072375Y799844D01*
X1071684Y799057D01*
X1070943Y798316D01*
X1070156Y797625D01*
X1069325Y796988D01*
X1068454Y796406D01*
X1067546Y795882D01*
X1066607Y795418D01*
X1065639Y795017D01*
X1064647Y794681D01*
X1063635Y794410D01*
X1062608Y794205D01*
X1061569Y794069D01*
X1060524Y794000D01*
X1059476Y794000D01*
X1058431Y794069D01*
X1057392Y794205D01*
X1056365Y794410D01*
X1055353Y794681D01*
X1054361Y795017D01*
X1053393Y795418D01*
X1052454Y795882D01*
X1051546Y796406D01*
X1050675Y796988D01*
X1049844Y797625D01*
X1049057Y798316D01*
X1048316Y799057D01*
X1047625Y799844D01*
X1046988Y800675D01*
X1046406Y801546D01*
X1045882Y802454D01*
X1045418Y803393D01*
X1045017Y804361D01*
X1044681Y805353D01*
X1044410Y806365D01*
X1044205Y807392D01*
X1044069Y808431D01*
X1044000Y809476D01*
X1044000Y810524D01*
X1044069Y811569D01*
X1044205Y812608D01*
X1044410Y813635D01*
X1044681Y814647D01*
X1045017Y815639D01*
X1045418Y816607D01*
X1045882Y817546D01*
X1046406Y818454D01*
X1046988Y819325D01*
X1047625Y820156D01*
X1048316Y820943D01*
X1049057Y821684D01*
X1049844Y822375D01*
X1050675Y823013D01*
X1051546Y823595D01*
X1052454Y824118D01*
X1053393Y824582D01*
X1054361Y824983D01*
X1055353Y825319D01*
X1056365Y825590D01*
X1057392Y825795D01*
X1058431Y825932D01*
X1059476Y826000D01*
X1060524Y826000D01*
X1061569Y825932D01*
X1062608Y825795D01*
X1063635Y825590D01*
X1064647Y825319D01*
X1065639Y824983D01*
X1066607Y824582D01*
X1067546Y824118D01*
X1068454Y823595D01*
X1069325Y823013D01*
X1070156Y822375D01*
X1070943Y821684D01*
X1071684Y820943D01*
X1072375Y820156D01*
X1073013Y819325D01*
X1073595Y818454D01*
X1074118Y817546D01*
X1074582Y816607D01*
X1074983Y815639D01*
X1075319Y814647D01*
X1075590Y813635D01*
X1075795Y812608D01*
X1075932Y811569D01*
X1076000Y810524D01*
X1076000Y809476D01*
X56000Y39476D02*
X55932Y38431D01*
X55795Y37392D01*
X55590Y36365D01*
X55319Y35353D01*
X54983Y34361D01*
X54582Y33393D01*
X54118Y32454D01*
X53595Y31546D01*
X53013Y30675D01*
X52375Y29844D01*
X51684Y29057D01*
X50943Y28316D01*
X50156Y27625D01*
X49325Y26988D01*
X48454Y26406D01*
X47546Y25882D01*
X46607Y25418D01*
X45639Y25017D01*
X44647Y24681D01*
X43635Y24410D01*
X42608Y24205D01*
X41569Y24069D01*
X40524Y24000D01*
X39476Y24000D01*
X38431Y24069D01*
X37392Y24205D01*
X36365Y24410D01*
X35353Y24681D01*
X34361Y25017D01*
X33393Y25418D01*
X32454Y25882D01*
X31546Y26406D01*
X30675Y26988D01*
X29844Y27625D01*
X29057Y28316D01*
X28316Y29057D01*
X27625Y29844D01*
X26988Y30675D01*
X26406Y31546D01*
X25882Y32454D01*
X25418Y33393D01*
X25017Y34361D01*
X24681Y35353D01*
X24410Y36365D01*
X24205Y37392D01*
X24069Y38431D01*
X24000Y39476D01*
X24000Y40524D01*
X24069Y41569D01*
X24205Y42608D01*
X24410Y43635D01*
X24681Y44647D01*
X25017Y45639D01*
X25418Y46607D01*
X25882Y47546D01*
X26406Y48454D01*
X26988Y49325D01*
X27625Y50156D01*
X28316Y50943D01*
X29057Y51684D01*
X29844Y52375D01*
X30675Y53013D01*
X31546Y53595D01*
X32454Y54118D01*
X33393Y54582D01*
X34361Y54983D01*
X35353Y55319D01*
X36365Y55590D01*
X37392Y55795D01*
X38431Y55932D01*
X39476Y56000D01*
X40524Y56000D01*
X41569Y55932D01*
X42608Y55795D01*
X43635Y55590D01*
X44647Y55319D01*
X45639Y54983D01*
X46607Y54582D01*
X47546Y54118D01*
X48454Y53595D01*
X49325Y53013D01*
X50156Y52375D01*
X50943Y51684D01*
X51684Y50943D01*
X52375Y50156D01*
X53013Y49325D01*
X53595Y48454D01*
X54118Y47546D01*
X54582Y46607D01*
X54983Y45639D01*
X55319Y44647D01*
X55590Y43635D01*
X55795Y42608D01*
X55932Y41569D01*
X56000Y40524D01*
X56000Y39476D01*
X56000Y809476D02*
X55932Y808431D01*
X55795Y807392D01*
X55590Y806365D01*
X55319Y805353D01*
X54983Y804361D01*
X54582Y803393D01*
X54118Y802454D01*
X53595Y801546D01*
X53013Y800675D01*
X52375Y799844D01*
X51684Y799057D01*
X50943Y798316D01*
X50156Y797625D01*
X49325Y796988D01*
X48454Y796406D01*
X47546Y795882D01*
X46607Y795418D01*
X45639Y795017D01*
X44647Y794681D01*
X43635Y794410D01*
X42608Y794205D01*
X41569Y794069D01*
X40524Y794000D01*
X39476Y794000D01*
X38431Y794069D01*
X37392Y794205D01*
X36365Y794410D01*
X35353Y794681D01*
X34361Y795017D01*
X33393Y795418D01*
X32454Y795882D01*
X31546Y796406D01*
X30675Y796988D01*
X29844Y797625D01*
X29057Y798316D01*
X28316Y799057D01*
X27625Y799844D01*
X26988Y800675D01*
X26406Y801546D01*
X25882Y802454D01*
X25418Y803393D01*
X25017Y804361D01*
X24681Y805353D01*
X24410Y806365D01*
X24205Y807392D01*
X24069Y808431D01*
X24000Y809476D01*
X24000Y810524D01*
X24069Y811569D01*
X24205Y812608D01*
X24410Y813635D01*
X24681Y814647D01*
X25017Y815639D01*
X25418Y816607D01*
X25882Y817546D01*
X26406Y818454D01*
X26988Y819325D01*
X27625Y820156D01*
X28316Y820943D01*
X29057Y821684D01*
X29844Y822375D01*
X30675Y823013D01*
X31546Y823595D01*
X32454Y824118D01*
X33393Y824582D01*
X34361Y824983D01*
X35353Y825319D01*
X36365Y825590D01*
X37392Y825795D01*
X38431Y825932D01*
X39476Y826000D01*
X40524Y826000D01*
X41569Y825932D01*
X42608Y825795D01*
X43635Y825590D01*
X44647Y825319D01*
X45639Y824983D01*
X46607Y824582D01*
X47546Y824118D01*
X48454Y823595D01*
X49325Y823013D01*
X50156Y822375D01*
X50943Y821684D01*
X51684Y820943D01*
X52375Y820156D01*
X53013Y819325D01*
X53595Y818454D01*
X54118Y817546D01*
X54582Y816607D01*
X54983Y815639D01*
X55319Y814647D01*
X55590Y813635D01*
X55795Y812608D01*
X55932Y811569D01*
X56000Y810524D01*
X56000Y809476D01*
X1076000Y39476D02*
X1075932Y38431D01*
X1075795Y37392D01*
X1075590Y36365D01*
X1075319Y35353D01*
X1074983Y34361D01*
X1074582Y33393D01*
X1074118Y32454D01*
X1073595Y31546D01*
X1073013Y30675D01*
X1072375Y29844D01*
X1071684Y29057D01*
X1070943Y28316D01*
X1070156Y27625D01*
X1069325Y26988D01*
X1068454Y26406D01*
X1067546Y25882D01*
X1066607Y25418D01*
X1065639Y25017D01*
X1064647Y24681D01*
X1063635Y24410D01*
X1062608Y24205D01*
X1061569Y24069D01*
X1060524Y24000D01*
X1059476Y24000D01*
X1058431Y24069D01*
X1057392Y24205D01*
X1056365Y24410D01*
X1055353Y24681D01*
X1054361Y25017D01*
X1053393Y25418D01*
X1052454Y25882D01*
X1051546Y26406D01*
X1050675Y26988D01*
X1049844Y27625D01*
X1049057Y28316D01*
X1048316Y29057D01*
X1047625Y29844D01*
X1046988Y30675D01*
X1046406Y31546D01*
X1045882Y32454D01*
X1045418Y33393D01*
X1045017Y34361D01*
X1044681Y35353D01*
X1044410Y36365D01*
X1044205Y37392D01*
X1044069Y38431D01*
X1044000Y39476D01*
X1044000Y40524D01*
X1044069Y41569D01*
X1044205Y42608D01*
X1044410Y43635D01*
X1044681Y44647D01*
X1045017Y45639D01*
X1045418Y46607D01*
X1045882Y47546D01*
X1046406Y48454D01*
X1046988Y49325D01*
X1047625Y50156D01*
X1048316Y50943D01*
X1049057Y51684D01*
X1049844Y52375D01*
X1050675Y53013D01*
X1051546Y53595D01*
X1052454Y54118D01*
X1053393Y54582D01*
X1054361Y54983D01*
X1055353Y55319D01*
X1056365Y55590D01*
X1057392Y55795D01*
X1058431Y55932D01*
X1059476Y56000D01*
X1060524Y56000D01*
X1061569Y55932D01*
X1062608Y55795D01*
X1063635Y55590D01*
X1064647Y55319D01*
X1065639Y54983D01*
X1066607Y54582D01*
X1067546Y54118D01*
X1068454Y53595D01*
X1069325Y53013D01*
X1070156Y52375D01*
X1070943Y51684D01*
X1071684Y50943D01*
X1072375Y50156D01*
X1073013Y49325D01*
X1073595Y48454D01*
X1074118Y47546D01*
X1074582Y46607D01*
X1074983Y45639D01*
X1075319Y44647D01*
X1075590Y43635D01*
X1075795Y42608D01*
X1075932Y41569D01*
X1076000Y40524D01*
X1076000Y39476D01*
X1076000Y809476D02*
X1075932Y808431D01*
X1075795Y807392D01*
X1075590Y806365D01*
X1075319Y805353D01*
X1074983Y804361D01*
X1074582Y803393D01*
X1074118Y802454D01*
X1073595Y801546D01*
X1073013Y800675D01*
X1072375Y799844D01*
X1071684Y799057D01*
X1070943Y798316D01*
X1070156Y797625D01*
X1069325Y796988D01*
X1068454Y796406D01*
X1067546Y795882D01*
X1066607Y795418D01*
X1065639Y795017D01*
X1064647Y794681D01*
X1063635Y794410D01*
X1062608Y794205D01*
X1061569Y794069D01*
X1060524Y794000D01*
X1059476Y794000D01*
X1058431Y794069D01*
X1057392Y794205D01*
X1056365Y794410D01*
X1055353Y794681D01*
X1054361Y795017D01*
X1053393Y795418D01*
X1052454Y795882D01*
X1051546Y796406D01*
X1050675Y796988D01*
X1049844Y797625D01*
X1049057Y798316D01*
X1048316Y799057D01*
X1047625Y799844D01*
X1046988Y800675D01*
X1046406Y801546D01*
X1045882Y802454D01*
X1045418Y803393D01*
X1045017Y804361D01*
X1044681Y805353D01*
X1044410Y806365D01*
X1044205Y807392D01*
X1044069Y808431D01*
X1044000Y809476D01*
X1044000Y810524D01*
X1044069Y811569D01*
X1044205Y812608D01*
X1044410Y813635D01*
X1044681Y814647D01*
X1045017Y815639D01*
X1045418Y816607D01*
X1045882Y817546D01*
X1046406Y818454D01*
X1046988Y819325D01*
X1047625Y820156D01*
X1048316Y820943D01*
X1049057Y821684D01*
X1049844Y822375D01*
X1050675Y823013D01*
X1051546Y823595D01*
X1052454Y824118D01*
X1053393Y824582D01*
X1054361Y824983D01*
X1055353Y825319D01*
X1056365Y825590D01*
X1057392Y825795D01*
X1058431Y825932D01*
X1059476Y826000D01*
X1060524Y826000D01*
X1061569Y825932D01*
X1062608Y825795D01*
X1063635Y825590D01*
X1064647Y825319D01*
X1065639Y824983D01*
X1066607Y824582D01*
X1067546Y824118D01*
X1068454Y823595D01*
X1069325Y823013D01*
X1070156Y822375D01*
X1070943Y821684D01*
X1071684Y820943D01*
X1072375Y820156D01*
X1073013Y819325D01*
X1073595Y818454D01*
X1074118Y817546D01*
X1074582Y816607D01*
X1074983Y815639D01*
X1075319Y814647D01*
X1075590Y813635D01*
X1075795Y812608D01*
X1075932Y811569D01*
X1076000Y810524D01*
X1076000Y809476D01*
X314700Y169191D02*
X314631Y168577D01*
X314493Y167975D01*
X314289Y167392D01*
X314021Y166835D01*
X313693Y166312D01*
X313308Y165829D01*
X312871Y165393D01*
X312388Y165007D01*
X311865Y164679D01*
X311308Y164411D01*
X310725Y164207D01*
X310123Y164069D01*
X309509Y164000D01*
X308891Y164000D01*
X308277Y164069D01*
X307675Y164207D01*
X307092Y164411D01*
X306535Y164679D01*
X306012Y165007D01*
X305529Y165393D01*
X305093Y165829D01*
X304707Y166312D01*
X304379Y166835D01*
X304111Y167392D01*
X303907Y167975D01*
X303769Y168577D01*
X303700Y169191D01*
X303700Y169809D01*
X303769Y170423D01*
X303907Y171025D01*
X304111Y171608D01*
X304379Y172165D01*
X304707Y172688D01*
X305093Y173171D01*
X305529Y173608D01*
X306012Y173993D01*
X306535Y174321D01*
X307092Y174589D01*
X307675Y174793D01*
X308277Y174931D01*
X308891Y175000D01*
X309509Y175000D01*
X310123Y174931D01*
X310725Y174793D01*
X311308Y174589D01*
X311865Y174321D01*
X312388Y173993D01*
X312871Y173608D01*
X313308Y173171D01*
X313693Y172688D01*
X314021Y172165D01*
X314289Y171608D01*
X314493Y171025D01*
X314631Y170423D01*
X314700Y169809D01*
X314700Y169191D01*
X980200Y169264D02*
X980126Y168798D01*
X979980Y168348D01*
X979766Y167928D01*
X979488Y167546D01*
X979154Y167212D01*
X978772Y166934D01*
X978352Y166720D01*
X977903Y166574D01*
X977436Y166500D01*
X976964Y166500D01*
X976498Y166574D01*
X976048Y166720D01*
X975628Y166934D01*
X975246Y167212D01*
X974912Y167546D01*
X974634Y167928D01*
X974420Y168348D01*
X974274Y168798D01*
X974200Y169264D01*
X974200Y169736D01*
X974274Y170203D01*
X974420Y170652D01*
X974634Y171072D01*
X974912Y171454D01*
X975246Y171788D01*
X975628Y172066D01*
X976048Y172280D01*
X976498Y172426D01*
X976964Y172500D01*
X977436Y172500D01*
X977903Y172426D01*
X978352Y172280D01*
X978772Y172066D01*
X979154Y171788D01*
X979488Y171454D01*
X979766Y171072D01*
X979980Y170652D01*
X980126Y170203D01*
X980200Y169736D01*
X980200Y169264D01*
M02*
