M48
METRIC
;LEADER: 12 
;HEADER: 
;CODE  : ASCII 
;FILE  : RPI-CMIO-V1_2-PUBLIC-1-6-np.drl for  ... layers TOP and BOTTOM
;DESIGN: RPI-CMIO-V1_2-PUBLIC.brd
;   Holesize 1. = 1.100000 Tolerance = +0.000000/-0.000000 NON_PLATED MM Quantity = 1
;   Holesize 2. = 1.600000 Tolerance = +0.000000/-0.000000 NON_PLATED MM Quantity = 1
;   Holesize 3. = 2.400000 Tolerance = +0.000000/-0.000000 NON_PLATED MM Quantity = 2
;   Holesize 4. = 3.400000 Tolerance = +0.000000/-0.000000 NON_PLATED MM Quantity = 4
%
G90
X027000Y025100
M00
X027000Y091900
M00
X054000Y027700
X054000Y089300
M00
X004000Y004000
X004000Y101000
X081000Y004000
X081000Y101000
M30
